<?xml version="1.0" encoding="UTF-8"?>
<model ref="r:3b2b033a-b5e6-4dd1-ae96-8f408f2889ff(EDAN70-Project-MPS.build)">
  <persistence version="9" />
  <languages>
    <use id="798100da-4f0a-421a-b991-71f8c50ce5d2" name="jetbrains.mps.build" version="0" />
    <use id="0cf935df-4699-4e9c-a132-fa109541cba3" name="jetbrains.mps.build.mps" version="7" />
    <use id="d5033cee-f632-44b6-b308-89d4fbde34ff" name="jetbrains.mps.build.startup" version="0" />
  </languages>
  <imports>
    <import index="ffeo" ref="r:874d959d-e3b4-4d04-b931-ca849af130dd(jetbrains.mps.ide.build)" />
  </imports>
  <registry>
    <language id="798100da-4f0a-421a-b991-71f8c50ce5d2" name="jetbrains.mps.build">
      <concept id="5481553824944787378" name="jetbrains.mps.build.structure.BuildSourceProjectRelativePath" flags="ng" index="55IIr" />
      <concept id="9126048691955220717" name="jetbrains.mps.build.structure.BuildLayout_File" flags="ng" index="28jJK3">
        <property id="9126048691955221291" name="filemode" index="28jJZ5" />
        <child id="9126048691955220774" name="parameters" index="28jJR8" />
        <child id="9126048691955220762" name="path" index="28jJRO" />
      </concept>
      <concept id="9126048691954557131" name="jetbrains.mps.build.structure.BuildLayout_Comment" flags="ng" index="28u9K_">
        <property id="9126048691954700811" name="text" index="28hIV_" />
      </concept>
      <concept id="2755237150521975431" name="jetbrains.mps.build.structure.BuildVariableMacroInitWithString" flags="ng" index="aVJcg">
        <child id="2755237150521975437" name="value" index="aVJcq" />
      </concept>
      <concept id="244868996532454372" name="jetbrains.mps.build.structure.BuildVariableMacroInitWithDate" flags="ng" index="hHN3E">
        <property id="244868996532454384" name="pattern" index="hHN3Y" />
      </concept>
      <concept id="7321017245476976379" name="jetbrains.mps.build.structure.BuildRelativePath" flags="ng" index="iG8Mu">
        <child id="7321017245477039051" name="compositePart" index="iGT6I" />
      </concept>
      <concept id="3767587139141066978" name="jetbrains.mps.build.structure.BuildVariableMacro" flags="ng" index="2kB4xC">
        <child id="2755237150521975432" name="initialValue" index="aVJcv" />
      </concept>
      <concept id="4993211115183325728" name="jetbrains.mps.build.structure.BuildProjectDependency" flags="ng" index="2sgV4H">
        <reference id="5617550519002745380" name="script" index="1l3spb" />
        <child id="4129895186893471026" name="artifacts" index="2JcizS" />
      </concept>
      <concept id="7801138212747054656" name="jetbrains.mps.build.structure.BuildLayout_Filemode" flags="ng" index="yKbIv">
        <property id="7801138212747054660" name="filemode" index="yKbIr" />
      </concept>
      <concept id="3970102152660702410" name="jetbrains.mps.build.structure.BuildLayout_CopyGlobMapper" flags="ng" index="2$gBol">
        <property id="3970102152660874508" name="from" index="2$htvj" />
        <child id="3970102152660874509" name="to" index="2$htvi" />
      </concept>
      <concept id="3970102152660876447" name="jetbrains.mps.build.structure.BuildLayout_CopyRegexMapper" flags="ng" index="2$htT0">
        <property id="3970102152660876449" name="replace" index="2$htTY" />
        <property id="3970102152660876448" name="pattern" index="2$htTZ" />
      </concept>
      <concept id="2750015747481074431" name="jetbrains.mps.build.structure.BuildLayout_Files" flags="ng" index="2HvfSZ">
        <child id="2750015747481074432" name="path" index="2HvfZ0" />
        <child id="2750015747481074433" name="parameters" index="2HvfZ1" />
      </concept>
      <concept id="4380385936562003279" name="jetbrains.mps.build.structure.BuildString" flags="ng" index="NbPM2">
        <child id="4903714810883783243" name="parts" index="3MwsjC" />
      </concept>
      <concept id="8618885170173601777" name="jetbrains.mps.build.structure.BuildCompositePath" flags="nn" index="2Ry0Ak">
        <property id="8618885170173601779" name="head" index="2Ry0Am" />
        <child id="8618885170173601778" name="tail" index="2Ry0An" />
      </concept>
      <concept id="6647099934206700647" name="jetbrains.mps.build.structure.BuildJavaPlugin" flags="ng" index="10PD9b" />
      <concept id="9184644532457106504" name="jetbrains.mps.build.structure.BuildLayout_CopyFilterReplaceRegex" flags="ng" index="1688n2">
        <property id="9184644532457106505" name="pattern" index="1688n3" />
        <property id="9184644532457106508" name="flags" index="1688n6" />
        <child id="9184644532457106506" name="value" index="1688n0" />
      </concept>
      <concept id="7389400916848050074" name="jetbrains.mps.build.structure.BuildLayout_Jar" flags="ng" index="3981dx" />
      <concept id="7389400916848050071" name="jetbrains.mps.build.structure.BuildLayout_Zip" flags="ng" index="3981dG" />
      <concept id="7389400916848050060" name="jetbrains.mps.build.structure.BuildLayout_NamedContainer" flags="ng" index="3981dR">
        <child id="4380385936562148502" name="containerName" index="Nbhlr" />
      </concept>
      <concept id="7389400916848036984" name="jetbrains.mps.build.structure.BuildLayout_Folder" flags="ng" index="398223" />
      <concept id="7389400916848136194" name="jetbrains.mps.build.structure.BuildFolderMacro" flags="ng" index="398rNT" />
      <concept id="7389400916848153117" name="jetbrains.mps.build.structure.BuildSourceMacroRelativePath" flags="ng" index="398BVA">
        <reference id="7389400916848153130" name="macro" index="398BVh" />
      </concept>
      <concept id="4198392933254416812" name="jetbrains.mps.build.structure.BuildLayout_CopyFilterFixCRLF" flags="ng" index="3co7Ac">
        <property id="4198392933254416822" name="eol" index="3co7Am" />
        <property id="4198392933254551900" name="removeEOF" index="3cpA_W" />
      </concept>
      <concept id="5617550519002745364" name="jetbrains.mps.build.structure.BuildLayout" flags="ng" index="1l3spV" />
      <concept id="5617550519002745363" name="jetbrains.mps.build.structure.BuildProject" flags="ng" index="1l3spW">
        <property id="4915877860348071612" name="fileName" index="turDy" />
        <property id="5204048710541015587" name="internalBaseDirectory" index="2DA0ip" />
        <child id="6647099934206700656" name="plugins" index="10PD9s" />
        <child id="7389400916848080626" name="parts" index="3989C9" />
        <child id="5617550519002745381" name="dependencies" index="1l3spa" />
        <child id="5617550519002745378" name="macros" index="1l3spd" />
        <child id="5617550519002745372" name="layout" index="1l3spN" />
      </concept>
      <concept id="8577651205286814211" name="jetbrains.mps.build.structure.BuildLayout_Tar" flags="ng" index="1tmT9g">
        <property id="1979010778009209128" name="compression" index="AB_bT" />
      </concept>
      <concept id="4701820937132344003" name="jetbrains.mps.build.structure.BuildLayout_Container" flags="ng" index="1y1bJS">
        <child id="7389400916848037006" name="children" index="39821P" />
      </concept>
      <concept id="5610619299013057363" name="jetbrains.mps.build.structure.BuildLayout_ImportContent" flags="ng" index="3ygNvl">
        <reference id="5610619299013057365" name="target" index="3ygNvj" />
        <child id="6789562173791401562" name="selectors" index="1juEy9" />
      </concept>
      <concept id="7753544965996647428" name="jetbrains.mps.build.structure.BuildLayout_FilesOf" flags="ng" index="1zDrgl">
        <reference id="7753544965996647430" name="element" index="1zDrgn" />
      </concept>
      <concept id="841011766565753074" name="jetbrains.mps.build.structure.BuildLayout_Import" flags="ng" index="3_I8Xc">
        <reference id="841011766565753076" name="target" index="3_I8Xa" />
      </concept>
      <concept id="841011766566059607" name="jetbrains.mps.build.structure.BuildStringNotEmpty" flags="ng" index="3_J27D" />
      <concept id="5248329904288051111" name="jetbrains.mps.build.structure.BuildFileExcludeSelector" flags="ng" index="3LWZYq">
        <property id="5248329904288051112" name="pattern" index="3LWZYl" />
      </concept>
      <concept id="5248329904288051100" name="jetbrains.mps.build.structure.BuildFileIncludeSelector" flags="ng" index="3LWZYx">
        <property id="5248329904288051101" name="pattern" index="3LWZYw" />
      </concept>
      <concept id="4903714810883702019" name="jetbrains.mps.build.structure.BuildTextStringPart" flags="ng" index="3Mxwew">
        <property id="4903714810883755350" name="text" index="3MwjfP" />
      </concept>
      <concept id="4903714810883702017" name="jetbrains.mps.build.structure.BuildVarRefStringPart" flags="ng" index="3Mxwey">
        <reference id="4903714810883702018" name="macro" index="3Mxwex" />
      </concept>
      <concept id="202934866059043946" name="jetbrains.mps.build.structure.BuildLayout_EchoProperties" flags="ng" index="1TblL5">
        <child id="202934866059043948" name="fileName" index="1TblL3" />
        <child id="202934866059043962" name="entries" index="1TblLl" />
      </concept>
      <concept id="202934866059043959" name="jetbrains.mps.build.structure.BuildLayout_EchoPropertyEntry" flags="ng" index="1TblLo">
        <property id="202934866059043960" name="key" index="1TblLn" />
        <child id="202934866059043961" name="value" index="1TblLm" />
      </concept>
    </language>
    <language id="ceab5195-25ea-4f22-9b92-103b95ca8c0c" name="jetbrains.mps.lang.core">
      <concept id="1169194658468" name="jetbrains.mps.lang.core.structure.INamedConcept" flags="ng" index="TrEIO">
        <property id="1169194664001" name="name" index="TrG5h" />
      </concept>
    </language>
    <language id="d5033cee-f632-44b6-b308-89d4fbde34ff" name="jetbrains.mps.build.startup">
      <concept id="3885435385580582153" name="jetbrains.mps.build.startup.structure.ClassPathItem" flags="ng" index="26EafG">
        <property id="3885435385580582154" name="path" index="26EafJ" />
      </concept>
      <concept id="3885435385580582152" name="jetbrains.mps.build.startup.structure.MpsStartupScript" flags="ng" index="26EafH">
        <property id="3885435385580582155" name="startupFolder" index="26EafI" />
        <property id="3885435385580631186" name="startupClass" index="26FY9R" />
        <reference id="3505522814897007561" name="branding" index="1_kbm$" />
        <child id="3885435385580582696" name="bootClasspath" index="26Ea7d" />
      </concept>
    </language>
    <language id="0cf935df-4699-4e9c-a132-fa109541cba3" name="jetbrains.mps.build.mps">
      <concept id="6818892319992984815" name="jetbrains.mps.build.mps.structure.BuildMps_TipsPackage" flags="ng" index="20sUq0">
        <reference id="7323166234190549907" name="tips" index="21GgXK" />
      </concept>
      <concept id="6592112598314586625" name="jetbrains.mps.build.mps.structure.BuildMps_IdeaPluginGroup" flags="ng" index="m$f5U">
        <reference id="6592112598314586626" name="group" index="m$f5T" />
      </concept>
      <concept id="6592112598314498932" name="jetbrains.mps.build.mps.structure.BuildMps_IdeaPlugin" flags="ng" index="m$_wf">
        <property id="6592112598314498927" name="id" index="m$_wk" />
        <child id="6592112598314498931" name="version" index="m$_w8" />
        <child id="6592112598314499050" name="content" index="m$_yh" />
        <child id="6592112598314499028" name="dependencies" index="m$_yJ" />
        <child id="6592112598314499021" name="name" index="m$_yQ" />
        <child id="6592112598314855574" name="containerName" index="m_cZH" />
      </concept>
      <concept id="6592112598314498926" name="jetbrains.mps.build.mps.structure.BuildMpsLayout_Plugin" flags="ng" index="m$_wl">
        <reference id="6592112598314801433" name="plugin" index="m_rDy" />
        <child id="3570488090019868128" name="packagingType" index="pUk7w" />
      </concept>
      <concept id="6592112598314499027" name="jetbrains.mps.build.mps.structure.BuildMps_IdeaPluginDependency" flags="ng" index="m$_yC">
        <reference id="6592112598314499066" name="target" index="m$_y1" />
      </concept>
      <concept id="3570488090019868065" name="jetbrains.mps.build.mps.structure.BuildMpsLayout_AutoPluginLayoutType" flags="ng" index="pUk6x" />
      <concept id="1500819558095907805" name="jetbrains.mps.build.mps.structure.BuildMps_Group" flags="ng" index="2G$12M">
        <child id="1500819558095907806" name="modules" index="2G$12L" />
      </concept>
      <concept id="868032131020265945" name="jetbrains.mps.build.mps.structure.BuildMPSPlugin" flags="ng" index="3b7kt6" />
      <concept id="8174907532631382425" name="jetbrains.mps.build.mps.structure.BuildMps_TipsMps" flags="ng" index="3jmSaf" />
      <concept id="8174907532628842428" name="jetbrains.mps.build.mps.structure.BuildMps_Tips" flags="ng" index="3jsGME">
        <child id="8174907532631382423" name="imports" index="3jmSa1" />
      </concept>
      <concept id="5507251971038816436" name="jetbrains.mps.build.mps.structure.BuildMps_Generator" flags="ng" index="1yeLz9" />
      <concept id="7753544965996377997" name="jetbrains.mps.build.mps.structure.BuildMps_Branding" flags="ng" index="1zClus">
        <property id="3497141547781541445" name="minor" index="2OjLBK" />
        <property id="3497141547781541444" name="major" index="2OjLBL" />
        <child id="6845119683729294884" name="progressColor" index="27hGoL" />
        <child id="922958177840117051" name="script" index="2gvbiD" />
        <child id="6108265972537182997" name="aboutScreen" index="2EqU2s" />
        <child id="6108265972537182996" name="splashScreen" index="2EqU2t" />
        <child id="6108265972537229337" name="buildNumber" index="2EteIg" />
        <child id="6108265972537229339" name="icon16" index="2EteIi" />
        <child id="6108265972537229338" name="icon32" index="2EteIj" />
        <child id="6108265972537372847" name="product" index="2EtHGA" />
        <child id="6108265972537372848" name="fullName" index="2EtHGT" />
        <child id="8795525031433238889" name="textColor" index="HFo83" />
        <child id="1462305029084462472" name="buildDate" index="R$TG_" />
        <child id="772379520210716142" name="welcomeLogo" index="3vi$VU" />
        <child id="1084163669516664629" name="copyrightForeground" index="3KTKoD" />
        <child id="1084163669516639223" name="foreground" index="3KTYbF" />
      </concept>
      <concept id="3189788309731840248" name="jetbrains.mps.build.mps.structure.BuildMps_Language" flags="ng" index="1E1JtD">
        <child id="9200313594498201639" name="generator" index="1TViLv" />
      </concept>
      <concept id="322010710375871467" name="jetbrains.mps.build.mps.structure.BuildMps_AbstractModule" flags="ng" index="3LEN3z">
        <property id="8369506495128725901" name="compact" index="BnDLt" />
        <property id="322010710375892619" name="uuid" index="3LESm3" />
        <child id="322010710375956261" name="path" index="3LF7KH" />
      </concept>
    </language>
  </registry>
  <node concept="1l3spW" id="4WJplAsXd4$">
    <property role="TrG5h" value="EDAN70-Project-MPS" />
    <property role="2DA0ip" value="../.." />
    <node concept="10PD9b" id="4WJplAsXd4_" role="10PD9s" />
    <node concept="3b7kt6" id="4WJplAsXd4A" role="10PD9s" />
    <node concept="1zClus" id="4WJplAsXd4Q" role="3989C9">
      <property role="2OjLBK" value="0" />
      <property role="TrG5h" value="MPS" />
      <property role="2OjLBL" value="1" />
      <node concept="55IIr" id="4WJplAsXd4R" role="3vi$VU">
        <node concept="2Ry0Ak" id="4WJplAsXd4S" role="iGT6I">
          <property role="2Ry0Am" value="icons" />
          <node concept="2Ry0Ak" id="4WJplAsXd4T" role="2Ry0An">
            <property role="2Ry0Am" value="logo.png" />
          </node>
        </node>
      </node>
      <node concept="3_J27D" id="4WJplAsXd4U" role="2EteIg">
        <node concept="3Mxwey" id="4WJplAsXd4V" role="3MwsjC">
          <ref role="3Mxwex" node="4WJplAsXd4D" resolve="build.number" />
        </node>
      </node>
      <node concept="55IIr" id="4WJplAsXd4W" role="2EteIi">
        <node concept="2Ry0Ak" id="4WJplAsXd4X" role="iGT6I">
          <property role="2Ry0Am" value="icons" />
          <node concept="2Ry0Ak" id="4WJplAsXd4Y" role="2Ry0An">
            <property role="2Ry0Am" value="MPS16.png" />
          </node>
        </node>
      </node>
      <node concept="3_J27D" id="4WJplAsXd4Z" role="2EtHGA">
        <node concept="3Mxwew" id="4WJplAsXd50" role="3MwsjC">
          <property role="3MwjfP" value="EDAN70-Project-MPS" />
        </node>
      </node>
      <node concept="3_J27D" id="4WJplAsXd51" role="2EtHGT">
        <node concept="3Mxwew" id="4WJplAsXd52" role="3MwsjC">
          <property role="3MwjfP" value="EDAN70-Project-MPS" />
        </node>
      </node>
      <node concept="55IIr" id="4WJplAsXd53" role="2EteIj">
        <node concept="2Ry0Ak" id="4WJplAsXd54" role="iGT6I">
          <property role="2Ry0Am" value="icons" />
          <node concept="2Ry0Ak" id="4WJplAsXd55" role="2Ry0An">
            <property role="2Ry0Am" value="MPS32.png" />
          </node>
        </node>
      </node>
      <node concept="3_J27D" id="4WJplAsXd56" role="R$TG_">
        <node concept="3Mxwey" id="4WJplAsXd57" role="3MwsjC">
          <ref role="3Mxwex" node="4WJplAsXd4B" resolve="date" />
        </node>
      </node>
      <node concept="55IIr" id="4WJplAsXd58" role="2EqU2t">
        <node concept="2Ry0Ak" id="4WJplAsXd59" role="iGT6I">
          <property role="2Ry0Am" value="icons" />
          <node concept="2Ry0Ak" id="4WJplAsXd5a" role="2Ry0An">
            <property role="2Ry0Am" value="splash.png" />
          </node>
        </node>
      </node>
      <node concept="55IIr" id="4WJplAsXd5b" role="2EqU2s">
        <node concept="2Ry0Ak" id="4WJplAsXd5c" role="iGT6I">
          <property role="2Ry0Am" value="icons" />
          <node concept="2Ry0Ak" id="4WJplAsXd5d" role="2Ry0An">
            <property role="2Ry0Am" value="about.png" />
          </node>
        </node>
      </node>
      <node concept="3_J27D" id="4WJplAsXd5e" role="2gvbiD">
        <node concept="3Mxwew" id="4WJplAsXd5f" role="3MwsjC">
          <property role="3MwjfP" value="edan70-project-mps" />
        </node>
      </node>
      <node concept="3_J27D" id="4WJplAsXd5g" role="HFo83">
        <node concept="3Mxwew" id="4WJplAsXd5h" role="3MwsjC">
          <property role="3MwjfP" value="FFFFFF" />
        </node>
      </node>
      <node concept="3_J27D" id="4WJplAsXd5i" role="3KTKoD">
        <node concept="3Mxwew" id="4WJplAsXd5j" role="3MwsjC">
          <property role="3MwjfP" value="FFFFFF" />
        </node>
      </node>
      <node concept="3_J27D" id="4WJplAsXd5k" role="3KTYbF">
        <node concept="3Mxwew" id="4WJplAsXd5l" role="3MwsjC">
          <property role="3MwjfP" value="FFFFFF" />
        </node>
      </node>
      <node concept="NbPM2" id="4WJplAsXd5m" role="27hGoL">
        <node concept="3Mxwew" id="4WJplAsXd5n" role="3MwsjC">
          <property role="3MwjfP" value="FFFFFF" />
        </node>
      </node>
    </node>
    <node concept="2kB4xC" id="4WJplAsXd4B" role="1l3spd">
      <property role="TrG5h" value="date" />
      <node concept="hHN3E" id="4WJplAsXd4C" role="aVJcv">
        <property role="hHN3Y" value="yyyyMMdd" />
      </node>
    </node>
    <node concept="2kB4xC" id="4WJplAsXd4D" role="1l3spd">
      <property role="TrG5h" value="build.number" />
      <node concept="aVJcg" id="4WJplAsXd4E" role="aVJcv">
        <node concept="NbPM2" id="4WJplAsXd4F" role="aVJcq">
          <node concept="3Mxwew" id="4WJplAsXd4G" role="3MwsjC">
            <property role="3MwjfP" value="192.SNAPSHOT" />
          </node>
        </node>
      </node>
    </node>
    <node concept="398rNT" id="4WJplAsXd4H" role="1l3spd">
      <property role="TrG5h" value="mps_home" />
    </node>
    <node concept="2sgV4H" id="4WJplAsXd4I" role="1l3spa">
      <ref role="1l3spb" to="ffeo:1diLdO26mQ6" resolve="mpsStandalone" />
      <node concept="398BVA" id="4WJplAsXd4J" role="2JcizS">
        <ref role="398BVh" node="4WJplAsXd4H" resolve="mps_home" />
      </node>
    </node>
    <node concept="2sgV4H" id="4WJplAsXd4K" role="1l3spa">
      <ref role="1l3spb" to="ffeo:5rNMDvYzelV" resolve="mpsMakePlugin" />
      <node concept="398BVA" id="4WJplAsXd4L" role="2JcizS">
        <ref role="398BVh" node="4WJplAsXd4H" resolve="mps_home" />
        <node concept="2Ry0Ak" id="4WJplAsXd4M" role="iGT6I">
          <property role="2Ry0Am" value="plugins" />
        </node>
      </node>
    </node>
    <node concept="2sgV4H" id="4WJplAsXd4N" role="1l3spa">
      <ref role="1l3spb" to="ffeo:1lMM4owFq4Y" resolve="mpsVcs" />
      <node concept="398BVA" id="4WJplAsXd4O" role="2JcizS">
        <ref role="398BVh" node="4WJplAsXd4H" resolve="mps_home" />
        <node concept="2Ry0Ak" id="4WJplAsXd4P" role="iGT6I">
          <property role="2Ry0Am" value="plugins" />
        </node>
      </node>
    </node>
    <node concept="3jsGME" id="4WJplAsXd5C" role="3989C9">
      <property role="TrG5h" value="mps-tips" />
      <node concept="3jmSaf" id="4WJplAsXd5D" role="3jmSa1" />
    </node>
    <node concept="1l3spV" id="4WJplAsXd5E" role="1l3spN">
      <node concept="3_I8Xc" id="4WJplAsXd5M" role="39821P">
        <ref role="3_I8Xa" to="ffeo:1diLdO26H79" resolve="languages" />
      </node>
      <node concept="3_I8Xc" id="4WJplAsXd5N" role="39821P">
        <ref role="3_I8Xa" to="ffeo:1aRUp2KiMC$" resolve="license" />
      </node>
      <node concept="398223" id="4WJplAsXd5O" role="39821P">
        <node concept="3_J27D" id="4WJplAsXd5P" role="Nbhlr">
          <node concept="3Mxwew" id="4WJplAsXd5Q" role="3MwsjC">
            <property role="3MwjfP" value="bin" />
          </node>
        </node>
        <node concept="3ygNvl" id="4WJplAsXd5R" role="39821P">
          <ref role="3ygNvj" to="ffeo:3cxBkkDa4_O" resolve="bin" />
          <node concept="3LWZYx" id="4WJplAsXd5S" role="1juEy9">
            <property role="3LWZYw" value="log.xml" />
          </node>
          <node concept="3LWZYx" id="4WJplAsXd5T" role="1juEy9">
            <property role="3LWZYw" value="log4j.dtd" />
          </node>
        </node>
        <node concept="28jJK3" id="4WJplAsXd5U" role="39821P">
          <node concept="1688n2" id="4WJplAsXd5V" role="28jJR8">
            <property role="1688n6" value="g" />
            <property role="1688n3" value="\.MPS(\w+)" />
            <node concept="NbPM2" id="4WJplAsXd5W" role="1688n0">
              <node concept="3Mxwew" id="4WJplAsXd5X" role="3MwsjC">
                <property role="3MwjfP" value="\." />
              </node>
              <node concept="3Mxwey" id="4WJplAsXd5Y" role="3MwsjC">
                <ref role="3Mxwex" node="4WJplAsXd4D" resolve="build.number" />
              </node>
            </node>
          </node>
          <node concept="398BVA" id="4WJplAsXd5I" role="28jJRO">
            <ref role="398BVh" node="4WJplAsXd4H" resolve="mps_home" />
            <node concept="2Ry0Ak" id="4WJplAsXd5J" role="iGT6I">
              <property role="2Ry0Am" value="bin" />
              <node concept="2Ry0Ak" id="4WJplAsXd5K" role="2Ry0An">
                <property role="2Ry0Am" value="idea.properties" />
              </node>
            </node>
          </node>
        </node>
      </node>
      <node concept="398223" id="4WJplAsXd5Z" role="39821P">
        <node concept="3_J27D" id="4WJplAsXd60" role="Nbhlr">
          <node concept="3Mxwew" id="4WJplAsXd61" role="3MwsjC">
            <property role="3MwjfP" value="lib" />
          </node>
        </node>
        <node concept="3ygNvl" id="4WJplAsXd62" role="39821P">
          <ref role="3ygNvj" to="ffeo:1diLdO26H7f" resolve="lib" />
          <node concept="3LWZYq" id="4WJplAsXd63" role="1juEy9">
            <property role="3LWZYl" value="MPS-src.zip" />
          </node>
          <node concept="3LWZYq" id="4WJplAsXd64" role="1juEy9">
            <property role="3LWZYl" value="branding.jar" />
          </node>
          <node concept="3LWZYq" id="4WJplAsXd65" role="1juEy9">
            <property role="3LWZYl" value="mps-tips.jar" />
          </node>
        </node>
        <node concept="20sUq0" id="4WJplAsXd66" role="39821P">
          <property role="TrG5h" value="mps-tips.jar" />
          <ref role="21GgXK" node="4WJplAsXd5C" resolve="mps-tips" />
        </node>
        <node concept="3981dx" id="4WJplAsXd67" role="39821P">
          <node concept="3_J27D" id="4WJplAsXd68" role="Nbhlr">
            <node concept="3Mxwew" id="4WJplAsXd69" role="3MwsjC">
              <property role="3MwjfP" value="branding.jar" />
            </node>
          </node>
          <node concept="1zDrgl" id="4WJplAsXd6a" role="39821P">
            <ref role="1zDrgn" node="4WJplAsXd4Q" resolve="EDAN70-Project-MPS 1.0" />
          </node>
        </node>
      </node>
      <node concept="398223" id="4WJplAsXd6b" role="39821P">
        <node concept="3_I8Xc" id="4WJplAsXd6c" role="39821P">
          <ref role="3_I8Xa" to="ffeo:3nGzrDEfcNJ" resolve="svn4idea" />
        </node>
        <node concept="3_I8Xc" id="4WJplAsXd6d" role="39821P">
          <ref role="3_I8Xa" to="ffeo:I6XuqH2zYV" resolve="git4idea" />
        </node>
        <node concept="3_I8Xc" id="4WJplAsXd6e" role="39821P">
          <ref role="3_I8Xa" to="ffeo:4EdAnGErOtx" resolve="mps-core" />
        </node>
        <node concept="3_I8Xc" id="4WJplAsXd6f" role="39821P">
          <ref role="3_I8Xa" to="ffeo:1x6h9EwqP32" resolve="mps-make" />
        </node>
        <node concept="m$_wl" id="4WJplAsXd6g" role="39821P">
          <ref role="m_rDy" node="4WJplAsXd5v" resolve="SimpliC" />
          <node concept="pUk6x" id="4WJplAsXd6h" role="pUk7w" />
        </node>
        <node concept="3_J27D" id="4WJplAsXd6i" role="Nbhlr">
          <node concept="3Mxwew" id="4WJplAsXd6j" role="3MwsjC">
            <property role="3MwjfP" value="plugins" />
          </node>
        </node>
      </node>
      <node concept="1TblL5" id="4WJplAsXd6k" role="39821P">
        <node concept="3_J27D" id="4WJplAsXd6l" role="1TblL3">
          <node concept="3Mxwew" id="4WJplAsXd6m" role="3MwsjC">
            <property role="3MwjfP" value="build.number" />
          </node>
        </node>
        <node concept="1TblLo" id="4WJplAsXd6n" role="1TblLl">
          <property role="1TblLn" value="build.number" />
          <node concept="NbPM2" id="4WJplAsXd6o" role="1TblLm">
            <node concept="3Mxwey" id="4WJplAsXd6p" role="3MwsjC">
              <ref role="3Mxwex" node="4WJplAsXd4D" resolve="build.number" />
            </node>
          </node>
        </node>
        <node concept="1TblLo" id="4WJplAsXd6q" role="1TblLl">
          <property role="1TblLn" value="date" />
          <node concept="NbPM2" id="4WJplAsXd6r" role="1TblLm">
            <node concept="3Mxwey" id="4WJplAsXd6s" role="3MwsjC">
              <ref role="3Mxwex" node="4WJplAsXd4B" resolve="date" />
            </node>
          </node>
        </node>
        <node concept="1TblLo" id="4WJplAsXd6t" role="1TblLl">
          <property role="1TblLn" value="version" />
          <node concept="NbPM2" id="4WJplAsXd6u" role="1TblLm">
            <node concept="3Mxwew" id="4WJplAsXd6v" role="3MwsjC">
              <property role="3MwjfP" value="1.0" />
            </node>
          </node>
        </node>
      </node>
    </node>
    <node concept="m$_wf" id="4WJplAsXd5v" role="3989C9">
      <property role="m$_wk" value="SimpliC" />
      <node concept="3_J27D" id="4WJplAsXd5w" role="m$_yQ">
        <node concept="3Mxwew" id="4WJplAsXd5x" role="3MwsjC">
          <property role="3MwjfP" value="EDAN70-Project-MPS" />
        </node>
      </node>
      <node concept="3_J27D" id="4WJplAsXd5y" role="m$_w8">
        <node concept="3Mxwew" id="4WJplAsXd5z" role="3MwsjC">
          <property role="3MwjfP" value="1.0" />
        </node>
      </node>
      <node concept="m$f5U" id="4WJplAsXd5$" role="m$_yh">
        <ref role="m$f5T" node="4WJplAsXd5u" resolve="EDAN70-Project-MPS" />
      </node>
      <node concept="m$_yC" id="4WJplAsXd5_" role="m$_yJ">
        <ref role="m$_y1" to="ffeo:4k71ibbKLe8" resolve="jetbrains.mps.core" />
      </node>
      <node concept="3_J27D" id="4WJplAsXd5A" role="m_cZH">
        <node concept="3Mxwew" id="4WJplAsXd5B" role="3MwsjC">
          <property role="3MwjfP" value="EDAN70-Project-MPS" />
        </node>
      </node>
    </node>
    <node concept="2G$12M" id="4WJplAsXd5u" role="3989C9">
      <property role="TrG5h" value="EDAN70-Project-MPS" />
      <node concept="1E1JtD" id="4WJplAsXd5t" role="2G$12L">
        <property role="BnDLt" value="true" />
        <property role="TrG5h" value="SimpliC" />
        <property role="3LESm3" value="11970950-6d41-49d2-a07e-65645b6ac140" />
        <node concept="55IIr" id="4WJplAsXd5o" role="3LF7KH">
          <node concept="2Ry0Ak" id="4WJplAsXd5p" role="iGT6I">
            <property role="2Ry0Am" value="languages" />
            <node concept="2Ry0Ak" id="4WJplAsXd5q" role="2Ry0An">
              <property role="2Ry0Am" value="SimpliC" />
              <node concept="2Ry0Ak" id="4WJplAsXd5r" role="2Ry0An">
                <property role="2Ry0Am" value="SimpliC.mpl" />
              </node>
            </node>
          </node>
        </node>
        <node concept="1yeLz9" id="4WJplAsXd6w" role="1TViLv">
          <property role="TrG5h" value="SimpliC#01" />
          <property role="3LESm3" value="255590c0-571b-4caa-9bc4-3e96ad39dc70" />
        </node>
      </node>
    </node>
  </node>
  <node concept="1l3spW" id="4WJplAsXd6x">
    <property role="TrG5h" value="EDAN70-Project-MPSDistribution" />
    <property role="turDy" value="buildDistribution.xml" />
    <property role="2DA0ip" value="../.." />
    <node concept="2sgV4H" id="4WJplAsXd6y" role="1l3spa">
      <ref role="1l3spb" node="4WJplAsXd4$" resolve="EDAN70-Project-MPS" />
    </node>
    <node concept="1l3spV" id="4WJplAsXd6z" role="1l3spN">
      <node concept="1tmT9g" id="4WJplAsXd7o" role="39821P">
        <property role="AB_bT" value="1HQQX4XU8$A/gzip" />
        <node concept="3ygNvl" id="4WJplAsXd7p" role="39821P">
          <ref role="3ygNvj" node="4WJplAsXd5E" />
        </node>
        <node concept="398223" id="4WJplAsXd7q" role="39821P">
          <node concept="3_J27D" id="4WJplAsXd7r" role="Nbhlr">
            <node concept="3Mxwew" id="4WJplAsXd7s" role="3MwsjC">
              <property role="3MwjfP" value="bin" />
            </node>
          </node>
          <node concept="28u9K_" id="4WJplAsXd7w" role="39821P">
            <property role="28hIV_" value="Startup options for 32 and 64 bit systems" />
          </node>
          <node concept="28jJK3" id="4WJplAsXd7x" role="39821P">
            <node concept="3co7Ac" id="4WJplAsXd7y" role="28jJR8">
              <property role="3co7Am" value="3D3G23Q8WAL/lf" />
              <property role="3cpA_W" value="true" />
            </node>
            <node concept="55IIr" id="4WJplAsXd7z" role="28jJRO">
              <node concept="2Ry0Ak" id="4WJplAsXd6O" role="iGT6I">
                <property role="2Ry0Am" value="solutions" />
                <node concept="2Ry0Ak" id="4WJplAsXd6P" role="2Ry0An">
                  <property role="2Ry0Am" value="EDAN70-Project-MPS.build" />
                  <node concept="2Ry0Ak" id="4WJplAsXd6Q" role="2Ry0An">
                    <property role="2Ry0Am" value="source_gen" />
                    <node concept="2Ry0Ak" id="4WJplAsXd6R" role="2Ry0An">
                      <property role="2Ry0Am" value="EDAN70-Project-MPS" />
                      <node concept="2Ry0Ak" id="4WJplAsXd6S" role="2Ry0An">
                        <property role="2Ry0Am" value="build" />
                        <node concept="2Ry0Ak" id="4WJplAsXd6T" role="2Ry0An">
                          <property role="2Ry0Am" value="edan70-project-mps.vmoptions" />
                        </node>
                      </node>
                    </node>
                  </node>
                </node>
              </node>
            </node>
          </node>
          <node concept="28jJK3" id="4WJplAsXd7$" role="39821P">
            <node concept="3co7Ac" id="4WJplAsXd7_" role="28jJR8">
              <property role="3co7Am" value="3D3G23Q8WAL/lf" />
              <property role="3cpA_W" value="true" />
            </node>
            <node concept="55IIr" id="4WJplAsXd7A" role="28jJRO">
              <node concept="2Ry0Ak" id="4WJplAsXd6U" role="iGT6I">
                <property role="2Ry0Am" value="solutions" />
                <node concept="2Ry0Ak" id="4WJplAsXd6V" role="2Ry0An">
                  <property role="2Ry0Am" value="EDAN70-Project-MPS.build" />
                  <node concept="2Ry0Ak" id="4WJplAsXd6W" role="2Ry0An">
                    <property role="2Ry0Am" value="source_gen" />
                    <node concept="2Ry0Ak" id="4WJplAsXd6X" role="2Ry0An">
                      <property role="2Ry0Am" value="EDAN70-Project-MPS" />
                      <node concept="2Ry0Ak" id="4WJplAsXd6Y" role="2Ry0An">
                        <property role="2Ry0Am" value="build" />
                        <node concept="2Ry0Ak" id="4WJplAsXd6Z" role="2Ry0An">
                          <property role="2Ry0Am" value="edan70-project-mps64.vmoptions" />
                        </node>
                      </node>
                    </node>
                  </node>
                </node>
              </node>
            </node>
          </node>
          <node concept="28u9K_" id="4WJplAsXd7B" role="39821P">
            <property role="28hIV_" value="Linux startup script" />
          </node>
          <node concept="28jJK3" id="4WJplAsXd7C" role="39821P">
            <property role="28jJZ5" value="755" />
            <node concept="3co7Ac" id="4WJplAsXd7D" role="28jJR8">
              <property role="3co7Am" value="3D3G23Q8WAL/lf" />
              <property role="3cpA_W" value="true" />
            </node>
            <node concept="55IIr" id="4WJplAsXd7E" role="28jJRO">
              <node concept="2Ry0Ak" id="4WJplAsXd70" role="iGT6I">
                <property role="2Ry0Am" value="solutions" />
                <node concept="2Ry0Ak" id="4WJplAsXd71" role="2Ry0An">
                  <property role="2Ry0Am" value="EDAN70-Project-MPS.build" />
                  <node concept="2Ry0Ak" id="4WJplAsXd72" role="2Ry0An">
                    <property role="2Ry0Am" value="source_gen" />
                    <node concept="2Ry0Ak" id="4WJplAsXd73" role="2Ry0An">
                      <property role="2Ry0Am" value="EDAN70-Project-MPS" />
                      <node concept="2Ry0Ak" id="4WJplAsXd74" role="2Ry0An">
                        <property role="2Ry0Am" value="build" />
                        <node concept="2Ry0Ak" id="4WJplAsXd75" role="2Ry0An">
                          <property role="2Ry0Am" value="edan70-project-mps.sh" />
                        </node>
                      </node>
                    </node>
                  </node>
                </node>
              </node>
            </node>
          </node>
        </node>
        <node concept="3_J27D" id="4WJplAsXd7F" role="Nbhlr">
          <node concept="3Mxwew" id="4WJplAsXd7G" role="3MwsjC">
            <property role="3MwjfP" value="EDAN70-Project-MPS" />
          </node>
          <node concept="3Mxwew" id="4WJplAsXd7H" role="3MwsjC">
            <property role="3MwjfP" value="-" />
          </node>
          <node concept="3Mxwey" id="4WJplAsXd7I" role="3MwsjC">
            <ref role="3Mxwex" node="4WJplAsXd4D" resolve="build.number" />
          </node>
          <node concept="3Mxwew" id="4WJplAsXd7J" role="3MwsjC">
            <property role="3MwjfP" value=".tar.gz" />
          </node>
        </node>
      </node>
      <node concept="3981dG" id="4WJplAsXd7W" role="39821P">
        <node concept="3ygNvl" id="4WJplAsXd7X" role="39821P">
          <ref role="3ygNvj" node="4WJplAsXd5E" />
        </node>
        <node concept="398223" id="4WJplAsXd7Y" role="39821P">
          <node concept="28u9K_" id="4WJplAsXd7Z" role="39821P">
            <property role="28hIV_" value="Startup options for 32 and 64 bit systems" />
          </node>
          <node concept="3_J27D" id="4WJplAsXd80" role="Nbhlr">
            <node concept="3Mxwew" id="4WJplAsXd81" role="3MwsjC">
              <property role="3MwjfP" value="bin" />
            </node>
          </node>
          <node concept="28jJK3" id="4WJplAsXd82" role="39821P">
            <node concept="2$gBol" id="4WJplAsXd83" role="28jJR8">
              <property role="2$htvj" value="*" />
              <node concept="NbPM2" id="4WJplAsXd84" role="2$htvi">
                <node concept="3Mxwew" id="4WJplAsXd85" role="3MwsjC">
                  <property role="3MwjfP" value="edan70-project-mps.exe.vmoptions" />
                </node>
              </node>
            </node>
            <node concept="3co7Ac" id="4WJplAsXd86" role="28jJR8">
              <property role="3co7Am" value="3D3G23Q8WAM/crlf" />
            </node>
            <node concept="55IIr" id="4WJplAsXd87" role="28jJRO">
              <node concept="2Ry0Ak" id="4WJplAsXd88" role="iGT6I">
                <property role="2Ry0Am" value="solutions" />
                <node concept="2Ry0Ak" id="4WJplAsXd89" role="2Ry0An">
                  <property role="2Ry0Am" value="EDAN70-Project-MPS.build" />
                  <node concept="2Ry0Ak" id="4WJplAsXd8a" role="2Ry0An">
                    <property role="2Ry0Am" value="source_gen" />
                    <node concept="2Ry0Ak" id="4WJplAsXd8b" role="2Ry0An">
                      <property role="2Ry0Am" value="EDAN70-Project-MPS" />
                      <node concept="2Ry0Ak" id="4WJplAsXd8c" role="2Ry0An">
                        <property role="2Ry0Am" value="build" />
                        <node concept="2Ry0Ak" id="4WJplAsXd8d" role="2Ry0An">
                          <property role="2Ry0Am" value="edan70-project-mps.vmoptions" />
                        </node>
                      </node>
                    </node>
                  </node>
                </node>
              </node>
            </node>
          </node>
          <node concept="28jJK3" id="4WJplAsXd8e" role="39821P">
            <node concept="2$gBol" id="4WJplAsXd8f" role="28jJR8">
              <property role="2$htvj" value="*" />
              <node concept="NbPM2" id="4WJplAsXd8g" role="2$htvi">
                <node concept="3Mxwew" id="4WJplAsXd8h" role="3MwsjC">
                  <property role="3MwjfP" value="edan70-project-mps64.exe.vmoptions" />
                </node>
              </node>
            </node>
            <node concept="3co7Ac" id="4WJplAsXd8i" role="28jJR8">
              <property role="3co7Am" value="3D3G23Q8WAM/crlf" />
            </node>
            <node concept="55IIr" id="4WJplAsXd8j" role="28jJRO">
              <node concept="2Ry0Ak" id="4WJplAsXd8k" role="iGT6I">
                <property role="2Ry0Am" value="solutions" />
                <node concept="2Ry0Ak" id="4WJplAsXd8l" role="2Ry0An">
                  <property role="2Ry0Am" value="EDAN70-Project-MPS.build" />
                  <node concept="2Ry0Ak" id="4WJplAsXd8m" role="2Ry0An">
                    <property role="2Ry0Am" value="source_gen" />
                    <node concept="2Ry0Ak" id="4WJplAsXd8n" role="2Ry0An">
                      <property role="2Ry0Am" value="EDAN70-Project-MPS" />
                      <node concept="2Ry0Ak" id="4WJplAsXd8o" role="2Ry0An">
                        <property role="2Ry0Am" value="build" />
                        <node concept="2Ry0Ak" id="4WJplAsXd8p" role="2Ry0An">
                          <property role="2Ry0Am" value="edan70-project-mps64.vmoptions" />
                        </node>
                      </node>
                    </node>
                  </node>
                </node>
              </node>
            </node>
          </node>
          <node concept="28u9K_" id="4WJplAsXd8q" role="39821P">
            <property role="28hIV_" value="Required files for execution" />
          </node>
          <node concept="2HvfSZ" id="4WJplAsXd8r" role="39821P">
            <node concept="3LWZYq" id="4WJplAsXd8s" role="2HvfZ1">
              <property role="3LWZYl" value="**/*.exe" />
            </node>
            <node concept="3LWZYq" id="4WJplAsXd8t" role="2HvfZ1">
              <property role="3LWZYl" value="**/*.bat" />
            </node>
            <node concept="398BVA" id="4WJplAsXd7N" role="2HvfZ0">
              <ref role="398BVh" node="4WJplAsXd6$" resolve="mps_home" />
              <node concept="2Ry0Ak" id="4WJplAsXd7O" role="iGT6I">
                <property role="2Ry0Am" value="bin" />
                <node concept="2Ry0Ak" id="4WJplAsXd7P" role="2Ry0An">
                  <property role="2Ry0Am" value="win" />
                </node>
              </node>
            </node>
          </node>
          <node concept="28u9K_" id="4WJplAsXd8u" role="39821P">
            <property role="28hIV_" value="Windows executable files and fsnotifier" />
          </node>
          <node concept="yKbIv" id="4WJplAsXd8v" role="39821P">
            <property role="yKbIr" value="755" />
            <node concept="2HvfSZ" id="4WJplAsXd8w" role="39821P">
              <node concept="3LWZYx" id="4WJplAsXd8x" role="2HvfZ1">
                <property role="3LWZYw" value="**/*.exe" />
              </node>
              <node concept="3LWZYx" id="4WJplAsXd8y" role="2HvfZ1">
                <property role="3LWZYw" value="**/append.bat" />
              </node>
              <node concept="398BVA" id="4WJplAsXd7T" role="2HvfZ0">
                <ref role="398BVh" node="4WJplAsXd6$" resolve="mps_home" />
                <node concept="2Ry0Ak" id="4WJplAsXd7U" role="iGT6I">
                  <property role="2Ry0Am" value="bin" />
                  <node concept="2Ry0Ak" id="4WJplAsXd7V" role="2Ry0An">
                    <property role="2Ry0Am" value="win" />
                  </node>
                </node>
              </node>
            </node>
          </node>
          <node concept="28u9K_" id="4WJplAsXd8z" role="39821P">
            <property role="28hIV_" value="Startup .bat file" />
          </node>
          <node concept="28jJK3" id="4WJplAsXd8$" role="39821P">
            <property role="28jJZ5" value="755" />
            <node concept="3co7Ac" id="4WJplAsXd8_" role="28jJR8">
              <property role="3co7Am" value="3D3G23Q8WAM/crlf" />
            </node>
            <node concept="55IIr" id="4WJplAsXd8A" role="28jJRO">
              <node concept="2Ry0Ak" id="4WJplAsXd76" role="iGT6I">
                <property role="2Ry0Am" value="solutions" />
                <node concept="2Ry0Ak" id="4WJplAsXd77" role="2Ry0An">
                  <property role="2Ry0Am" value="EDAN70-Project-MPS.build" />
                  <node concept="2Ry0Ak" id="4WJplAsXd78" role="2Ry0An">
                    <property role="2Ry0Am" value="source_gen" />
                    <node concept="2Ry0Ak" id="4WJplAsXd79" role="2Ry0An">
                      <property role="2Ry0Am" value="EDAN70-Project-MPS" />
                      <node concept="2Ry0Ak" id="4WJplAsXd7a" role="2Ry0An">
                        <property role="2Ry0Am" value="build" />
                        <node concept="2Ry0Ak" id="4WJplAsXd7b" role="2Ry0An">
                          <property role="2Ry0Am" value="edan70-project-mps.bat" />
                        </node>
                      </node>
                    </node>
                  </node>
                </node>
              </node>
            </node>
          </node>
        </node>
        <node concept="3_J27D" id="4WJplAsXd8B" role="Nbhlr">
          <node concept="3Mxwew" id="4WJplAsXd8C" role="3MwsjC">
            <property role="3MwjfP" value="EDAN70-Project-MPS" />
          </node>
          <node concept="3Mxwew" id="4WJplAsXd8D" role="3MwsjC">
            <property role="3MwjfP" value="-" />
          </node>
          <node concept="3Mxwey" id="4WJplAsXd8E" role="3MwsjC">
            <ref role="3Mxwex" node="4WJplAsXd4D" resolve="build.number" />
          </node>
          <node concept="3Mxwew" id="4WJplAsXd8F" role="3MwsjC">
            <property role="3MwjfP" value=".win.zip" />
          </node>
        </node>
      </node>
      <node concept="3981dG" id="4WJplAsXd9m" role="39821P">
        <node concept="3_J27D" id="4WJplAsXd9n" role="Nbhlr">
          <node concept="3Mxwew" id="4WJplAsXd9o" role="3MwsjC">
            <property role="3MwjfP" value="EDAN70-Project-MPS" />
          </node>
          <node concept="3Mxwew" id="4WJplAsXd9p" role="3MwsjC">
            <property role="3MwjfP" value="-" />
          </node>
          <node concept="3Mxwey" id="4WJplAsXd9q" role="3MwsjC">
            <ref role="3Mxwex" node="4WJplAsXd4D" resolve="build.number" />
          </node>
          <node concept="3Mxwew" id="4WJplAsXd9r" role="3MwsjC">
            <property role="3MwjfP" value=".macos.zip" />
          </node>
        </node>
        <node concept="398223" id="4WJplAsXd9s" role="39821P">
          <node concept="398223" id="4WJplAsXd9t" role="39821P">
            <node concept="3ygNvl" id="4WJplAsXd9u" role="39821P">
              <ref role="3ygNvj" node="4WJplAsXd5E" />
            </node>
            <node concept="3_J27D" id="4WJplAsXd9v" role="Nbhlr">
              <node concept="3Mxwew" id="4WJplAsXd9w" role="3MwsjC">
                <property role="3MwjfP" value="Contents" />
              </node>
            </node>
            <node concept="398223" id="4WJplAsXd9x" role="39821P">
              <node concept="3_J27D" id="4WJplAsXd9y" role="Nbhlr">
                <node concept="3Mxwew" id="4WJplAsXd9z" role="3MwsjC">
                  <property role="3MwjfP" value="Resources" />
                </node>
              </node>
              <node concept="28u9K_" id="4WJplAsXd9$" role="39821P">
                <property role="28hIV_" value="TODO: replace with product icon" />
              </node>
              <node concept="28jJK3" id="4WJplAsXd9_" role="39821P">
                <node concept="398BVA" id="4WJplAsXd8M" role="28jJRO">
                  <ref role="398BVh" node="4WJplAsXd6$" resolve="mps_home" />
                  <node concept="2Ry0Ak" id="4WJplAsXd8N" role="iGT6I">
                    <property role="2Ry0Am" value="bin" />
                    <node concept="2Ry0Ak" id="4WJplAsXd8O" role="2Ry0An">
                      <property role="2Ry0Am" value="mac" />
                      <node concept="2Ry0Ak" id="4WJplAsXd8P" role="2Ry0An">
                        <property role="2Ry0Am" value="Contents" />
                        <node concept="2Ry0Ak" id="4WJplAsXd8Q" role="2Ry0An">
                          <property role="2Ry0Am" value="Resources" />
                          <node concept="2Ry0Ak" id="4WJplAsXd8R" role="2Ry0An">
                            <property role="2Ry0Am" value="mps.icns" />
                          </node>
                        </node>
                      </node>
                    </node>
                  </node>
                </node>
              </node>
            </node>
            <node concept="28u9K_" id="4WJplAsXd9A" role="39821P">
              <property role="28hIV_" value="MacOSX executable to run application" />
            </node>
            <node concept="398223" id="4WJplAsXd9B" role="39821P">
              <node concept="28jJK3" id="4WJplAsXd9C" role="39821P">
                <property role="28jJZ5" value="755" />
                <node concept="398BVA" id="4WJplAsXd8Y" role="28jJRO">
                  <ref role="398BVh" node="4WJplAsXd6$" resolve="mps_home" />
                  <node concept="2Ry0Ak" id="4WJplAsXd8Z" role="iGT6I">
                    <property role="2Ry0Am" value="bin" />
                    <node concept="2Ry0Ak" id="4WJplAsXd90" role="2Ry0An">
                      <property role="2Ry0Am" value="mac" />
                      <node concept="2Ry0Ak" id="4WJplAsXd91" role="2Ry0An">
                        <property role="2Ry0Am" value="Contents" />
                        <node concept="2Ry0Ak" id="4WJplAsXd92" role="2Ry0An">
                          <property role="2Ry0Am" value="MacOS" />
                          <node concept="2Ry0Ak" id="4WJplAsXd93" role="2Ry0An">
                            <property role="2Ry0Am" value="mps" />
                          </node>
                        </node>
                      </node>
                    </node>
                  </node>
                </node>
                <node concept="2$gBol" id="4WJplAsXd9D" role="28jJR8">
                  <property role="2$htvj" value="*" />
                  <node concept="NbPM2" id="4WJplAsXd9E" role="2$htvi">
                    <node concept="3Mxwew" id="4WJplAsXd9F" role="3MwsjC">
                      <property role="3MwjfP" value="edan70-project-mps" />
                    </node>
                  </node>
                </node>
              </node>
              <node concept="3_J27D" id="4WJplAsXd9G" role="Nbhlr">
                <node concept="3Mxwew" id="4WJplAsXd9H" role="3MwsjC">
                  <property role="3MwjfP" value="MacOS" />
                </node>
              </node>
            </node>
            <node concept="28u9K_" id="4WJplAsXd9I" role="39821P">
              <property role="28hIV_" value="Fill Info.plist with current build version and number" />
            </node>
            <node concept="28jJK3" id="4WJplAsXd9J" role="39821P">
              <node concept="55IIr" id="4WJplAsXd9K" role="28jJRO">
                <node concept="2Ry0Ak" id="4WJplAsXd7c" role="iGT6I">
                  <property role="2Ry0Am" value="solutions" />
                  <node concept="2Ry0Ak" id="4WJplAsXd7d" role="2Ry0An">
                    <property role="2Ry0Am" value="EDAN70-Project-MPS.build" />
                    <node concept="2Ry0Ak" id="4WJplAsXd7e" role="2Ry0An">
                      <property role="2Ry0Am" value="source_gen" />
                      <node concept="2Ry0Ak" id="4WJplAsXd7f" role="2Ry0An">
                        <property role="2Ry0Am" value="EDAN70-Project-MPS" />
                        <node concept="2Ry0Ak" id="4WJplAsXd7g" role="2Ry0An">
                          <property role="2Ry0Am" value="build" />
                          <node concept="2Ry0Ak" id="4WJplAsXd7h" role="2Ry0An">
                            <property role="2Ry0Am" value="Info.plist.xml" />
                          </node>
                        </node>
                      </node>
                    </node>
                  </node>
                </node>
              </node>
              <node concept="2$gBol" id="4WJplAsXd9L" role="28jJR8">
                <property role="2$htvj" value="*" />
                <node concept="NbPM2" id="4WJplAsXd9M" role="2$htvi">
                  <node concept="3Mxwew" id="4WJplAsXd9N" role="3MwsjC">
                    <property role="3MwjfP" value="Info.plist" />
                  </node>
                </node>
              </node>
              <node concept="1688n2" id="4WJplAsXd9O" role="28jJR8">
                <property role="1688n3" value="\$version\$" />
                <node concept="NbPM2" id="4WJplAsXd9P" role="1688n0">
                  <node concept="3Mxwey" id="4WJplAsXd9Q" role="3MwsjC">
                    <ref role="3Mxwex" node="4WJplAsXd6_" resolve="version" />
                  </node>
                </node>
              </node>
              <node concept="1688n2" id="4WJplAsXd9R" role="28jJR8">
                <property role="1688n3" value="\$build\$" />
                <node concept="NbPM2" id="4WJplAsXd9S" role="1688n0">
                  <node concept="3Mxwey" id="4WJplAsXd9T" role="3MwsjC">
                    <ref role="3Mxwex" node="4WJplAsXd4D" resolve="build.number" />
                  </node>
                </node>
              </node>
              <node concept="3co7Ac" id="4WJplAsXd9U" role="28jJR8">
                <property role="3co7Am" value="3D3G23Q8WAL/lf" />
                <property role="3cpA_W" value="true" />
              </node>
            </node>
            <node concept="398223" id="4WJplAsXd9V" role="39821P">
              <node concept="3_J27D" id="4WJplAsXd9W" role="Nbhlr">
                <node concept="3Mxwew" id="4WJplAsXd9X" role="3MwsjC">
                  <property role="3MwjfP" value="bin" />
                </node>
              </node>
              <node concept="28u9K_" id="4WJplAsXd9Y" role="39821P">
                <property role="28hIV_" value="Executable files and fsnotifier" />
              </node>
              <node concept="yKbIv" id="4WJplAsXd9Z" role="39821P">
                <property role="yKbIr" value="755" />
                <node concept="2HvfSZ" id="4WJplAsXda0" role="39821P">
                  <node concept="3LWZYq" id="4WJplAsXda1" role="2HvfZ1">
                    <property role="3LWZYl" value="**/*.dylib" />
                  </node>
                  <node concept="3LWZYq" id="4WJplAsXda2" role="2HvfZ1">
                    <property role="3LWZYl" value="**/*.py" />
                  </node>
                  <node concept="398BVA" id="4WJplAsXd97" role="2HvfZ0">
                    <ref role="398BVh" node="4WJplAsXd6$" resolve="mps_home" />
                    <node concept="2Ry0Ak" id="4WJplAsXd98" role="iGT6I">
                      <property role="2Ry0Am" value="bin" />
                      <node concept="2Ry0Ak" id="4WJplAsXd99" role="2Ry0An">
                        <property role="2Ry0Am" value="mac" />
                      </node>
                    </node>
                  </node>
                </node>
              </node>
              <node concept="28u9K_" id="4WJplAsXda3" role="39821P">
                <property role="28hIV_" value="Python script with updated end of line" />
              </node>
              <node concept="yKbIv" id="4WJplAsXda4" role="39821P">
                <property role="yKbIr" value="755" />
                <node concept="2HvfSZ" id="4WJplAsXda5" role="39821P">
                  <node concept="3LWZYx" id="4WJplAsXda6" role="2HvfZ1">
                    <property role="3LWZYw" value="**/*.py" />
                  </node>
                  <node concept="3co7Ac" id="4WJplAsXda7" role="2HvfZ1">
                    <property role="3co7Am" value="3D3G23Q8WAL/lf" />
                    <property role="3cpA_W" value="true" />
                  </node>
                  <node concept="398BVA" id="4WJplAsXd9d" role="2HvfZ0">
                    <ref role="398BVh" node="4WJplAsXd6$" resolve="mps_home" />
                    <node concept="2Ry0Ak" id="4WJplAsXd9e" role="iGT6I">
                      <property role="2Ry0Am" value="bin" />
                      <node concept="2Ry0Ak" id="4WJplAsXd9f" role="2Ry0An">
                        <property role="2Ry0Am" value="mac" />
                      </node>
                    </node>
                  </node>
                </node>
              </node>
              <node concept="28u9K_" id="4WJplAsXda8" role="39821P">
                <property role="28hIV_" value="Required libraries" />
              </node>
              <node concept="yKbIv" id="4WJplAsXda9" role="39821P">
                <node concept="2HvfSZ" id="4WJplAsXdaa" role="39821P">
                  <node concept="3LWZYx" id="4WJplAsXdab" role="2HvfZ1">
                    <property role="3LWZYw" value="**/*.dylib" />
                  </node>
                  <node concept="398BVA" id="4WJplAsXd9j" role="2HvfZ0">
                    <ref role="398BVh" node="4WJplAsXd6$" resolve="mps_home" />
                    <node concept="2Ry0Ak" id="4WJplAsXd9k" role="iGT6I">
                      <property role="2Ry0Am" value="bin" />
                      <node concept="2Ry0Ak" id="4WJplAsXd9l" role="2Ry0An">
                        <property role="2Ry0Am" value="mac" />
                      </node>
                    </node>
                  </node>
                </node>
              </node>
              <node concept="28u9K_" id="4WJplAsXdac" role="39821P">
                <property role="28hIV_" value="MacOSX distribution should always use 64 bit startup options" />
              </node>
              <node concept="28jJK3" id="4WJplAsXdad" role="39821P">
                <node concept="3co7Ac" id="4WJplAsXdae" role="28jJR8">
                  <property role="3co7Am" value="3D3G23Q8WAL/lf" />
                  <property role="3cpA_W" value="true" />
                </node>
                <node concept="55IIr" id="4WJplAsXdaf" role="28jJRO">
                  <node concept="2Ry0Ak" id="4WJplAsXdag" role="iGT6I">
                    <property role="2Ry0Am" value="solutions" />
                    <node concept="2Ry0Ak" id="4WJplAsXdah" role="2Ry0An">
                      <property role="2Ry0Am" value="EDAN70-Project-MPS.build" />
                      <node concept="2Ry0Ak" id="4WJplAsXdai" role="2Ry0An">
                        <property role="2Ry0Am" value="source_gen" />
                        <node concept="2Ry0Ak" id="4WJplAsXdaj" role="2Ry0An">
                          <property role="2Ry0Am" value="EDAN70-Project-MPS" />
                          <node concept="2Ry0Ak" id="4WJplAsXdak" role="2Ry0An">
                            <property role="2Ry0Am" value="build" />
                            <node concept="2Ry0Ak" id="4WJplAsXdal" role="2Ry0An">
                              <property role="2Ry0Am" value="edan70-project-mps64.vmoptions" />
                            </node>
                          </node>
                        </node>
                      </node>
                    </node>
                  </node>
                </node>
                <node concept="2$htT0" id="4WJplAsXdam" role="28jJR8">
                  <property role="2$htTZ" value="edan70-project-mps64.vmoptions" />
                  <property role="2$htTY" value="edan70-project-mps.vmoptions" />
                </node>
              </node>
            </node>
          </node>
          <node concept="3_J27D" id="4WJplAsXdan" role="Nbhlr">
            <node concept="3Mxwew" id="4WJplAsXdao" role="3MwsjC">
              <property role="3MwjfP" value="EDAN70-Project-MPS " />
            </node>
            <node concept="3Mxwey" id="4WJplAsXdap" role="3MwsjC">
              <ref role="3Mxwex" node="4WJplAsXd6_" resolve="version" />
            </node>
            <node concept="3Mxwew" id="4WJplAsXdaq" role="3MwsjC">
              <property role="3MwjfP" value=".app" />
            </node>
          </node>
        </node>
      </node>
    </node>
    <node concept="398rNT" id="4WJplAsXd6$" role="1l3spd">
      <property role="TrG5h" value="mps_home" />
    </node>
    <node concept="2kB4xC" id="4WJplAsXd6_" role="1l3spd">
      <property role="TrG5h" value="version" />
      <node concept="aVJcg" id="4WJplAsXd6A" role="aVJcv">
        <node concept="NbPM2" id="4WJplAsXd6B" role="aVJcq">
          <node concept="3Mxwew" id="4WJplAsXd6C" role="3MwsjC">
            <property role="3MwjfP" value="1.0" />
          </node>
        </node>
      </node>
    </node>
  </node>
  <node concept="26EafH" id="4WJplAsXdar">
    <property role="26EafI" value="-" />
    <property role="26FY9R" value="jetbrains.mps.Launcher" />
    <property role="TrG5h" value="EDAN70-Project-MPSScripts" />
    <ref role="1_kbm$" node="4WJplAsXd4Q" resolve="EDAN70-Project-MPS 1.0" />
    <node concept="26EafG" id="4WJplAsXdas" role="26Ea7d">
      <property role="26EafJ" value="lib/branding.jar" />
    </node>
    <node concept="26EafG" id="4WJplAsXdat" role="26Ea7d">
      <property role="26EafJ" value="lib/mps-boot.jar" />
    </node>
    <node concept="26EafG" id="4WJplAsXdau" role="26Ea7d">
      <property role="26EafJ" value="lib/mps-boot-util.jar" />
    </node>
    <node concept="26EafG" id="4WJplAsXdav" role="26Ea7d">
      <property role="26EafJ" value="lib/bootstrap.jar" />
    </node>
    <node concept="26EafG" id="4WJplAsXdaw" role="26Ea7d">
      <property role="26EafJ" value="lib/extensions.jar" />
    </node>
    <node concept="26EafG" id="4WJplAsXdax" role="26Ea7d">
      <property role="26EafJ" value="lib/util.jar" />
    </node>
    <node concept="26EafG" id="4WJplAsXday" role="26Ea7d">
      <property role="26EafJ" value="lib/jdom.jar" />
    </node>
    <node concept="26EafG" id="4WJplAsXdaz" role="26Ea7d">
      <property role="26EafJ" value="lib/log4j.jar" />
    </node>
    <node concept="26EafG" id="4WJplAsXda$" role="26Ea7d">
      <property role="26EafJ" value="lib/trove4j.jar" />
    </node>
    <node concept="26EafG" id="4WJplAsXda_" role="26Ea7d">
      <property role="26EafJ" value="lib/jna.jar" />
    </node>
  </node>
</model>

