<?xml version="1.0" encoding="UTF-8"?>
<model ref="r:edd391dc-9cc5-4942-b52d-c17c1bb7d46b(SimpliC-IDE.build)">
  <persistence version="9" />
  <languages>
    <use id="798100da-4f0a-421a-b991-71f8c50ce5d2" name="jetbrains.mps.build" version="0" />
    <use id="0cf935df-4699-4e9c-a132-fa109541cba3" name="jetbrains.mps.build.mps" version="7" />
    <use id="d5033cee-f632-44b6-b308-89d4fbde34ff" name="jetbrains.mps.build.startup" version="0" />
  </languages>
  <imports>
    <import index="ffeo" ref="r:874d959d-e3b4-4d04-b931-ca849af130dd(jetbrains.mps.ide.build)" />
  </imports>
  <registry>
    <language id="798100da-4f0a-421a-b991-71f8c50ce5d2" name="jetbrains.mps.build">
      <concept id="5481553824944787378" name="jetbrains.mps.build.structure.BuildSourceProjectRelativePath" flags="ng" index="55IIr" />
      <concept id="9126048691955220717" name="jetbrains.mps.build.structure.BuildLayout_File" flags="ng" index="28jJK3">
        <property id="9126048691955221291" name="filemode" index="28jJZ5" />
        <child id="9126048691955220774" name="parameters" index="28jJR8" />
        <child id="9126048691955220762" name="path" index="28jJRO" />
      </concept>
      <concept id="9126048691954557131" name="jetbrains.mps.build.structure.BuildLayout_Comment" flags="ng" index="28u9K_">
        <property id="9126048691954700811" name="text" index="28hIV_" />
      </concept>
      <concept id="2755237150521975431" name="jetbrains.mps.build.structure.BuildVariableMacroInitWithString" flags="ng" index="aVJcg">
        <child id="2755237150521975437" name="value" index="aVJcq" />
      </concept>
      <concept id="244868996532454372" name="jetbrains.mps.build.structure.BuildVariableMacroInitWithDate" flags="ng" index="hHN3E">
        <property id="244868996532454384" name="pattern" index="hHN3Y" />
      </concept>
      <concept id="7321017245476976379" name="jetbrains.mps.build.structure.BuildRelativePath" flags="ng" index="iG8Mu">
        <child id="7321017245477039051" name="compositePart" index="iGT6I" />
      </concept>
      <concept id="3767587139141066978" name="jetbrains.mps.build.structure.BuildVariableMacro" flags="ng" index="2kB4xC">
        <child id="2755237150521975432" name="initialValue" index="aVJcv" />
      </concept>
      <concept id="4993211115183325728" name="jetbrains.mps.build.structure.BuildProjectDependency" flags="ng" index="2sgV4H">
        <reference id="5617550519002745380" name="script" index="1l3spb" />
        <child id="4129895186893471026" name="artifacts" index="2JcizS" />
      </concept>
      <concept id="7801138212747054656" name="jetbrains.mps.build.structure.BuildLayout_Filemode" flags="ng" index="yKbIv">
        <property id="7801138212747054660" name="filemode" index="yKbIr" />
      </concept>
      <concept id="3970102152660702410" name="jetbrains.mps.build.structure.BuildLayout_CopyGlobMapper" flags="ng" index="2$gBol">
        <property id="3970102152660874508" name="from" index="2$htvj" />
        <child id="3970102152660874509" name="to" index="2$htvi" />
      </concept>
      <concept id="3970102152660876447" name="jetbrains.mps.build.structure.BuildLayout_CopyRegexMapper" flags="ng" index="2$htT0">
        <property id="3970102152660876449" name="replace" index="2$htTY" />
        <property id="3970102152660876448" name="pattern" index="2$htTZ" />
      </concept>
      <concept id="2750015747481074431" name="jetbrains.mps.build.structure.BuildLayout_Files" flags="ng" index="2HvfSZ">
        <child id="2750015747481074432" name="path" index="2HvfZ0" />
        <child id="2750015747481074433" name="parameters" index="2HvfZ1" />
      </concept>
      <concept id="4380385936562003279" name="jetbrains.mps.build.structure.BuildString" flags="ng" index="NbPM2">
        <child id="4903714810883783243" name="parts" index="3MwsjC" />
      </concept>
      <concept id="8618885170173601777" name="jetbrains.mps.build.structure.BuildCompositePath" flags="nn" index="2Ry0Ak">
        <property id="8618885170173601779" name="head" index="2Ry0Am" />
        <child id="8618885170173601778" name="tail" index="2Ry0An" />
      </concept>
      <concept id="6647099934206700647" name="jetbrains.mps.build.structure.BuildJavaPlugin" flags="ng" index="10PD9b" />
      <concept id="9184644532457106504" name="jetbrains.mps.build.structure.BuildLayout_CopyFilterReplaceRegex" flags="ng" index="1688n2">
        <property id="9184644532457106505" name="pattern" index="1688n3" />
        <property id="9184644532457106508" name="flags" index="1688n6" />
        <child id="9184644532457106506" name="value" index="1688n0" />
      </concept>
      <concept id="7389400916848050074" name="jetbrains.mps.build.structure.BuildLayout_Jar" flags="ng" index="3981dx" />
      <concept id="7389400916848050071" name="jetbrains.mps.build.structure.BuildLayout_Zip" flags="ng" index="3981dG" />
      <concept id="7389400916848050060" name="jetbrains.mps.build.structure.BuildLayout_NamedContainer" flags="ng" index="3981dR">
        <child id="4380385936562148502" name="containerName" index="Nbhlr" />
      </concept>
      <concept id="7389400916848036984" name="jetbrains.mps.build.structure.BuildLayout_Folder" flags="ng" index="398223" />
      <concept id="7389400916848136194" name="jetbrains.mps.build.structure.BuildFolderMacro" flags="ng" index="398rNT" />
      <concept id="7389400916848153117" name="jetbrains.mps.build.structure.BuildSourceMacroRelativePath" flags="ng" index="398BVA">
        <reference id="7389400916848153130" name="macro" index="398BVh" />
      </concept>
      <concept id="4198392933254416812" name="jetbrains.mps.build.structure.BuildLayout_CopyFilterFixCRLF" flags="ng" index="3co7Ac">
        <property id="4198392933254416822" name="eol" index="3co7Am" />
        <property id="4198392933254551900" name="removeEOF" index="3cpA_W" />
      </concept>
      <concept id="5617550519002745364" name="jetbrains.mps.build.structure.BuildLayout" flags="ng" index="1l3spV" />
      <concept id="5617550519002745363" name="jetbrains.mps.build.structure.BuildProject" flags="ng" index="1l3spW">
        <property id="4915877860348071612" name="fileName" index="turDy" />
        <property id="5204048710541015587" name="internalBaseDirectory" index="2DA0ip" />
        <child id="6647099934206700656" name="plugins" index="10PD9s" />
        <child id="7389400916848080626" name="parts" index="3989C9" />
        <child id="5617550519002745381" name="dependencies" index="1l3spa" />
        <child id="5617550519002745378" name="macros" index="1l3spd" />
        <child id="5617550519002745372" name="layout" index="1l3spN" />
      </concept>
      <concept id="8577651205286814211" name="jetbrains.mps.build.structure.BuildLayout_Tar" flags="ng" index="1tmT9g">
        <property id="1979010778009209128" name="compression" index="AB_bT" />
      </concept>
      <concept id="4701820937132344003" name="jetbrains.mps.build.structure.BuildLayout_Container" flags="ng" index="1y1bJS">
        <child id="7389400916848037006" name="children" index="39821P" />
      </concept>
      <concept id="5610619299013057363" name="jetbrains.mps.build.structure.BuildLayout_ImportContent" flags="ng" index="3ygNvl">
        <reference id="5610619299013057365" name="target" index="3ygNvj" />
        <child id="6789562173791401562" name="selectors" index="1juEy9" />
      </concept>
      <concept id="7753544965996647428" name="jetbrains.mps.build.structure.BuildLayout_FilesOf" flags="ng" index="1zDrgl">
        <reference id="7753544965996647430" name="element" index="1zDrgn" />
      </concept>
      <concept id="841011766565753074" name="jetbrains.mps.build.structure.BuildLayout_Import" flags="ng" index="3_I8Xc">
        <reference id="841011766565753076" name="target" index="3_I8Xa" />
      </concept>
      <concept id="841011766566059607" name="jetbrains.mps.build.structure.BuildStringNotEmpty" flags="ng" index="3_J27D" />
      <concept id="5248329904288051111" name="jetbrains.mps.build.structure.BuildFileExcludeSelector" flags="ng" index="3LWZYq">
        <property id="5248329904288051112" name="pattern" index="3LWZYl" />
      </concept>
      <concept id="5248329904288051100" name="jetbrains.mps.build.structure.BuildFileIncludeSelector" flags="ng" index="3LWZYx">
        <property id="5248329904288051101" name="pattern" index="3LWZYw" />
      </concept>
      <concept id="4903714810883702019" name="jetbrains.mps.build.structure.BuildTextStringPart" flags="ng" index="3Mxwew">
        <property id="4903714810883755350" name="text" index="3MwjfP" />
      </concept>
      <concept id="4903714810883702017" name="jetbrains.mps.build.structure.BuildVarRefStringPart" flags="ng" index="3Mxwey">
        <reference id="4903714810883702018" name="macro" index="3Mxwex" />
      </concept>
      <concept id="202934866059043946" name="jetbrains.mps.build.structure.BuildLayout_EchoProperties" flags="ng" index="1TblL5">
        <child id="202934866059043948" name="fileName" index="1TblL3" />
        <child id="202934866059043962" name="entries" index="1TblLl" />
      </concept>
      <concept id="202934866059043959" name="jetbrains.mps.build.structure.BuildLayout_EchoPropertyEntry" flags="ng" index="1TblLo">
        <property id="202934866059043960" name="key" index="1TblLn" />
        <child id="202934866059043961" name="value" index="1TblLm" />
      </concept>
    </language>
    <language id="ceab5195-25ea-4f22-9b92-103b95ca8c0c" name="jetbrains.mps.lang.core">
      <concept id="1169194658468" name="jetbrains.mps.lang.core.structure.INamedConcept" flags="ng" index="TrEIO">
        <property id="1169194664001" name="name" index="TrG5h" />
      </concept>
    </language>
    <language id="d5033cee-f632-44b6-b308-89d4fbde34ff" name="jetbrains.mps.build.startup">
      <concept id="3885435385580582153" name="jetbrains.mps.build.startup.structure.ClassPathItem" flags="ng" index="26EafG">
        <property id="3885435385580582154" name="path" index="26EafJ" />
      </concept>
      <concept id="3885435385580582152" name="jetbrains.mps.build.startup.structure.MpsStartupScript" flags="ng" index="26EafH">
        <property id="3885435385580582155" name="startupFolder" index="26EafI" />
        <property id="3885435385580631186" name="startupClass" index="26FY9R" />
        <reference id="3505522814897007561" name="branding" index="1_kbm$" />
        <child id="3885435385580582696" name="bootClasspath" index="26Ea7d" />
      </concept>
    </language>
    <language id="0cf935df-4699-4e9c-a132-fa109541cba3" name="jetbrains.mps.build.mps">
      <concept id="6818892319992984815" name="jetbrains.mps.build.mps.structure.BuildMps_TipsPackage" flags="ng" index="20sUq0">
        <reference id="7323166234190549907" name="tips" index="21GgXK" />
      </concept>
      <concept id="6592112598314586625" name="jetbrains.mps.build.mps.structure.BuildMps_IdeaPluginGroup" flags="ng" index="m$f5U">
        <reference id="6592112598314586626" name="group" index="m$f5T" />
      </concept>
      <concept id="6592112598314498932" name="jetbrains.mps.build.mps.structure.BuildMps_IdeaPlugin" flags="ng" index="m$_wf">
        <property id="6592112598314498927" name="id" index="m$_wk" />
        <child id="6592112598314498931" name="version" index="m$_w8" />
        <child id="6592112598314499050" name="content" index="m$_yh" />
        <child id="6592112598314499028" name="dependencies" index="m$_yJ" />
        <child id="6592112598314499021" name="name" index="m$_yQ" />
        <child id="6592112598314855574" name="containerName" index="m_cZH" />
      </concept>
      <concept id="6592112598314498926" name="jetbrains.mps.build.mps.structure.BuildMpsLayout_Plugin" flags="ng" index="m$_wl">
        <reference id="6592112598314801433" name="plugin" index="m_rDy" />
        <child id="3570488090019868128" name="packagingType" index="pUk7w" />
      </concept>
      <concept id="6592112598314499027" name="jetbrains.mps.build.mps.structure.BuildMps_IdeaPluginDependency" flags="ng" index="m$_yC">
        <reference id="6592112598314499066" name="target" index="m$_y1" />
      </concept>
      <concept id="3570488090019868065" name="jetbrains.mps.build.mps.structure.BuildMpsLayout_AutoPluginLayoutType" flags="ng" index="pUk6x" />
      <concept id="1500819558095907805" name="jetbrains.mps.build.mps.structure.BuildMps_Group" flags="ng" index="2G$12M">
        <child id="1500819558095907806" name="modules" index="2G$12L" />
      </concept>
      <concept id="868032131020265945" name="jetbrains.mps.build.mps.structure.BuildMPSPlugin" flags="ng" index="3b7kt6" />
      <concept id="8174907532631382425" name="jetbrains.mps.build.mps.structure.BuildMps_TipsMps" flags="ng" index="3jmSaf" />
      <concept id="8174907532628842428" name="jetbrains.mps.build.mps.structure.BuildMps_Tips" flags="ng" index="3jsGME">
        <child id="8174907532631382423" name="imports" index="3jmSa1" />
      </concept>
      <concept id="5507251971038816436" name="jetbrains.mps.build.mps.structure.BuildMps_Generator" flags="ng" index="1yeLz9" />
      <concept id="7753544965996377997" name="jetbrains.mps.build.mps.structure.BuildMps_Branding" flags="ng" index="1zClus">
        <property id="3497141547781541445" name="minor" index="2OjLBK" />
        <property id="3497141547781541444" name="major" index="2OjLBL" />
        <child id="6845119683729294884" name="progressColor" index="27hGoL" />
        <child id="922958177840117051" name="script" index="2gvbiD" />
        <child id="6108265972537182997" name="aboutScreen" index="2EqU2s" />
        <child id="6108265972537182996" name="splashScreen" index="2EqU2t" />
        <child id="6108265972537229337" name="buildNumber" index="2EteIg" />
        <child id="6108265972537229339" name="icon16" index="2EteIi" />
        <child id="6108265972537229338" name="icon32" index="2EteIj" />
        <child id="6108265972537372847" name="product" index="2EtHGA" />
        <child id="6108265972537372848" name="fullName" index="2EtHGT" />
        <child id="8795525031433238889" name="textColor" index="HFo83" />
        <child id="1462305029084462472" name="buildDate" index="R$TG_" />
        <child id="772379520210716142" name="welcomeLogo" index="3vi$VU" />
        <child id="1084163669516664629" name="copyrightForeground" index="3KTKoD" />
        <child id="1084163669516639223" name="foreground" index="3KTYbF" />
      </concept>
      <concept id="3189788309731840247" name="jetbrains.mps.build.mps.structure.BuildMps_Solution" flags="ng" index="1E1JtA" />
      <concept id="3189788309731840248" name="jetbrains.mps.build.mps.structure.BuildMps_Language" flags="ng" index="1E1JtD">
        <child id="9200313594498201639" name="generator" index="1TViLv" />
      </concept>
      <concept id="322010710375871467" name="jetbrains.mps.build.mps.structure.BuildMps_AbstractModule" flags="ng" index="3LEN3z">
        <property id="8369506495128725901" name="compact" index="BnDLt" />
        <property id="322010710375892619" name="uuid" index="3LESm3" />
        <child id="322010710375956261" name="path" index="3LF7KH" />
      </concept>
    </language>
  </registry>
  <node concept="1l3spW" id="5GrujnmNRF9">
    <property role="TrG5h" value="SimpliC-IDE" />
    <property role="2DA0ip" value="../.." />
    <node concept="10PD9b" id="5GrujnmNRFa" role="10PD9s" />
    <node concept="3b7kt6" id="5GrujnmNRFb" role="10PD9s" />
    <node concept="1zClus" id="5GrujnmNRFr" role="3989C9">
      <property role="2OjLBK" value="0" />
      <property role="TrG5h" value="MPS" />
      <property role="2OjLBL" value="1" />
      <node concept="55IIr" id="5GrujnmNRFs" role="3vi$VU">
        <node concept="2Ry0Ak" id="5GrujnmNRFt" role="iGT6I">
          <property role="2Ry0Am" value="icons" />
          <node concept="2Ry0Ak" id="5GrujnmNRFu" role="2Ry0An">
            <property role="2Ry0Am" value="logo.png" />
          </node>
        </node>
      </node>
      <node concept="3_J27D" id="5GrujnmNRFv" role="2EteIg">
        <node concept="3Mxwey" id="5GrujnmNRFw" role="3MwsjC">
          <ref role="3Mxwex" node="5GrujnmNRFe" resolve="build.number" />
        </node>
      </node>
      <node concept="55IIr" id="5GrujnmNRFx" role="2EteIi">
        <node concept="2Ry0Ak" id="5GrujnmNRFy" role="iGT6I">
          <property role="2Ry0Am" value="icons" />
          <node concept="2Ry0Ak" id="5GrujnmNRFz" role="2Ry0An">
            <property role="2Ry0Am" value="MPS16.png" />
          </node>
        </node>
      </node>
      <node concept="3_J27D" id="5GrujnmNRF$" role="2EtHGA">
        <node concept="3Mxwew" id="5GrujnmNRF_" role="3MwsjC">
          <property role="3MwjfP" value="SimpliC-IDE" />
        </node>
      </node>
      <node concept="3_J27D" id="5GrujnmNRFA" role="2EtHGT">
        <node concept="3Mxwew" id="5GrujnmNRFB" role="3MwsjC">
          <property role="3MwjfP" value="SimpliC-IDE" />
        </node>
      </node>
      <node concept="55IIr" id="5GrujnmNRFC" role="2EteIj">
        <node concept="2Ry0Ak" id="5GrujnmNRFD" role="iGT6I">
          <property role="2Ry0Am" value="icons" />
          <node concept="2Ry0Ak" id="5GrujnmNRFE" role="2Ry0An">
            <property role="2Ry0Am" value="MPS32.png" />
          </node>
        </node>
      </node>
      <node concept="3_J27D" id="5GrujnmNRFF" role="R$TG_">
        <node concept="3Mxwey" id="5GrujnmNRFG" role="3MwsjC">
          <ref role="3Mxwex" node="5GrujnmNRFc" resolve="date" />
        </node>
      </node>
      <node concept="55IIr" id="5GrujnmNRFH" role="2EqU2t">
        <node concept="2Ry0Ak" id="5GrujnmNRFI" role="iGT6I">
          <property role="2Ry0Am" value="icons" />
          <node concept="2Ry0Ak" id="5GrujnmNRFJ" role="2Ry0An">
            <property role="2Ry0Am" value="splash.png" />
          </node>
        </node>
      </node>
      <node concept="55IIr" id="5GrujnmNRFK" role="2EqU2s">
        <node concept="2Ry0Ak" id="5GrujnmNRFL" role="iGT6I">
          <property role="2Ry0Am" value="icons" />
          <node concept="2Ry0Ak" id="5GrujnmNRFM" role="2Ry0An">
            <property role="2Ry0Am" value="about.png" />
          </node>
        </node>
      </node>
      <node concept="3_J27D" id="5GrujnmNRFN" role="2gvbiD">
        <node concept="3Mxwew" id="5GrujnmNRFO" role="3MwsjC">
          <property role="3MwjfP" value="simplic-ide" />
        </node>
      </node>
      <node concept="3_J27D" id="5GrujnmNRFP" role="HFo83">
        <node concept="3Mxwew" id="5GrujnmNRFQ" role="3MwsjC">
          <property role="3MwjfP" value="FFFFFF" />
        </node>
      </node>
      <node concept="3_J27D" id="5GrujnmNRFR" role="3KTKoD">
        <node concept="3Mxwew" id="5GrujnmNRFS" role="3MwsjC">
          <property role="3MwjfP" value="FFFFFF" />
        </node>
      </node>
      <node concept="3_J27D" id="5GrujnmNRFT" role="3KTYbF">
        <node concept="3Mxwew" id="5GrujnmNRFU" role="3MwsjC">
          <property role="3MwjfP" value="FFFFFF" />
        </node>
      </node>
      <node concept="NbPM2" id="5GrujnmNRFV" role="27hGoL">
        <node concept="3Mxwew" id="5GrujnmNRFW" role="3MwsjC">
          <property role="3MwjfP" value="FFFFFF" />
        </node>
      </node>
    </node>
    <node concept="2kB4xC" id="5GrujnmNRFc" role="1l3spd">
      <property role="TrG5h" value="date" />
      <node concept="hHN3E" id="5GrujnmNRFd" role="aVJcv">
        <property role="hHN3Y" value="yyyyMMdd" />
      </node>
    </node>
    <node concept="2kB4xC" id="5GrujnmNRFe" role="1l3spd">
      <property role="TrG5h" value="build.number" />
      <node concept="aVJcg" id="5GrujnmNRFf" role="aVJcv">
        <node concept="NbPM2" id="5GrujnmNRFg" role="aVJcq">
          <node concept="3Mxwew" id="5GrujnmNRFh" role="3MwsjC">
            <property role="3MwjfP" value="192.SNAPSHOT" />
          </node>
        </node>
      </node>
    </node>
    <node concept="398rNT" id="5GrujnmNRFi" role="1l3spd">
      <property role="TrG5h" value="mps_home" />
    </node>
    <node concept="2sgV4H" id="5GrujnmNRFj" role="1l3spa">
      <ref role="1l3spb" to="ffeo:1diLdO26mQ6" resolve="mpsStandalone" />
      <node concept="398BVA" id="5GrujnmNRFk" role="2JcizS">
        <ref role="398BVh" node="5GrujnmNRFi" resolve="mps_home" />
      </node>
    </node>
    <node concept="2sgV4H" id="5GrujnmNRFl" role="1l3spa">
      <ref role="1l3spb" to="ffeo:5rNMDvYzelV" resolve="mpsMakePlugin" />
      <node concept="398BVA" id="5GrujnmNRFm" role="2JcizS">
        <ref role="398BVh" node="5GrujnmNRFi" resolve="mps_home" />
        <node concept="2Ry0Ak" id="5GrujnmNRFn" role="iGT6I">
          <property role="2Ry0Am" value="plugins" />
        </node>
      </node>
    </node>
    <node concept="2sgV4H" id="5GrujnmNRFo" role="1l3spa">
      <ref role="1l3spb" to="ffeo:1lMM4owFq4Y" resolve="mpsVcs" />
      <node concept="398BVA" id="5GrujnmNRFp" role="2JcizS">
        <ref role="398BVh" node="5GrujnmNRFi" resolve="mps_home" />
        <node concept="2Ry0Ak" id="5GrujnmNRFq" role="iGT6I">
          <property role="2Ry0Am" value="plugins" />
        </node>
      </node>
    </node>
    <node concept="3jsGME" id="5GrujnmNRGj" role="3989C9">
      <property role="TrG5h" value="mps-tips" />
      <node concept="3jmSaf" id="5GrujnmNRGk" role="3jmSa1" />
    </node>
    <node concept="1l3spV" id="5GrujnmNRGl" role="1l3spN">
      <node concept="3_I8Xc" id="5GrujnmNRGt" role="39821P">
        <ref role="3_I8Xa" to="ffeo:1diLdO26H79" resolve="languages" />
      </node>
      <node concept="3_I8Xc" id="5GrujnmNRGu" role="39821P">
        <ref role="3_I8Xa" to="ffeo:1aRUp2KiMC$" resolve="license" />
      </node>
      <node concept="398223" id="5GrujnmNRGv" role="39821P">
        <node concept="3_J27D" id="5GrujnmNRGw" role="Nbhlr">
          <node concept="3Mxwew" id="5GrujnmNRGx" role="3MwsjC">
            <property role="3MwjfP" value="bin" />
          </node>
        </node>
        <node concept="3ygNvl" id="5GrujnmNRGy" role="39821P">
          <ref role="3ygNvj" to="ffeo:3cxBkkDa4_O" resolve="bin" />
          <node concept="3LWZYx" id="5GrujnmNRGz" role="1juEy9">
            <property role="3LWZYw" value="log.xml" />
          </node>
          <node concept="3LWZYx" id="5GrujnmNRG$" role="1juEy9">
            <property role="3LWZYw" value="log4j.dtd" />
          </node>
        </node>
        <node concept="28jJK3" id="5GrujnmNRG_" role="39821P">
          <node concept="1688n2" id="5GrujnmNRGA" role="28jJR8">
            <property role="1688n6" value="g" />
            <property role="1688n3" value="\.MPS(\w+)" />
            <node concept="NbPM2" id="5GrujnmNRGB" role="1688n0">
              <node concept="3Mxwew" id="5GrujnmNRGC" role="3MwsjC">
                <property role="3MwjfP" value="\." />
              </node>
              <node concept="3Mxwey" id="5GrujnmNRGD" role="3MwsjC">
                <ref role="3Mxwex" node="5GrujnmNRFe" resolve="build.number" />
              </node>
            </node>
          </node>
          <node concept="398BVA" id="5GrujnmNRGp" role="28jJRO">
            <ref role="398BVh" node="5GrujnmNRFi" resolve="mps_home" />
            <node concept="2Ry0Ak" id="5GrujnmNRGq" role="iGT6I">
              <property role="2Ry0Am" value="bin" />
              <node concept="2Ry0Ak" id="5GrujnmNRGr" role="2Ry0An">
                <property role="2Ry0Am" value="idea.properties" />
              </node>
            </node>
          </node>
        </node>
      </node>
      <node concept="398223" id="5GrujnmNRGE" role="39821P">
        <node concept="3_J27D" id="5GrujnmNRGF" role="Nbhlr">
          <node concept="3Mxwew" id="5GrujnmNRGG" role="3MwsjC">
            <property role="3MwjfP" value="lib" />
          </node>
        </node>
        <node concept="3ygNvl" id="5GrujnmNRGH" role="39821P">
          <ref role="3ygNvj" to="ffeo:1diLdO26H7f" resolve="lib" />
          <node concept="3LWZYq" id="5GrujnmNRGI" role="1juEy9">
            <property role="3LWZYl" value="MPS-src.zip" />
          </node>
          <node concept="3LWZYq" id="5GrujnmNRGJ" role="1juEy9">
            <property role="3LWZYl" value="branding.jar" />
          </node>
          <node concept="3LWZYq" id="5GrujnmNRGK" role="1juEy9">
            <property role="3LWZYl" value="mps-tips.jar" />
          </node>
        </node>
        <node concept="20sUq0" id="5GrujnmNRGL" role="39821P">
          <property role="TrG5h" value="mps-tips.jar" />
          <ref role="21GgXK" node="5GrujnmNRGj" resolve="mps-tips" />
        </node>
        <node concept="3981dx" id="5GrujnmNRGM" role="39821P">
          <node concept="3_J27D" id="5GrujnmNRGN" role="Nbhlr">
            <node concept="3Mxwew" id="5GrujnmNRGO" role="3MwsjC">
              <property role="3MwjfP" value="branding.jar" />
            </node>
          </node>
          <node concept="1zDrgl" id="5GrujnmNRGP" role="39821P">
            <ref role="1zDrgn" node="5GrujnmNRFr" resolve="SimpliC-IDE 1.0" />
          </node>
        </node>
      </node>
      <node concept="398223" id="5GrujnmNRGQ" role="39821P">
        <node concept="3_I8Xc" id="5GrujnmNRGR" role="39821P">
          <ref role="3_I8Xa" to="ffeo:3nGzrDEfcNJ" resolve="svn4idea" />
        </node>
        <node concept="3_I8Xc" id="5GrujnmNRGS" role="39821P">
          <ref role="3_I8Xa" to="ffeo:I6XuqH2zYV" resolve="git4idea" />
        </node>
        <node concept="3_I8Xc" id="5GrujnmNRGT" role="39821P">
          <ref role="3_I8Xa" to="ffeo:4EdAnGErOtx" resolve="mps-core" />
        </node>
        <node concept="3_I8Xc" id="5GrujnmNRGU" role="39821P">
          <ref role="3_I8Xa" to="ffeo:1x6h9EwqP32" resolve="mps-make" />
        </node>
        <node concept="m$_wl" id="5GrujnmNRGV" role="39821P">
          <ref role="m_rDy" node="5GrujnmNRGa" resolve="SimpliC" />
          <node concept="pUk6x" id="5GrujnmNRGW" role="pUk7w" />
        </node>
        <node concept="3_J27D" id="5GrujnmNRGX" role="Nbhlr">
          <node concept="3Mxwew" id="5GrujnmNRGY" role="3MwsjC">
            <property role="3MwjfP" value="plugins" />
          </node>
        </node>
      </node>
      <node concept="1TblL5" id="5GrujnmNRGZ" role="39821P">
        <node concept="3_J27D" id="5GrujnmNRH0" role="1TblL3">
          <node concept="3Mxwew" id="5GrujnmNRH1" role="3MwsjC">
            <property role="3MwjfP" value="build.number" />
          </node>
        </node>
        <node concept="1TblLo" id="5GrujnmNRH2" role="1TblLl">
          <property role="1TblLn" value="build.number" />
          <node concept="NbPM2" id="5GrujnmNRH3" role="1TblLm">
            <node concept="3Mxwey" id="5GrujnmNRH4" role="3MwsjC">
              <ref role="3Mxwex" node="5GrujnmNRFe" resolve="build.number" />
            </node>
          </node>
        </node>
        <node concept="1TblLo" id="5GrujnmNRH5" role="1TblLl">
          <property role="1TblLn" value="date" />
          <node concept="NbPM2" id="5GrujnmNRH6" role="1TblLm">
            <node concept="3Mxwey" id="5GrujnmNRH7" role="3MwsjC">
              <ref role="3Mxwex" node="5GrujnmNRFc" resolve="date" />
            </node>
          </node>
        </node>
        <node concept="1TblLo" id="5GrujnmNRH8" role="1TblLl">
          <property role="1TblLn" value="version" />
          <node concept="NbPM2" id="5GrujnmNRH9" role="1TblLm">
            <node concept="3Mxwew" id="5GrujnmNRHa" role="3MwsjC">
              <property role="3MwjfP" value="1.0" />
            </node>
          </node>
        </node>
      </node>
    </node>
    <node concept="m$_wf" id="5GrujnmNRGa" role="3989C9">
      <property role="m$_wk" value="SimpliC" />
      <node concept="3_J27D" id="5GrujnmNRGb" role="m$_yQ">
        <node concept="3Mxwew" id="5GrujnmNRGc" role="3MwsjC">
          <property role="3MwjfP" value="SimpliC-IDE" />
        </node>
      </node>
      <node concept="3_J27D" id="5GrujnmNRGd" role="m$_w8">
        <node concept="3Mxwew" id="5GrujnmNRGe" role="3MwsjC">
          <property role="3MwjfP" value="1.0" />
        </node>
      </node>
      <node concept="m$f5U" id="5GrujnmNRGf" role="m$_yh">
        <ref role="m$f5T" node="5GrujnmNRG9" resolve="SimpliC-IDE" />
      </node>
      <node concept="m$_yC" id="5GrujnmNRGg" role="m$_yJ">
        <ref role="m$_y1" to="ffeo:4k71ibbKLe8" resolve="jetbrains.mps.core" />
      </node>
      <node concept="3_J27D" id="5GrujnmNRGh" role="m_cZH">
        <node concept="3Mxwew" id="5GrujnmNRGi" role="3MwsjC">
          <property role="3MwjfP" value="SimpliC-IDE" />
        </node>
      </node>
    </node>
    <node concept="2G$12M" id="5GrujnmNRG9" role="3989C9">
      <property role="TrG5h" value="SimpliC-IDE" />
      <node concept="1E1JtA" id="5GrujnmNRG2" role="2G$12L">
        <property role="BnDLt" value="true" />
        <property role="TrG5h" value="SimpliC-Sandbox" />
        <property role="3LESm3" value="45066bd4-4b04-413a-acf2-5e22e79f0b48" />
        <node concept="55IIr" id="5GrujnmNRFX" role="3LF7KH">
          <node concept="2Ry0Ak" id="5GrujnmNRFY" role="iGT6I">
            <property role="2Ry0Am" value="solutions" />
            <node concept="2Ry0Ak" id="5GrujnmNRFZ" role="2Ry0An">
              <property role="2Ry0Am" value="SimpliC-Sandbox" />
              <node concept="2Ry0Ak" id="5GrujnmNRG0" role="2Ry0An">
                <property role="2Ry0Am" value="SimpliC-Sandbox.msd" />
              </node>
            </node>
          </node>
        </node>
      </node>
      <node concept="1E1JtD" id="5GrujnmNRG8" role="2G$12L">
        <property role="BnDLt" value="true" />
        <property role="TrG5h" value="SimpliC" />
        <property role="3LESm3" value="11970950-6d41-49d2-a07e-65645b6ac140" />
        <node concept="55IIr" id="5GrujnmNRG3" role="3LF7KH">
          <node concept="2Ry0Ak" id="5GrujnmNRG4" role="iGT6I">
            <property role="2Ry0Am" value="languages" />
            <node concept="2Ry0Ak" id="5GrujnmNRG5" role="2Ry0An">
              <property role="2Ry0Am" value="SimpliC" />
              <node concept="2Ry0Ak" id="5GrujnmNRG6" role="2Ry0An">
                <property role="2Ry0Am" value="SimpliC.mpl" />
              </node>
            </node>
          </node>
        </node>
        <node concept="1yeLz9" id="5GrujnmNRHb" role="1TViLv">
          <property role="TrG5h" value="SimpliC#6564974153966913023" />
          <property role="3LESm3" value="4a321609-495f-4d96-9495-3f73a105f911" />
        </node>
      </node>
    </node>
  </node>
  <node concept="1l3spW" id="5GrujnmNRHc">
    <property role="TrG5h" value="SimpliC-IDEDistribution" />
    <property role="turDy" value="buildDistribution.xml" />
    <property role="2DA0ip" value="../.." />
    <node concept="2sgV4H" id="5GrujnmNRHd" role="1l3spa">
      <ref role="1l3spb" node="5GrujnmNRF9" resolve="SimpliC-IDE" />
    </node>
    <node concept="1l3spV" id="5GrujnmNRHe" role="1l3spN">
      <node concept="1tmT9g" id="5GrujnmNRI3" role="39821P">
        <property role="AB_bT" value="1HQQX4XU8$A/gzip" />
        <node concept="3ygNvl" id="5GrujnmNRI4" role="39821P">
          <ref role="3ygNvj" node="5GrujnmNRGl" />
        </node>
        <node concept="398223" id="5GrujnmNRI5" role="39821P">
          <node concept="3_J27D" id="5GrujnmNRI6" role="Nbhlr">
            <node concept="3Mxwew" id="5GrujnmNRI7" role="3MwsjC">
              <property role="3MwjfP" value="bin" />
            </node>
          </node>
          <node concept="28u9K_" id="5GrujnmNRI8" role="39821P">
            <property role="28hIV_" value="Linux executable files and fsnotifier" />
          </node>
          <node concept="yKbIv" id="5GrujnmNRI9" role="39821P">
            <property role="yKbIr" value="755" />
            <node concept="2HvfSZ" id="5GrujnmNRIa" role="39821P">
              <node concept="398BVA" id="5GrujnmNRI0" role="2HvfZ0">
                <ref role="398BVh" node="5GrujnmNRHf" resolve="mps_home" />
                <node concept="2Ry0Ak" id="5GrujnmNRI1" role="iGT6I">
                  <property role="2Ry0Am" value="bin" />
                  <node concept="2Ry0Ak" id="5GrujnmNRI2" role="2Ry0An">
                    <property role="2Ry0Am" value="linux" />
                  </node>
                </node>
              </node>
            </node>
          </node>
          <node concept="28u9K_" id="5GrujnmNRIb" role="39821P">
            <property role="28hIV_" value="Startup options for 32 and 64 bit systems" />
          </node>
          <node concept="28jJK3" id="5GrujnmNRIc" role="39821P">
            <node concept="3co7Ac" id="5GrujnmNRId" role="28jJR8">
              <property role="3co7Am" value="3D3G23Q8WAL/lf" />
              <property role="3cpA_W" value="true" />
            </node>
            <node concept="55IIr" id="5GrujnmNRIe" role="28jJRO">
              <node concept="2Ry0Ak" id="5GrujnmNRHv" role="iGT6I">
                <property role="2Ry0Am" value="solutions" />
                <node concept="2Ry0Ak" id="5GrujnmNRHw" role="2Ry0An">
                  <property role="2Ry0Am" value="SimpliC-IDE.build" />
                  <node concept="2Ry0Ak" id="5GrujnmNRHx" role="2Ry0An">
                    <property role="2Ry0Am" value="source_gen" />
                    <node concept="2Ry0Ak" id="5GrujnmNRHy" role="2Ry0An">
                      <property role="2Ry0Am" value="SimpliC-IDE" />
                      <node concept="2Ry0Ak" id="5GrujnmNRHz" role="2Ry0An">
                        <property role="2Ry0Am" value="build" />
                        <node concept="2Ry0Ak" id="5GrujnmNRH$" role="2Ry0An">
                          <property role="2Ry0Am" value="simplic-ide.vmoptions" />
                        </node>
                      </node>
                    </node>
                  </node>
                </node>
              </node>
            </node>
          </node>
          <node concept="28jJK3" id="5GrujnmNRIf" role="39821P">
            <node concept="3co7Ac" id="5GrujnmNRIg" role="28jJR8">
              <property role="3co7Am" value="3D3G23Q8WAL/lf" />
              <property role="3cpA_W" value="true" />
            </node>
            <node concept="55IIr" id="5GrujnmNRIh" role="28jJRO">
              <node concept="2Ry0Ak" id="5GrujnmNRH_" role="iGT6I">
                <property role="2Ry0Am" value="solutions" />
                <node concept="2Ry0Ak" id="5GrujnmNRHA" role="2Ry0An">
                  <property role="2Ry0Am" value="SimpliC-IDE.build" />
                  <node concept="2Ry0Ak" id="5GrujnmNRHB" role="2Ry0An">
                    <property role="2Ry0Am" value="source_gen" />
                    <node concept="2Ry0Ak" id="5GrujnmNRHC" role="2Ry0An">
                      <property role="2Ry0Am" value="SimpliC-IDE" />
                      <node concept="2Ry0Ak" id="5GrujnmNRHD" role="2Ry0An">
                        <property role="2Ry0Am" value="build" />
                        <node concept="2Ry0Ak" id="5GrujnmNRHE" role="2Ry0An">
                          <property role="2Ry0Am" value="simplic-ide64.vmoptions" />
                        </node>
                      </node>
                    </node>
                  </node>
                </node>
              </node>
            </node>
          </node>
          <node concept="28u9K_" id="5GrujnmNRIi" role="39821P">
            <property role="28hIV_" value="Linux startup script" />
          </node>
          <node concept="28jJK3" id="5GrujnmNRIj" role="39821P">
            <property role="28jJZ5" value="755" />
            <node concept="3co7Ac" id="5GrujnmNRIk" role="28jJR8">
              <property role="3co7Am" value="3D3G23Q8WAL/lf" />
              <property role="3cpA_W" value="true" />
            </node>
            <node concept="55IIr" id="5GrujnmNRIl" role="28jJRO">
              <node concept="2Ry0Ak" id="5GrujnmNRHF" role="iGT6I">
                <property role="2Ry0Am" value="solutions" />
                <node concept="2Ry0Ak" id="5GrujnmNRHG" role="2Ry0An">
                  <property role="2Ry0Am" value="SimpliC-IDE.build" />
                  <node concept="2Ry0Ak" id="5GrujnmNRHH" role="2Ry0An">
                    <property role="2Ry0Am" value="source_gen" />
                    <node concept="2Ry0Ak" id="5GrujnmNRHI" role="2Ry0An">
                      <property role="2Ry0Am" value="SimpliC-IDE" />
                      <node concept="2Ry0Ak" id="5GrujnmNRHJ" role="2Ry0An">
                        <property role="2Ry0Am" value="build" />
                        <node concept="2Ry0Ak" id="5GrujnmNRHK" role="2Ry0An">
                          <property role="2Ry0Am" value="simplic-ide.sh" />
                        </node>
                      </node>
                    </node>
                  </node>
                </node>
              </node>
            </node>
          </node>
        </node>
        <node concept="3_J27D" id="5GrujnmNRIm" role="Nbhlr">
          <node concept="3Mxwew" id="5GrujnmNRIn" role="3MwsjC">
            <property role="3MwjfP" value="SimpliC-IDE" />
          </node>
          <node concept="3Mxwew" id="5GrujnmNRIo" role="3MwsjC">
            <property role="3MwjfP" value="-" />
          </node>
          <node concept="3Mxwey" id="5GrujnmNRIp" role="3MwsjC">
            <ref role="3Mxwex" node="5GrujnmNRFe" resolve="build.number" />
          </node>
          <node concept="3Mxwew" id="5GrujnmNRIq" role="3MwsjC">
            <property role="3MwjfP" value=".tar.gz" />
          </node>
        </node>
      </node>
      <node concept="3981dG" id="5GrujnmNRIB" role="39821P">
        <node concept="3ygNvl" id="5GrujnmNRIC" role="39821P">
          <ref role="3ygNvj" node="5GrujnmNRGl" />
        </node>
        <node concept="398223" id="5GrujnmNRID" role="39821P">
          <node concept="28u9K_" id="5GrujnmNRIE" role="39821P">
            <property role="28hIV_" value="Startup options for 32 and 64 bit systems" />
          </node>
          <node concept="3_J27D" id="5GrujnmNRIF" role="Nbhlr">
            <node concept="3Mxwew" id="5GrujnmNRIG" role="3MwsjC">
              <property role="3MwjfP" value="bin" />
            </node>
          </node>
          <node concept="28jJK3" id="5GrujnmNRIH" role="39821P">
            <node concept="2$gBol" id="5GrujnmNRII" role="28jJR8">
              <property role="2$htvj" value="*" />
              <node concept="NbPM2" id="5GrujnmNRIJ" role="2$htvi">
                <node concept="3Mxwew" id="5GrujnmNRIK" role="3MwsjC">
                  <property role="3MwjfP" value="simplic-ide.exe.vmoptions" />
                </node>
              </node>
            </node>
            <node concept="3co7Ac" id="5GrujnmNRIL" role="28jJR8">
              <property role="3co7Am" value="3D3G23Q8WAM/crlf" />
            </node>
            <node concept="55IIr" id="5GrujnmNRIM" role="28jJRO">
              <node concept="2Ry0Ak" id="5GrujnmNRIN" role="iGT6I">
                <property role="2Ry0Am" value="solutions" />
                <node concept="2Ry0Ak" id="5GrujnmNRIO" role="2Ry0An">
                  <property role="2Ry0Am" value="SimpliC-IDE.build" />
                  <node concept="2Ry0Ak" id="5GrujnmNRIP" role="2Ry0An">
                    <property role="2Ry0Am" value="source_gen" />
                    <node concept="2Ry0Ak" id="5GrujnmNRIQ" role="2Ry0An">
                      <property role="2Ry0Am" value="SimpliC-IDE" />
                      <node concept="2Ry0Ak" id="5GrujnmNRIR" role="2Ry0An">
                        <property role="2Ry0Am" value="build" />
                        <node concept="2Ry0Ak" id="5GrujnmNRIS" role="2Ry0An">
                          <property role="2Ry0Am" value="simplic-ide.vmoptions" />
                        </node>
                      </node>
                    </node>
                  </node>
                </node>
              </node>
            </node>
          </node>
          <node concept="28jJK3" id="5GrujnmNRIT" role="39821P">
            <node concept="2$gBol" id="5GrujnmNRIU" role="28jJR8">
              <property role="2$htvj" value="*" />
              <node concept="NbPM2" id="5GrujnmNRIV" role="2$htvi">
                <node concept="3Mxwew" id="5GrujnmNRIW" role="3MwsjC">
                  <property role="3MwjfP" value="simplic-ide64.exe.vmoptions" />
                </node>
              </node>
            </node>
            <node concept="3co7Ac" id="5GrujnmNRIX" role="28jJR8">
              <property role="3co7Am" value="3D3G23Q8WAM/crlf" />
            </node>
            <node concept="55IIr" id="5GrujnmNRIY" role="28jJRO">
              <node concept="2Ry0Ak" id="5GrujnmNRIZ" role="iGT6I">
                <property role="2Ry0Am" value="solutions" />
                <node concept="2Ry0Ak" id="5GrujnmNRJ0" role="2Ry0An">
                  <property role="2Ry0Am" value="SimpliC-IDE.build" />
                  <node concept="2Ry0Ak" id="5GrujnmNRJ1" role="2Ry0An">
                    <property role="2Ry0Am" value="source_gen" />
                    <node concept="2Ry0Ak" id="5GrujnmNRJ2" role="2Ry0An">
                      <property role="2Ry0Am" value="SimpliC-IDE" />
                      <node concept="2Ry0Ak" id="5GrujnmNRJ3" role="2Ry0An">
                        <property role="2Ry0Am" value="build" />
                        <node concept="2Ry0Ak" id="5GrujnmNRJ4" role="2Ry0An">
                          <property role="2Ry0Am" value="simplic-ide64.vmoptions" />
                        </node>
                      </node>
                    </node>
                  </node>
                </node>
              </node>
            </node>
          </node>
          <node concept="28u9K_" id="5GrujnmNRJ5" role="39821P">
            <property role="28hIV_" value="Required files for execution" />
          </node>
          <node concept="2HvfSZ" id="5GrujnmNRJ6" role="39821P">
            <node concept="3LWZYq" id="5GrujnmNRJ7" role="2HvfZ1">
              <property role="3LWZYl" value="**/*.exe" />
            </node>
            <node concept="3LWZYq" id="5GrujnmNRJ8" role="2HvfZ1">
              <property role="3LWZYl" value="**/*.bat" />
            </node>
            <node concept="398BVA" id="5GrujnmNRIu" role="2HvfZ0">
              <ref role="398BVh" node="5GrujnmNRHf" resolve="mps_home" />
              <node concept="2Ry0Ak" id="5GrujnmNRIv" role="iGT6I">
                <property role="2Ry0Am" value="bin" />
                <node concept="2Ry0Ak" id="5GrujnmNRIw" role="2Ry0An">
                  <property role="2Ry0Am" value="win" />
                </node>
              </node>
            </node>
          </node>
          <node concept="28u9K_" id="5GrujnmNRJ9" role="39821P">
            <property role="28hIV_" value="Windows executable files and fsnotifier" />
          </node>
          <node concept="yKbIv" id="5GrujnmNRJa" role="39821P">
            <property role="yKbIr" value="755" />
            <node concept="2HvfSZ" id="5GrujnmNRJb" role="39821P">
              <node concept="3LWZYx" id="5GrujnmNRJc" role="2HvfZ1">
                <property role="3LWZYw" value="**/*.exe" />
              </node>
              <node concept="3LWZYx" id="5GrujnmNRJd" role="2HvfZ1">
                <property role="3LWZYw" value="**/append.bat" />
              </node>
              <node concept="398BVA" id="5GrujnmNRI$" role="2HvfZ0">
                <ref role="398BVh" node="5GrujnmNRHf" resolve="mps_home" />
                <node concept="2Ry0Ak" id="5GrujnmNRI_" role="iGT6I">
                  <property role="2Ry0Am" value="bin" />
                  <node concept="2Ry0Ak" id="5GrujnmNRIA" role="2Ry0An">
                    <property role="2Ry0Am" value="win" />
                  </node>
                </node>
              </node>
            </node>
          </node>
          <node concept="28u9K_" id="5GrujnmNRJe" role="39821P">
            <property role="28hIV_" value="Startup .bat file" />
          </node>
          <node concept="28jJK3" id="5GrujnmNRJf" role="39821P">
            <property role="28jJZ5" value="755" />
            <node concept="3co7Ac" id="5GrujnmNRJg" role="28jJR8">
              <property role="3co7Am" value="3D3G23Q8WAM/crlf" />
            </node>
            <node concept="55IIr" id="5GrujnmNRJh" role="28jJRO">
              <node concept="2Ry0Ak" id="5GrujnmNRHL" role="iGT6I">
                <property role="2Ry0Am" value="solutions" />
                <node concept="2Ry0Ak" id="5GrujnmNRHM" role="2Ry0An">
                  <property role="2Ry0Am" value="SimpliC-IDE.build" />
                  <node concept="2Ry0Ak" id="5GrujnmNRHN" role="2Ry0An">
                    <property role="2Ry0Am" value="source_gen" />
                    <node concept="2Ry0Ak" id="5GrujnmNRHO" role="2Ry0An">
                      <property role="2Ry0Am" value="SimpliC-IDE" />
                      <node concept="2Ry0Ak" id="5GrujnmNRHP" role="2Ry0An">
                        <property role="2Ry0Am" value="build" />
                        <node concept="2Ry0Ak" id="5GrujnmNRHQ" role="2Ry0An">
                          <property role="2Ry0Am" value="simplic-ide.bat" />
                        </node>
                      </node>
                    </node>
                  </node>
                </node>
              </node>
            </node>
          </node>
        </node>
        <node concept="3_J27D" id="5GrujnmNRJi" role="Nbhlr">
          <node concept="3Mxwew" id="5GrujnmNRJj" role="3MwsjC">
            <property role="3MwjfP" value="SimpliC-IDE" />
          </node>
          <node concept="3Mxwew" id="5GrujnmNRJk" role="3MwsjC">
            <property role="3MwjfP" value="-" />
          </node>
          <node concept="3Mxwey" id="5GrujnmNRJl" role="3MwsjC">
            <ref role="3Mxwex" node="5GrujnmNRFe" resolve="build.number" />
          </node>
          <node concept="3Mxwew" id="5GrujnmNRJm" role="3MwsjC">
            <property role="3MwjfP" value=".win.zip" />
          </node>
        </node>
      </node>
      <node concept="3981dG" id="5GrujnmNRK1" role="39821P">
        <node concept="3_J27D" id="5GrujnmNRK2" role="Nbhlr">
          <node concept="3Mxwew" id="5GrujnmNRK3" role="3MwsjC">
            <property role="3MwjfP" value="SimpliC-IDE" />
          </node>
          <node concept="3Mxwew" id="5GrujnmNRK4" role="3MwsjC">
            <property role="3MwjfP" value="-" />
          </node>
          <node concept="3Mxwey" id="5GrujnmNRK5" role="3MwsjC">
            <ref role="3Mxwex" node="5GrujnmNRFe" resolve="build.number" />
          </node>
          <node concept="3Mxwew" id="5GrujnmNRK6" role="3MwsjC">
            <property role="3MwjfP" value=".macos.zip" />
          </node>
        </node>
        <node concept="398223" id="5GrujnmNRK7" role="39821P">
          <node concept="398223" id="5GrujnmNRK8" role="39821P">
            <node concept="3ygNvl" id="5GrujnmNRK9" role="39821P">
              <ref role="3ygNvj" node="5GrujnmNRGl" />
            </node>
            <node concept="3_J27D" id="5GrujnmNRKa" role="Nbhlr">
              <node concept="3Mxwew" id="5GrujnmNRKb" role="3MwsjC">
                <property role="3MwjfP" value="Contents" />
              </node>
            </node>
            <node concept="398223" id="5GrujnmNRKc" role="39821P">
              <node concept="3_J27D" id="5GrujnmNRKd" role="Nbhlr">
                <node concept="3Mxwew" id="5GrujnmNRKe" role="3MwsjC">
                  <property role="3MwjfP" value="Resources" />
                </node>
              </node>
              <node concept="28u9K_" id="5GrujnmNRKf" role="39821P">
                <property role="28hIV_" value="TODO: replace with product icon" />
              </node>
              <node concept="28jJK3" id="5GrujnmNRKg" role="39821P">
                <node concept="398BVA" id="5GrujnmNRJt" role="28jJRO">
                  <ref role="398BVh" node="5GrujnmNRHf" resolve="mps_home" />
                  <node concept="2Ry0Ak" id="5GrujnmNRJu" role="iGT6I">
                    <property role="2Ry0Am" value="bin" />
                    <node concept="2Ry0Ak" id="5GrujnmNRJv" role="2Ry0An">
                      <property role="2Ry0Am" value="mac" />
                      <node concept="2Ry0Ak" id="5GrujnmNRJw" role="2Ry0An">
                        <property role="2Ry0Am" value="Contents" />
                        <node concept="2Ry0Ak" id="5GrujnmNRJx" role="2Ry0An">
                          <property role="2Ry0Am" value="Resources" />
                          <node concept="2Ry0Ak" id="5GrujnmNRJy" role="2Ry0An">
                            <property role="2Ry0Am" value="mps.icns" />
                          </node>
                        </node>
                      </node>
                    </node>
                  </node>
                </node>
              </node>
            </node>
            <node concept="28u9K_" id="5GrujnmNRKh" role="39821P">
              <property role="28hIV_" value="MacOSX executable to run application" />
            </node>
            <node concept="398223" id="5GrujnmNRKi" role="39821P">
              <node concept="28jJK3" id="5GrujnmNRKj" role="39821P">
                <property role="28jJZ5" value="755" />
                <node concept="398BVA" id="5GrujnmNRJD" role="28jJRO">
                  <ref role="398BVh" node="5GrujnmNRHf" resolve="mps_home" />
                  <node concept="2Ry0Ak" id="5GrujnmNRJE" role="iGT6I">
                    <property role="2Ry0Am" value="bin" />
                    <node concept="2Ry0Ak" id="5GrujnmNRJF" role="2Ry0An">
                      <property role="2Ry0Am" value="mac" />
                      <node concept="2Ry0Ak" id="5GrujnmNRJG" role="2Ry0An">
                        <property role="2Ry0Am" value="Contents" />
                        <node concept="2Ry0Ak" id="5GrujnmNRJH" role="2Ry0An">
                          <property role="2Ry0Am" value="MacOS" />
                          <node concept="2Ry0Ak" id="5GrujnmNRJI" role="2Ry0An">
                            <property role="2Ry0Am" value="mps" />
                          </node>
                        </node>
                      </node>
                    </node>
                  </node>
                </node>
                <node concept="2$gBol" id="5GrujnmNRKk" role="28jJR8">
                  <property role="2$htvj" value="*" />
                  <node concept="NbPM2" id="5GrujnmNRKl" role="2$htvi">
                    <node concept="3Mxwew" id="5GrujnmNRKm" role="3MwsjC">
                      <property role="3MwjfP" value="simplic-ide" />
                    </node>
                  </node>
                </node>
              </node>
              <node concept="3_J27D" id="5GrujnmNRKn" role="Nbhlr">
                <node concept="3Mxwew" id="5GrujnmNRKo" role="3MwsjC">
                  <property role="3MwjfP" value="MacOS" />
                </node>
              </node>
            </node>
            <node concept="28u9K_" id="5GrujnmNRKp" role="39821P">
              <property role="28hIV_" value="Fill Info.plist with current build version and number" />
            </node>
            <node concept="28jJK3" id="5GrujnmNRKq" role="39821P">
              <node concept="55IIr" id="5GrujnmNRKr" role="28jJRO">
                <node concept="2Ry0Ak" id="5GrujnmNRHR" role="iGT6I">
                  <property role="2Ry0Am" value="solutions" />
                  <node concept="2Ry0Ak" id="5GrujnmNRHS" role="2Ry0An">
                    <property role="2Ry0Am" value="SimpliC-IDE.build" />
                    <node concept="2Ry0Ak" id="5GrujnmNRHT" role="2Ry0An">
                      <property role="2Ry0Am" value="source_gen" />
                      <node concept="2Ry0Ak" id="5GrujnmNRHU" role="2Ry0An">
                        <property role="2Ry0Am" value="SimpliC-IDE" />
                        <node concept="2Ry0Ak" id="5GrujnmNRHV" role="2Ry0An">
                          <property role="2Ry0Am" value="build" />
                          <node concept="2Ry0Ak" id="5GrujnmNRHW" role="2Ry0An">
                            <property role="2Ry0Am" value="Info.plist.xml" />
                          </node>
                        </node>
                      </node>
                    </node>
                  </node>
                </node>
              </node>
              <node concept="2$gBol" id="5GrujnmNRKs" role="28jJR8">
                <property role="2$htvj" value="*" />
                <node concept="NbPM2" id="5GrujnmNRKt" role="2$htvi">
                  <node concept="3Mxwew" id="5GrujnmNRKu" role="3MwsjC">
                    <property role="3MwjfP" value="Info.plist" />
                  </node>
                </node>
              </node>
              <node concept="1688n2" id="5GrujnmNRKv" role="28jJR8">
                <property role="1688n3" value="\$version\$" />
                <node concept="NbPM2" id="5GrujnmNRKw" role="1688n0">
                  <node concept="3Mxwey" id="5GrujnmNRKx" role="3MwsjC">
                    <ref role="3Mxwex" node="5GrujnmNRHg" resolve="version" />
                  </node>
                </node>
              </node>
              <node concept="1688n2" id="5GrujnmNRKy" role="28jJR8">
                <property role="1688n3" value="\$build\$" />
                <node concept="NbPM2" id="5GrujnmNRKz" role="1688n0">
                  <node concept="3Mxwey" id="5GrujnmNRK$" role="3MwsjC">
                    <ref role="3Mxwex" node="5GrujnmNRFe" resolve="build.number" />
                  </node>
                </node>
              </node>
              <node concept="3co7Ac" id="5GrujnmNRK_" role="28jJR8">
                <property role="3co7Am" value="3D3G23Q8WAL/lf" />
                <property role="3cpA_W" value="true" />
              </node>
            </node>
            <node concept="398223" id="5GrujnmNRKA" role="39821P">
              <node concept="3_J27D" id="5GrujnmNRKB" role="Nbhlr">
                <node concept="3Mxwew" id="5GrujnmNRKC" role="3MwsjC">
                  <property role="3MwjfP" value="bin" />
                </node>
              </node>
              <node concept="28u9K_" id="5GrujnmNRKD" role="39821P">
                <property role="28hIV_" value="Executable files and fsnotifier" />
              </node>
              <node concept="yKbIv" id="5GrujnmNRKE" role="39821P">
                <property role="yKbIr" value="755" />
                <node concept="2HvfSZ" id="5GrujnmNRKF" role="39821P">
                  <node concept="3LWZYq" id="5GrujnmNRKG" role="2HvfZ1">
                    <property role="3LWZYl" value="**/*.dylib" />
                  </node>
                  <node concept="3LWZYq" id="5GrujnmNRKH" role="2HvfZ1">
                    <property role="3LWZYl" value="**/*.py" />
                  </node>
                  <node concept="398BVA" id="5GrujnmNRJM" role="2HvfZ0">
                    <ref role="398BVh" node="5GrujnmNRHf" resolve="mps_home" />
                    <node concept="2Ry0Ak" id="5GrujnmNRJN" role="iGT6I">
                      <property role="2Ry0Am" value="bin" />
                      <node concept="2Ry0Ak" id="5GrujnmNRJO" role="2Ry0An">
                        <property role="2Ry0Am" value="mac" />
                      </node>
                    </node>
                  </node>
                </node>
              </node>
              <node concept="28u9K_" id="5GrujnmNRKI" role="39821P">
                <property role="28hIV_" value="Python script with updated end of line" />
              </node>
              <node concept="yKbIv" id="5GrujnmNRKJ" role="39821P">
                <property role="yKbIr" value="755" />
                <node concept="2HvfSZ" id="5GrujnmNRKK" role="39821P">
                  <node concept="3LWZYx" id="5GrujnmNRKL" role="2HvfZ1">
                    <property role="3LWZYw" value="**/*.py" />
                  </node>
                  <node concept="3co7Ac" id="5GrujnmNRKM" role="2HvfZ1">
                    <property role="3co7Am" value="3D3G23Q8WAL/lf" />
                    <property role="3cpA_W" value="true" />
                  </node>
                  <node concept="398BVA" id="5GrujnmNRJS" role="2HvfZ0">
                    <ref role="398BVh" node="5GrujnmNRHf" resolve="mps_home" />
                    <node concept="2Ry0Ak" id="5GrujnmNRJT" role="iGT6I">
                      <property role="2Ry0Am" value="bin" />
                      <node concept="2Ry0Ak" id="5GrujnmNRJU" role="2Ry0An">
                        <property role="2Ry0Am" value="mac" />
                      </node>
                    </node>
                  </node>
                </node>
              </node>
              <node concept="28u9K_" id="5GrujnmNRKN" role="39821P">
                <property role="28hIV_" value="Required libraries" />
              </node>
              <node concept="yKbIv" id="5GrujnmNRKO" role="39821P">
                <node concept="2HvfSZ" id="5GrujnmNRKP" role="39821P">
                  <node concept="3LWZYx" id="5GrujnmNRKQ" role="2HvfZ1">
                    <property role="3LWZYw" value="**/*.dylib" />
                  </node>
                  <node concept="398BVA" id="5GrujnmNRJY" role="2HvfZ0">
                    <ref role="398BVh" node="5GrujnmNRHf" resolve="mps_home" />
                    <node concept="2Ry0Ak" id="5GrujnmNRJZ" role="iGT6I">
                      <property role="2Ry0Am" value="bin" />
                      <node concept="2Ry0Ak" id="5GrujnmNRK0" role="2Ry0An">
                        <property role="2Ry0Am" value="mac" />
                      </node>
                    </node>
                  </node>
                </node>
              </node>
              <node concept="28u9K_" id="5GrujnmNRKR" role="39821P">
                <property role="28hIV_" value="MacOSX distribution should always use 64 bit startup options" />
              </node>
              <node concept="28jJK3" id="5GrujnmNRKS" role="39821P">
                <node concept="3co7Ac" id="5GrujnmNRKT" role="28jJR8">
                  <property role="3co7Am" value="3D3G23Q8WAL/lf" />
                  <property role="3cpA_W" value="true" />
                </node>
                <node concept="55IIr" id="5GrujnmNRKU" role="28jJRO">
                  <node concept="2Ry0Ak" id="5GrujnmNRKV" role="iGT6I">
                    <property role="2Ry0Am" value="solutions" />
                    <node concept="2Ry0Ak" id="5GrujnmNRKW" role="2Ry0An">
                      <property role="2Ry0Am" value="SimpliC-IDE.build" />
                      <node concept="2Ry0Ak" id="5GrujnmNRKX" role="2Ry0An">
                        <property role="2Ry0Am" value="source_gen" />
                        <node concept="2Ry0Ak" id="5GrujnmNRKY" role="2Ry0An">
                          <property role="2Ry0Am" value="SimpliC-IDE" />
                          <node concept="2Ry0Ak" id="5GrujnmNRKZ" role="2Ry0An">
                            <property role="2Ry0Am" value="build" />
                            <node concept="2Ry0Ak" id="5GrujnmNRL0" role="2Ry0An">
                              <property role="2Ry0Am" value="simplic-ide64.vmoptions" />
                            </node>
                          </node>
                        </node>
                      </node>
                    </node>
                  </node>
                </node>
                <node concept="2$htT0" id="5GrujnmNRL1" role="28jJR8">
                  <property role="2$htTZ" value="simplic-ide64.vmoptions" />
                  <property role="2$htTY" value="simplic-ide.vmoptions" />
                </node>
              </node>
            </node>
          </node>
          <node concept="3_J27D" id="5GrujnmNRL2" role="Nbhlr">
            <node concept="3Mxwew" id="5GrujnmNRL3" role="3MwsjC">
              <property role="3MwjfP" value="SimpliC-IDE " />
            </node>
            <node concept="3Mxwey" id="5GrujnmNRL4" role="3MwsjC">
              <ref role="3Mxwex" node="5GrujnmNRHg" resolve="version" />
            </node>
            <node concept="3Mxwew" id="5GrujnmNRL5" role="3MwsjC">
              <property role="3MwjfP" value=".app" />
            </node>
          </node>
        </node>
      </node>
    </node>
    <node concept="398rNT" id="5GrujnmNRHf" role="1l3spd">
      <property role="TrG5h" value="mps_home" />
    </node>
    <node concept="2kB4xC" id="5GrujnmNRHg" role="1l3spd">
      <property role="TrG5h" value="version" />
      <node concept="aVJcg" id="5GrujnmNRHh" role="aVJcv">
        <node concept="NbPM2" id="5GrujnmNRHi" role="aVJcq">
          <node concept="3Mxwew" id="5GrujnmNRHj" role="3MwsjC">
            <property role="3MwjfP" value="1.0" />
          </node>
        </node>
      </node>
    </node>
  </node>
  <node concept="26EafH" id="5GrujnmNRL6">
    <property role="26EafI" value="-" />
    <property role="26FY9R" value="jetbrains.mps.Launcher" />
    <property role="TrG5h" value="SimpliC-IDEScripts" />
    <ref role="1_kbm$" node="5GrujnmNRFr" resolve="SimpliC-IDE 1.0" />
    <node concept="26EafG" id="5GrujnmNRL7" role="26Ea7d">
      <property role="26EafJ" value="lib/branding.jar" />
    </node>
    <node concept="26EafG" id="5GrujnmNRL8" role="26Ea7d">
      <property role="26EafJ" value="lib/mps-boot.jar" />
    </node>
    <node concept="26EafG" id="5GrujnmNRL9" role="26Ea7d">
      <property role="26EafJ" value="lib/mps-boot-util.jar" />
    </node>
    <node concept="26EafG" id="5GrujnmNRLa" role="26Ea7d">
      <property role="26EafJ" value="lib/bootstrap.jar" />
    </node>
    <node concept="26EafG" id="5GrujnmNRLb" role="26Ea7d">
      <property role="26EafJ" value="lib/extensions.jar" />
    </node>
    <node concept="26EafG" id="5GrujnmNRLc" role="26Ea7d">
      <property role="26EafJ" value="lib/util.jar" />
    </node>
    <node concept="26EafG" id="5GrujnmNRLd" role="26Ea7d">
      <property role="26EafJ" value="lib/jdom.jar" />
    </node>
    <node concept="26EafG" id="5GrujnmNRLe" role="26Ea7d">
      <property role="26EafJ" value="lib/log4j.jar" />
    </node>
    <node concept="26EafG" id="5GrujnmNRLf" role="26Ea7d">
      <property role="26EafJ" value="lib/trove4j.jar" />
    </node>
    <node concept="26EafG" id="5GrujnmNRLg" role="26Ea7d">
      <property role="26EafJ" value="lib/jna.jar" />
    </node>
  </node>
</model>

