<?xml version="1.0" encoding="UTF-8"?>
<model ref="r:c812ec5f-d6df-4351-b111-e327e3950242(SimpliC.structure)">
  <persistence version="9" />
  <languages>
    <use id="c72da2b9-7cce-4447-8389-f407dc1158b7" name="jetbrains.mps.lang.structure" version="9" />
    <devkit ref="78434eb8-b0e5-444b-850d-e7c4ad2da9ab(jetbrains.mps.devkit.aspect.structure)" />
  </languages>
  <imports>
    <import index="tpck" ref="r:00000000-0000-4000-0000-011c89590288(jetbrains.mps.lang.core.structure)" implicit="true" />
  </imports>
  <registry>
    <language id="c72da2b9-7cce-4447-8389-f407dc1158b7" name="jetbrains.mps.lang.structure">
      <concept id="1169125787135" name="jetbrains.mps.lang.structure.structure.AbstractConceptDeclaration" flags="ig" index="PkWjJ">
        <property id="6714410169261853888" name="conceptId" index="EcuMT" />
        <property id="4628067390765907488" name="conceptShortDescription" index="R4oN_" />
        <property id="4628067390765956802" name="abstract" index="R5$K7" />
        <property id="5092175715804935370" name="conceptAlias" index="34LRSv" />
        <child id="1071489727083" name="linkDeclaration" index="1TKVEi" />
        <child id="1071489727084" name="propertyDeclaration" index="1TKVEl" />
      </concept>
      <concept id="1169127622168" name="jetbrains.mps.lang.structure.structure.InterfaceConceptReference" flags="ig" index="PrWs8">
        <reference id="1169127628841" name="intfc" index="PrY4T" />
      </concept>
      <concept id="1071489090640" name="jetbrains.mps.lang.structure.structure.ConceptDeclaration" flags="ig" index="1TIwiD">
        <property id="1096454100552" name="rootable" index="19KtqR" />
        <reference id="1071489389519" name="extends" index="1TJDcQ" />
        <child id="1169129564478" name="implements" index="PzmwI" />
      </concept>
      <concept id="1071489288299" name="jetbrains.mps.lang.structure.structure.PropertyDeclaration" flags="ig" index="1TJgyi">
        <property id="241647608299431129" name="propertyId" index="IQ2nx" />
        <reference id="1082985295845" name="dataType" index="AX2Wp" />
      </concept>
      <concept id="1071489288298" name="jetbrains.mps.lang.structure.structure.LinkDeclaration" flags="ig" index="1TJgyj">
        <property id="1071599776563" name="role" index="20kJfa" />
        <property id="1071599893252" name="sourceCardinality" index="20lbJX" />
        <property id="1071599937831" name="metaClass" index="20lmBu" />
        <property id="241647608299431140" name="linkId" index="IQ2ns" />
        <reference id="1071599976176" name="target" index="20lvS9" />
      </concept>
    </language>
    <language id="ceab5195-25ea-4f22-9b92-103b95ca8c0c" name="jetbrains.mps.lang.core">
      <concept id="1169194658468" name="jetbrains.mps.lang.core.structure.INamedConcept" flags="ng" index="TrEIO">
        <property id="1169194664001" name="name" index="TrG5h" />
      </concept>
    </language>
  </registry>
  <node concept="1TIwiD" id="3HUbvRI1m89">
    <property role="EcuMT" value="4285788564039754249" />
    <property role="TrG5h" value="Program" />
    <property role="19KtqR" value="true" />
    <property role="R4oN_" value="Root Program Node for SimpliC AST" />
    <ref role="1TJDcQ" to="tpck:gw2VY9q" resolve="BaseConcept" />
    <node concept="1TJgyj" id="3HUbvRI1m8e" role="1TKVEi">
      <property role="IQ2ns" value="4285788564039754254" />
      <property role="20lmBu" value="fLJjDmT/aggregation" />
      <property role="20kJfa" value="functionDecl" />
      <property role="20lbJX" value="fLJekj5/_0__n" />
      <ref role="20lvS9" node="3HUbvRI1m8i" resolve="FunctionDeclaration" />
    </node>
  </node>
  <node concept="1TIwiD" id="3HUbvRI1m8i">
    <property role="EcuMT" value="4285788564039754258" />
    <property role="TrG5h" value="FunctionDeclaration" />
    <ref role="1TJDcQ" to="tpck:gw2VY9q" resolve="BaseConcept" />
    <node concept="1TJgyj" id="7WW5lvrkVt9" role="1TKVEi">
      <property role="IQ2ns" value="9168226408505521993" />
      <property role="20lmBu" value="fLJjDmT/aggregation" />
      <property role="20kJfa" value="type" />
      <property role="20lbJX" value="fLJekj4/_1" />
      <ref role="20lvS9" node="4GqpnF4ZCb3" resolve="Type" />
    </node>
    <node concept="1TJgyj" id="3HUbvRI1ma7" role="1TKVEi">
      <property role="IQ2ns" value="4285788564039754375" />
      <property role="20lmBu" value="fLJjDmT/aggregation" />
      <property role="20kJfa" value="block" />
      <property role="20lbJX" value="fLJekj4/_1" />
      <ref role="20lvS9" node="3HUbvRI1mae" resolve="Block" />
    </node>
    <node concept="1TJgyj" id="3HUbvRI1ma2" role="1TKVEi">
      <property role="IQ2ns" value="4285788564039754370" />
      <property role="20lmBu" value="fLJjDmT/aggregation" />
      <property role="20kJfa" value="param" />
      <property role="20lbJX" value="fLJekj5/_0__n" />
      <ref role="20lvS9" node="3HUbvRI1mab" resolve="Param" />
    </node>
    <node concept="PrWs8" id="5_4HghpbMGg" role="PzmwI">
      <ref role="PrY4T" to="tpck:h0TrEE$" resolve="INamedConcept" />
    </node>
    <node concept="PrWs8" id="7WW5lvrkSSa" role="PzmwI">
      <ref role="PrY4T" to="tpck:hYa1RjM" resolve="IType" />
    </node>
  </node>
  <node concept="1TIwiD" id="3HUbvRI1mab">
    <property role="EcuMT" value="4285788564039754379" />
    <property role="TrG5h" value="Param" />
    <ref role="1TJDcQ" to="tpck:gw2VY9q" resolve="BaseConcept" />
    <node concept="1TJgyj" id="4GqpnF51qrv" role="1TKVEi">
      <property role="IQ2ns" value="5411749480204969695" />
      <property role="20lmBu" value="fLJjDmT/aggregation" />
      <property role="20kJfa" value="IdDeclaration" />
      <property role="20lbJX" value="fLJekj4/_1" />
      <ref role="20lvS9" node="3HUbvRI1mah" resolve="IdDeclaration" />
    </node>
  </node>
  <node concept="1TIwiD" id="3HUbvRI1mae">
    <property role="EcuMT" value="4285788564039754382" />
    <property role="TrG5h" value="Block" />
    <ref role="1TJDcQ" to="tpck:gw2VY9q" resolve="BaseConcept" />
    <node concept="1TJgyj" id="3HUbvRI1maf" role="1TKVEi">
      <property role="IQ2ns" value="4285788564039754383" />
      <property role="20lmBu" value="fLJjDmT/aggregation" />
      <property role="20kJfa" value="statementList" />
      <property role="20lbJX" value="fLJekj5/_0__n" />
      <ref role="20lvS9" node="5_4Hghpbtfh" resolve="Statement" />
    </node>
  </node>
  <node concept="1TIwiD" id="3HUbvRI1mah">
    <property role="EcuMT" value="4285788564039754385" />
    <property role="TrG5h" value="IdDeclaration" />
    <ref role="1TJDcQ" node="5_4Hghpbtfh" resolve="Statement" />
    <node concept="PrWs8" id="5_4HghpbJcm" role="PzmwI">
      <ref role="PrY4T" to="tpck:h0TrEE$" resolve="INamedConcept" />
    </node>
    <node concept="PrWs8" id="7WW5lvrkMTS" role="PzmwI">
      <ref role="PrY4T" to="tpck:hYa1RjM" resolve="IType" />
    </node>
    <node concept="1TJgyj" id="7WW5lvrkO92" role="1TKVEi">
      <property role="IQ2ns" value="9168226408505492034" />
      <property role="20lmBu" value="fLJjDmT/aggregation" />
      <property role="20kJfa" value="type" />
      <property role="20lbJX" value="fLJekj4/_1" />
      <ref role="20lvS9" node="4GqpnF4ZCb3" resolve="Type" />
    </node>
  </node>
  <node concept="1TIwiD" id="3HUbvRI1mar">
    <property role="EcuMT" value="4285788564039754395" />
    <property role="TrG5h" value="Assignment" />
    <ref role="1TJDcQ" node="5_4Hghpbtfh" resolve="Statement" />
    <node concept="1TJgyj" id="3HUbvRI1maT" role="1TKVEi">
      <property role="IQ2ns" value="4285788564039754425" />
      <property role="20lmBu" value="fLJjDmT/aggregation" />
      <property role="20kJfa" value="Expression" />
      <property role="20lbJX" value="fLJekj4/_1" />
      <ref role="20lvS9" node="5_4Hghpbtfi" resolve="Expression" />
    </node>
    <node concept="1TJgyj" id="3HUbvRI1maR" role="1TKVEi">
      <property role="IQ2ns" value="4285788564039754423" />
      <property role="20lmBu" value="fLJjDmT/aggregation" />
      <property role="20kJfa" value="IdUse" />
      <property role="20lbJX" value="fLJekj4/_1" />
      <ref role="20lvS9" node="3HUbvRI1maW" resolve="IdUse" />
    </node>
  </node>
  <node concept="1TIwiD" id="3HUbvRI1mat">
    <property role="EcuMT" value="4285788564039754397" />
    <property role="TrG5h" value="Numeral" />
    <ref role="1TJDcQ" node="5_4Hghpbtfi" resolve="Expression" />
    <node concept="1TJgyi" id="3HUbvRI1maw" role="1TKVEl">
      <property role="IQ2nx" value="4285788564039754400" />
      <property role="TrG5h" value="Numeral" />
      <ref role="AX2Wp" to="tpck:fKAQMTA" resolve="integer" />
    </node>
  </node>
  <node concept="1TIwiD" id="3HUbvRI1maW">
    <property role="EcuMT" value="4285788564039754428" />
    <property role="TrG5h" value="IdUse" />
    <ref role="1TJDcQ" node="5_4Hghpbtfi" resolve="Expression" />
    <node concept="1TJgyj" id="5_4HghpbYa2" role="1TKVEi">
      <property role="IQ2ns" value="6432465198072717954" />
      <property role="20kJfa" value="decl" />
      <property role="20lbJX" value="fLJekj4/_1" />
      <ref role="20lvS9" node="3HUbvRI1mah" resolve="IdDeclaration" />
    </node>
  </node>
  <node concept="1TIwiD" id="5_4Hghpbtfh">
    <property role="EcuMT" value="6432465198072583121" />
    <property role="TrG5h" value="Statement" />
    <property role="R5$K7" value="true" />
    <ref role="1TJDcQ" to="tpck:gw2VY9q" resolve="BaseConcept" />
  </node>
  <node concept="1TIwiD" id="5_4Hghpbtfi">
    <property role="EcuMT" value="6432465198072583122" />
    <property role="TrG5h" value="Expression" />
    <property role="R5$K7" value="true" />
    <ref role="1TJDcQ" to="tpck:gw2VY9q" resolve="BaseConcept" />
    <node concept="PrWs8" id="7WW5lvrkQ8u" role="PzmwI">
      <ref role="PrY4T" to="tpck:hYa1RjM" resolve="IType" />
    </node>
  </node>
  <node concept="1TIwiD" id="4GqpnF4ZCb3">
    <property role="EcuMT" value="5411749480204501699" />
    <property role="TrG5h" value="Type" />
    <property role="R5$K7" value="true" />
    <ref role="1TJDcQ" to="tpck:gw2VY9q" resolve="BaseConcept" />
    <node concept="PrWs8" id="7WW5lvrkOB6" role="PzmwI">
      <ref role="PrY4T" to="tpck:hYa1RjM" resolve="IType" />
    </node>
  </node>
  <node concept="1TIwiD" id="6DFGZWTxqr8">
    <property role="EcuMT" value="7668420699291494088" />
    <property role="TrG5h" value="FunctionCallStatement" />
    <ref role="1TJDcQ" node="5_4Hghpbtfh" resolve="Statement" />
    <node concept="1TJgyj" id="6DFGZWTxqr9" role="1TKVEi">
      <property role="IQ2ns" value="7668420699291494089" />
      <property role="20lmBu" value="fLJjDmT/aggregation" />
      <property role="20kJfa" value="FunctionCallExpression" />
      <property role="20lbJX" value="fLJekj4/_1" />
      <ref role="20lvS9" node="6DFGZWTxqrI" resolve="FunctionCallExpression" />
    </node>
  </node>
  <node concept="1TIwiD" id="6DFGZWTxqrb">
    <property role="EcuMT" value="7668420699291494091" />
    <property role="TrG5h" value="IdDeclarationAssignement" />
    <ref role="1TJDcQ" node="5_4Hghpbtfh" resolve="Statement" />
    <node concept="1TJgyj" id="6DFGZWTxqrc" role="1TKVEi">
      <property role="IQ2ns" value="7668420699291494092" />
      <property role="20lmBu" value="fLJjDmT/aggregation" />
      <property role="20kJfa" value="IdDeclaration" />
      <property role="20lbJX" value="fLJekj4/_1" />
      <ref role="20lvS9" node="3HUbvRI1mah" resolve="IdDeclaration" />
    </node>
    <node concept="1TJgyj" id="6DFGZWTxqrg" role="1TKVEi">
      <property role="IQ2ns" value="7668420699291494096" />
      <property role="20lmBu" value="fLJjDmT/aggregation" />
      <property role="20kJfa" value="Expression" />
      <property role="20lbJX" value="fLJekj4/_1" />
      <ref role="20lvS9" node="5_4Hghpbtfi" resolve="Expression" />
    </node>
  </node>
  <node concept="1TIwiD" id="6DFGZWTxqrj">
    <property role="EcuMT" value="7668420699291494099" />
    <property role="TrG5h" value="IfStatement" />
    <property role="34LRSv" value="if" />
    <ref role="1TJDcQ" node="5_4Hghpbtfh" resolve="Statement" />
    <node concept="1TJgyj" id="6DFGZWTxqrk" role="1TKVEi">
      <property role="IQ2ns" value="7668420699291494100" />
      <property role="20lmBu" value="fLJjDmT/aggregation" />
      <property role="20kJfa" value="Condition" />
      <property role="20lbJX" value="fLJekj4/_1" />
      <ref role="20lvS9" node="5_4Hghpbtfi" resolve="Expression" />
    </node>
    <node concept="1TJgyj" id="6DFGZWTxqrm" role="1TKVEi">
      <property role="IQ2ns" value="7668420699291494102" />
      <property role="20lmBu" value="fLJjDmT/aggregation" />
      <property role="20kJfa" value="Block" />
      <property role="20lbJX" value="fLJekj4/_1" />
      <ref role="20lvS9" node="3HUbvRI1mae" resolve="Block" />
    </node>
    <node concept="1TJgyj" id="6DFGZWTxqrp" role="1TKVEi">
      <property role="IQ2ns" value="7668420699291494105" />
      <property role="20lmBu" value="fLJjDmT/aggregation" />
      <property role="20kJfa" value="ElseStatement" />
      <property role="20lbJX" value="fLJekj4/_1" />
      <ref role="20lvS9" node="6DFGZWTxqrt" resolve="ElseStatement" />
    </node>
  </node>
  <node concept="1TIwiD" id="6DFGZWTxqrt">
    <property role="EcuMT" value="7668420699291494109" />
    <property role="TrG5h" value="ElseStatement" />
    <ref role="1TJDcQ" node="5_4Hghpbtfh" resolve="Statement" />
    <node concept="1TJgyj" id="6DFGZWTxqrw" role="1TKVEi">
      <property role="IQ2ns" value="7668420699291494112" />
      <property role="20lmBu" value="fLJjDmT/aggregation" />
      <property role="20kJfa" value="Block" />
      <property role="20lbJX" value="fLJekj4/_1" />
      <ref role="20lvS9" node="3HUbvRI1mae" resolve="Block" />
    </node>
  </node>
  <node concept="1TIwiD" id="6DFGZWTxqry">
    <property role="EcuMT" value="7668420699291494114" />
    <property role="TrG5h" value="WhileStatement" />
    <property role="34LRSv" value="while" />
    <ref role="1TJDcQ" node="5_4Hghpbtfh" resolve="Statement" />
    <node concept="1TJgyj" id="6DFGZWTxqrz" role="1TKVEi">
      <property role="IQ2ns" value="7668420699291494115" />
      <property role="20lmBu" value="fLJjDmT/aggregation" />
      <property role="20kJfa" value="Condition" />
      <property role="20lbJX" value="fLJekj4/_1" />
      <ref role="20lvS9" node="5_4Hghpbtfi" resolve="Expression" />
    </node>
    <node concept="1TJgyj" id="6DFGZWTxqr_" role="1TKVEi">
      <property role="IQ2ns" value="7668420699291494117" />
      <property role="20lmBu" value="fLJjDmT/aggregation" />
      <property role="20kJfa" value="Block" />
      <property role="20lbJX" value="fLJekj4/_1" />
      <ref role="20lvS9" node="3HUbvRI1mae" resolve="Block" />
    </node>
  </node>
  <node concept="1TIwiD" id="6DFGZWTxqrC">
    <property role="EcuMT" value="7668420699291494120" />
    <property role="TrG5h" value="ReturnStatement" />
    <property role="34LRSv" value="return" />
    <ref role="1TJDcQ" node="5_4Hghpbtfh" resolve="Statement" />
    <node concept="1TJgyj" id="6DFGZWTxqrD" role="1TKVEi">
      <property role="IQ2ns" value="7668420699291494121" />
      <property role="20lmBu" value="fLJjDmT/aggregation" />
      <property role="20kJfa" value="Expression" />
      <ref role="20lvS9" node="5_4Hghpbtfi" resolve="Expression" />
    </node>
  </node>
  <node concept="1TIwiD" id="6DFGZWTxqrF">
    <property role="EcuMT" value="7668420699291494123" />
    <property role="TrG5h" value="BooleanLitteral" />
    <ref role="1TJDcQ" node="5_4Hghpbtfi" resolve="Expression" />
    <node concept="1TJgyi" id="6DFGZWTxqrG" role="1TKVEl">
      <property role="IQ2nx" value="7668420699291494124" />
      <property role="TrG5h" value="Value" />
      <ref role="AX2Wp" to="tpck:fKAQMTB" resolve="boolean" />
    </node>
  </node>
  <node concept="1TIwiD" id="6DFGZWTxqrI">
    <property role="EcuMT" value="7668420699291494126" />
    <property role="TrG5h" value="FunctionCallExpression" />
    <ref role="1TJDcQ" node="5_4Hghpbtfi" resolve="Expression" />
    <node concept="1TJgyj" id="5E$wc$r7kID" role="1TKVEi">
      <property role="IQ2ns" value="6531486960825748393" />
      <property role="20kJfa" value="FunctionDeclaration" />
      <property role="20lbJX" value="fLJekj4/_1" />
      <ref role="20lvS9" node="3HUbvRI1m8i" resolve="FunctionDeclaration" />
    </node>
    <node concept="1TJgyj" id="6DFGZWTxqrP" role="1TKVEi">
      <property role="IQ2ns" value="7668420699291494133" />
      <property role="20lmBu" value="fLJjDmT/aggregation" />
      <property role="20kJfa" value="FunctionArgument" />
      <property role="20lbJX" value="fLJekj5/_0__n" />
      <ref role="20lvS9" node="6DFGZWTxqrS" resolve="FunctionArgument" />
    </node>
  </node>
  <node concept="1TIwiD" id="6DFGZWTxqrS">
    <property role="EcuMT" value="7668420699291494136" />
    <property role="TrG5h" value="FunctionArgument" />
    <ref role="1TJDcQ" node="5_4Hghpbtfi" resolve="Expression" />
    <node concept="1TJgyj" id="2fqow7wiScq" role="1TKVEi">
      <property role="IQ2ns" value="2583485096447935258" />
      <property role="20lmBu" value="fLJjDmT/aggregation" />
      <property role="20kJfa" value="Expression" />
      <property role="20lbJX" value="fLJekj4/_1" />
      <ref role="20lvS9" node="5_4Hghpbtfi" resolve="Expression" />
    </node>
  </node>
  <node concept="1TIwiD" id="6DFGZWTxqrT">
    <property role="EcuMT" value="7668420699291494137" />
    <property role="TrG5h" value="UnaryExpression" />
    <ref role="1TJDcQ" node="5_4Hghpbtfi" resolve="Expression" />
    <node concept="1TJgyj" id="6DFGZWTxqrU" role="1TKVEi">
      <property role="IQ2ns" value="7668420699291494138" />
      <property role="20lmBu" value="fLJjDmT/aggregation" />
      <property role="20kJfa" value="Operand" />
      <property role="20lbJX" value="fLJekj4/_1" />
      <ref role="20lvS9" node="5_4Hghpbtfi" resolve="Expression" />
    </node>
  </node>
  <node concept="1TIwiD" id="6DFGZWTxqrW">
    <property role="EcuMT" value="7668420699291494140" />
    <property role="TrG5h" value="Negation" />
    <property role="34LRSv" value="!" />
    <ref role="1TJDcQ" node="6DFGZWTxqrT" resolve="UnaryExpression" />
  </node>
  <node concept="1TIwiD" id="6DFGZWTxqrX">
    <property role="EcuMT" value="7668420699291494141" />
    <property role="TrG5h" value="BinaryEpression" />
    <ref role="1TJDcQ" node="5_4Hghpbtfi" resolve="Expression" />
    <node concept="1TJgyj" id="6DFGZWTxqrY" role="1TKVEi">
      <property role="IQ2ns" value="7668420699291494142" />
      <property role="20lmBu" value="fLJjDmT/aggregation" />
      <property role="20kJfa" value="Left" />
      <property role="20lbJX" value="fLJekj4/_1" />
      <ref role="20lvS9" node="5_4Hghpbtfi" resolve="Expression" />
    </node>
    <node concept="1TJgyj" id="6DFGZWTxqs0" role="1TKVEi">
      <property role="IQ2ns" value="7668420699291494144" />
      <property role="20lmBu" value="fLJjDmT/aggregation" />
      <property role="20kJfa" value="Right" />
      <property role="20lbJX" value="fLJekj4/_1" />
      <ref role="20lvS9" node="5_4Hghpbtfi" resolve="Expression" />
    </node>
  </node>
  <node concept="1TIwiD" id="6DFGZWTxqs3">
    <property role="EcuMT" value="7668420699291494147" />
    <property role="TrG5h" value="Multiplication" />
    <property role="34LRSv" value="*" />
    <ref role="1TJDcQ" node="6DFGZWTxqrX" resolve="BinaryEpression" />
  </node>
  <node concept="1TIwiD" id="6DFGZWTxqs4">
    <property role="EcuMT" value="7668420699291494148" />
    <property role="TrG5h" value="Division" />
    <property role="34LRSv" value="/" />
    <ref role="1TJDcQ" node="6DFGZWTxqrX" resolve="BinaryEpression" />
  </node>
  <node concept="1TIwiD" id="6DFGZWTxqs5">
    <property role="EcuMT" value="7668420699291494149" />
    <property role="TrG5h" value="Modulo" />
    <property role="34LRSv" value="%" />
    <ref role="1TJDcQ" node="6DFGZWTxqrX" resolve="BinaryEpression" />
  </node>
  <node concept="1TIwiD" id="6DFGZWTxqs6">
    <property role="EcuMT" value="7668420699291494150" />
    <property role="TrG5h" value="Addition" />
    <property role="34LRSv" value="+" />
    <ref role="1TJDcQ" node="6DFGZWTxqrX" resolve="BinaryEpression" />
  </node>
  <node concept="1TIwiD" id="6DFGZWTxqs7">
    <property role="EcuMT" value="7668420699291494151" />
    <property role="TrG5h" value="Substraction" />
    <property role="34LRSv" value="-" />
    <ref role="1TJDcQ" node="6DFGZWTxqrX" resolve="BinaryEpression" />
  </node>
  <node concept="1TIwiD" id="6DFGZWTxqs8">
    <property role="EcuMT" value="7668420699291494152" />
    <property role="TrG5h" value="Equal" />
    <property role="34LRSv" value="==" />
    <ref role="1TJDcQ" node="6DFGZWTxqrX" resolve="BinaryEpression" />
  </node>
  <node concept="1TIwiD" id="6DFGZWTxqs9">
    <property role="EcuMT" value="7668420699291494153" />
    <property role="TrG5h" value="NotEqual" />
    <property role="34LRSv" value="!=" />
    <ref role="1TJDcQ" node="6DFGZWTxqrX" resolve="BinaryEpression" />
  </node>
  <node concept="1TIwiD" id="6DFGZWTxqsa">
    <property role="EcuMT" value="7668420699291494154" />
    <property role="TrG5h" value="GreaterEqual" />
    <property role="34LRSv" value="&gt;=" />
    <ref role="1TJDcQ" node="6DFGZWTxqrX" resolve="BinaryEpression" />
  </node>
  <node concept="1TIwiD" id="6DFGZWTxqsb">
    <property role="EcuMT" value="7668420699291494155" />
    <property role="TrG5h" value="LessEqual" />
    <property role="34LRSv" value="&lt;=" />
    <ref role="1TJDcQ" node="6DFGZWTxqrX" resolve="BinaryEpression" />
  </node>
  <node concept="1TIwiD" id="6DFGZWTxqsc">
    <property role="EcuMT" value="7668420699291494156" />
    <property role="TrG5h" value="Greater" />
    <property role="34LRSv" value="&gt;" />
    <ref role="1TJDcQ" node="6DFGZWTxqrX" resolve="BinaryEpression" />
  </node>
  <node concept="1TIwiD" id="6DFGZWTxqsd">
    <property role="EcuMT" value="7668420699291494157" />
    <property role="TrG5h" value="Less" />
    <property role="34LRSv" value="&lt;" />
    <ref role="1TJDcQ" node="6DFGZWTxqrX" resolve="BinaryEpression" />
  </node>
  <node concept="1TIwiD" id="5E$wc$r6rhe">
    <property role="EcuMT" value="6531486960825513038" />
    <property role="TrG5h" value="EmptyStatement" />
    <ref role="1TJDcQ" node="5_4Hghpbtfh" resolve="Statement" />
  </node>
  <node concept="1TIwiD" id="7WW5lvrjcKp">
    <property role="EcuMT" value="9168226408505068569" />
    <property role="TrG5h" value="EmptyExpression" />
    <ref role="1TJDcQ" node="5_4Hghpbtfi" resolve="Expression" />
  </node>
  <node concept="1TIwiD" id="7WW5lvrjeWF">
    <property role="EcuMT" value="9168226408505077547" />
    <property role="TrG5h" value="CommentStatement" />
    <property role="34LRSv" value="#" />
    <ref role="1TJDcQ" node="5_4Hghpbtfh" resolve="Statement" />
    <node concept="1TJgyi" id="7WW5lvrjzcn" role="1TKVEl">
      <property role="IQ2nx" value="9168226408505160471" />
      <property role="TrG5h" value="text" />
      <ref role="AX2Wp" to="tpck:fKAOsGN" resolve="string" />
    </node>
  </node>
  <node concept="1TIwiD" id="7WW5lvrkO5E">
    <property role="EcuMT" value="9168226408505491818" />
    <property role="TrG5h" value="VoidType" />
    <property role="34LRSv" value="void" />
    <ref role="1TJDcQ" node="4GqpnF4ZCb3" resolve="Type" />
  </node>
  <node concept="1TIwiD" id="7WW5lvrkO5F">
    <property role="EcuMT" value="9168226408505491819" />
    <property role="TrG5h" value="IntType" />
    <property role="34LRSv" value="int" />
    <ref role="1TJDcQ" node="4GqpnF4ZCb3" resolve="Type" />
  </node>
  <node concept="1TIwiD" id="7WW5lvrkO5G">
    <property role="EcuMT" value="9168226408505491820" />
    <property role="TrG5h" value="BoolType" />
    <property role="34LRSv" value="bool" />
    <ref role="1TJDcQ" node="4GqpnF4ZCb3" resolve="Type" />
  </node>
  <node concept="1TIwiD" id="5IKEDF0igbB">
    <property role="EcuMT" value="6606968234980213479" />
    <property role="TrG5h" value="BuiltInPrint" />
    <ref role="1TJDcQ" node="3HUbvRI1m8i" resolve="FunctionDeclaration" />
  </node>
</model>

