<?xml version="1.0" encoding="UTF-8"?>
<model ref="r:9073c0bf-a652-442a-bd68-0fcbc3986055(SimpliC.editor)">
  <persistence version="9" />
  <languages>
    <use id="18bc6592-03a6-4e29-a83a-7ff23bde13ba" name="jetbrains.mps.lang.editor" version="13" />
    <devkit ref="fbc25dd2-5da4-483a-8b19-70928e1b62d7(jetbrains.mps.devkit.general-purpose)" />
  </languages>
  <imports>
    <import index="417" ref="r:c812ec5f-d6df-4351-b111-e327e3950242(SimpliC.structure)" implicit="true" />
    <import index="tpck" ref="r:00000000-0000-4000-0000-011c89590288(jetbrains.mps.lang.core.structure)" implicit="true" />
    <import index="wyt6" ref="6354ebe7-c22a-4a0f-ac54-50b52ab9b065/java:java.lang(JDK/)" implicit="true" />
    <import index="gxzi" ref="r:55f30ab6-1596-4f0d-bea8-ca434810daf6(SimpliC.behavior)" implicit="true" />
    <import index="tpco" ref="r:00000000-0000-4000-0000-011c89590284(jetbrains.mps.lang.core.editor)" implicit="true" />
  </imports>
  <registry>
    <language id="18bc6592-03a6-4e29-a83a-7ff23bde13ba" name="jetbrains.mps.lang.editor">
      <concept id="1071666914219" name="jetbrains.mps.lang.editor.structure.ConceptEditorDeclaration" flags="ig" index="24kQdi" />
      <concept id="1176897764478" name="jetbrains.mps.lang.editor.structure.QueryFunction_NodeFactory" flags="in" index="4$FPG" />
      <concept id="1140524381322" name="jetbrains.mps.lang.editor.structure.CellModel_ListWithRole" flags="ng" index="2czfm3">
        <property id="1140524450557" name="separatorText" index="2czwfO" />
        <child id="1176897874615" name="nodeFactory" index="4_6I_" />
        <child id="1140524464360" name="cellLayout" index="2czzBx" />
        <child id="1140524464359" name="emptyCellModel" index="2czzBI" />
      </concept>
      <concept id="1106270549637" name="jetbrains.mps.lang.editor.structure.CellLayout_Horizontal" flags="nn" index="2iRfu4" />
      <concept id="1106270571710" name="jetbrains.mps.lang.editor.structure.CellLayout_Vertical" flags="nn" index="2iRkQZ" />
      <concept id="1237303669825" name="jetbrains.mps.lang.editor.structure.CellLayout_Indent" flags="nn" index="l2Vlx" />
      <concept id="1237307900041" name="jetbrains.mps.lang.editor.structure.IndentLayoutIndentStyleClassItem" flags="ln" index="lj46D" />
      <concept id="1237308012275" name="jetbrains.mps.lang.editor.structure.IndentLayoutNewLineStyleClassItem" flags="ln" index="ljvvj" />
      <concept id="1237375020029" name="jetbrains.mps.lang.editor.structure.IndentLayoutNewLineChildrenStyleClassItem" flags="ln" index="pj6Ft" />
      <concept id="1142886221719" name="jetbrains.mps.lang.editor.structure.QueryFunction_NodeCondition" flags="in" index="pkWqt" />
      <concept id="1142886811589" name="jetbrains.mps.lang.editor.structure.ConceptFunctionParameter_node" flags="nn" index="pncrf" />
      <concept id="1237385578942" name="jetbrains.mps.lang.editor.structure.IndentLayoutOnNewLineStyleClassItem" flags="ln" index="pVoyu" />
      <concept id="1080736578640" name="jetbrains.mps.lang.editor.structure.BaseEditorComponent" flags="ig" index="2wURMF">
        <child id="1080736633877" name="cellModel" index="2wV5jI" />
      </concept>
      <concept id="1164824717996" name="jetbrains.mps.lang.editor.structure.CellMenuDescriptor" flags="ng" index="OXEIz">
        <child id="1164824815888" name="cellMenuPart" index="OY2wv" />
      </concept>
      <concept id="1078939183254" name="jetbrains.mps.lang.editor.structure.CellModel_Component" flags="sg" stub="3162947552742194261" index="PMmxH">
        <reference id="1078939183255" name="editorComponent" index="PMmxG" />
      </concept>
      <concept id="1164914519156" name="jetbrains.mps.lang.editor.structure.CellMenuPart_ReplaceNode_CustomNodeConcept" flags="ng" index="UkePV">
        <reference id="1164914727930" name="replacementConcept" index="Ul1FP" />
      </concept>
      <concept id="1186403751766" name="jetbrains.mps.lang.editor.structure.FontStyleStyleClassItem" flags="ln" index="Vb9p2">
        <property id="1186403771423" name="style" index="Vbekb" />
      </concept>
      <concept id="1186414536763" name="jetbrains.mps.lang.editor.structure.BooleanStyleSheetItem" flags="ln" index="VOi$J">
        <property id="1186414551515" name="flag" index="VOm3f" />
      </concept>
      <concept id="1186414860679" name="jetbrains.mps.lang.editor.structure.EditableStyleClassItem" flags="ln" index="VPxyj" />
      <concept id="1186414928363" name="jetbrains.mps.lang.editor.structure.SelectableStyleSheetItem" flags="ln" index="VPM3Z" />
      <concept id="1088013125922" name="jetbrains.mps.lang.editor.structure.CellModel_RefCell" flags="sg" stub="730538219795941030" index="1iCGBv">
        <child id="1088186146602" name="editorComponent" index="1sWHZn" />
      </concept>
      <concept id="1236262245656" name="jetbrains.mps.lang.editor.structure.MatchingLabelStyleClassItem" flags="ln" index="3mYdg7">
        <property id="1238091709220" name="labelName" index="1413C4" />
      </concept>
      <concept id="1088185857835" name="jetbrains.mps.lang.editor.structure.InlineEditorComponent" flags="ig" index="1sVBvm" />
      <concept id="1139848536355" name="jetbrains.mps.lang.editor.structure.CellModel_WithRole" flags="ng" index="1$h60E">
        <property id="1139852716018" name="noTargetText" index="1$x2rV" />
        <property id="1140017977771" name="readOnly" index="1Intyy" />
        <reference id="1140103550593" name="relationDeclaration" index="1NtTu8" />
      </concept>
      <concept id="1073389214265" name="jetbrains.mps.lang.editor.structure.EditorCellModel" flags="ng" index="3EYTF0">
        <child id="1142887637401" name="renderingCondition" index="pqm2j" />
        <child id="1164826688380" name="menuDescriptor" index="P5bDN" />
      </concept>
      <concept id="1073389446423" name="jetbrains.mps.lang.editor.structure.CellModel_Collection" flags="sn" stub="3013115976261988961" index="3EZMnI">
        <child id="1106270802874" name="cellLayout" index="2iSdaV" />
        <child id="1073389446424" name="childCellModel" index="3EZMnx" />
      </concept>
      <concept id="1073389577006" name="jetbrains.mps.lang.editor.structure.CellModel_Constant" flags="sn" stub="3610246225209162225" index="3F0ifn">
        <property id="1073389577007" name="text" index="3F0ifm" />
      </concept>
      <concept id="1073389658414" name="jetbrains.mps.lang.editor.structure.CellModel_Property" flags="sg" stub="730538219796134133" index="3F0A7n" />
      <concept id="1219418625346" name="jetbrains.mps.lang.editor.structure.IStyleContainer" flags="ng" index="3F0Thp">
        <child id="1219418656006" name="styleItem" index="3F10Kt" />
      </concept>
      <concept id="1073389882823" name="jetbrains.mps.lang.editor.structure.CellModel_RefNode" flags="sg" stub="730538219795960754" index="3F1sOY" />
      <concept id="1073390211982" name="jetbrains.mps.lang.editor.structure.CellModel_RefNodeList" flags="sg" stub="2794558372793454595" index="3F2HdR" />
      <concept id="1166049232041" name="jetbrains.mps.lang.editor.structure.AbstractComponent" flags="ng" index="1XWOmA">
        <reference id="1166049300910" name="conceptDeclaration" index="1XX52x" />
      </concept>
    </language>
    <language id="f3061a53-9226-4cc5-a443-f952ceaf5816" name="jetbrains.mps.baseLanguage">
      <concept id="1202948039474" name="jetbrains.mps.baseLanguage.structure.InstanceMethodCallOperation" flags="nn" index="liA8E" />
      <concept id="1197027756228" name="jetbrains.mps.baseLanguage.structure.DotExpression" flags="nn" index="2OqwBi">
        <child id="1197027771414" name="operand" index="2Oq$k0" />
        <child id="1197027833540" name="operation" index="2OqNvi" />
      </concept>
      <concept id="1145552977093" name="jetbrains.mps.baseLanguage.structure.GenericNewExpression" flags="nn" index="2ShNRf">
        <child id="1145553007750" name="creator" index="2ShVmc" />
      </concept>
      <concept id="1137021947720" name="jetbrains.mps.baseLanguage.structure.ConceptFunction" flags="in" index="2VMwT0">
        <child id="1137022507850" name="body" index="2VODD2" />
      </concept>
      <concept id="1070475926800" name="jetbrains.mps.baseLanguage.structure.StringLiteral" flags="nn" index="Xl_RD">
        <property id="1070475926801" name="value" index="Xl_RC" />
      </concept>
      <concept id="1068580123155" name="jetbrains.mps.baseLanguage.structure.ExpressionStatement" flags="nn" index="3clFbF">
        <child id="1068580123156" name="expression" index="3clFbG" />
      </concept>
      <concept id="1068580123136" name="jetbrains.mps.baseLanguage.structure.StatementList" flags="sn" stub="5293379017992965193" index="3clFbS">
        <child id="1068581517665" name="statement" index="3cqZAp" />
      </concept>
      <concept id="1081516740877" name="jetbrains.mps.baseLanguage.structure.NotExpression" flags="nn" index="3fqX7Q">
        <child id="1081516765348" name="expression" index="3fr31v" />
      </concept>
      <concept id="1204053956946" name="jetbrains.mps.baseLanguage.structure.IMethodCall" flags="ng" index="1ndlxa">
        <reference id="1068499141037" name="baseMethodDeclaration" index="37wK5l" />
        <child id="1068499141038" name="actualArgument" index="37wK5m" />
      </concept>
      <concept id="1081773326031" name="jetbrains.mps.baseLanguage.structure.BinaryOperation" flags="nn" index="3uHJSO">
        <child id="1081773367579" name="rightExpression" index="3uHU7w" />
        <child id="1081773367580" name="leftExpression" index="3uHU7B" />
      </concept>
      <concept id="1080120340718" name="jetbrains.mps.baseLanguage.structure.AndExpression" flags="nn" index="1Wc70l" />
    </language>
    <language id="7866978e-a0f0-4cc7-81bc-4d213d9375e1" name="jetbrains.mps.lang.smodel">
      <concept id="1177026924588" name="jetbrains.mps.lang.smodel.structure.RefConcept_Reference" flags="nn" index="chp4Y">
        <reference id="1177026940964" name="conceptDeclaration" index="cht4Q" />
      </concept>
      <concept id="1179409122411" name="jetbrains.mps.lang.smodel.structure.Node_ConceptMethodCall" flags="nn" index="2qgKlT" />
      <concept id="1139613262185" name="jetbrains.mps.lang.smodel.structure.Node_GetParentOperation" flags="nn" index="1mfA1w" />
      <concept id="1139621453865" name="jetbrains.mps.lang.smodel.structure.Node_IsInstanceOfOperation" flags="nn" index="1mIQ4w">
        <child id="1177027386292" name="conceptArgument" index="cj9EA" />
      </concept>
      <concept id="1180636770613" name="jetbrains.mps.lang.smodel.structure.SNodeCreator" flags="nn" index="3zrR0B">
        <child id="1180636770616" name="createdType" index="3zrR0E" />
      </concept>
      <concept id="1138055754698" name="jetbrains.mps.lang.smodel.structure.SNodeType" flags="in" index="3Tqbb2">
        <reference id="1138405853777" name="concept" index="ehGHo" />
      </concept>
      <concept id="1138056022639" name="jetbrains.mps.lang.smodel.structure.SPropertyAccess" flags="nn" index="3TrcHB">
        <reference id="1138056395725" name="property" index="3TsBF5" />
      </concept>
      <concept id="1138056143562" name="jetbrains.mps.lang.smodel.structure.SLinkAccess" flags="nn" index="3TrEf2">
        <reference id="1138056516764" name="link" index="3Tt5mk" />
      </concept>
    </language>
  </registry>
  <node concept="24kQdi" id="5klK02NHc6v">
    <ref role="1XX52x" to="417:3HUbvRI1m89" resolve="Program" />
    <node concept="3EZMnI" id="5_4HghpbWaq" role="2wV5jI">
      <node concept="2iRkQZ" id="5_4HghpbWar" role="2iSdaV" />
      <node concept="3F2HdR" id="5_4HghpbWaO" role="3EZMnx">
        <ref role="1NtTu8" to="417:3HUbvRI1m8e" resolve="functionDecl" />
        <node concept="2iRkQZ" id="5_4HghpbWaQ" role="2czzBx" />
      </node>
    </node>
  </node>
  <node concept="24kQdi" id="5klK02NHc6L">
    <ref role="1XX52x" to="417:3HUbvRI1m8i" resolve="FunctionDeclaration" />
    <node concept="3EZMnI" id="5klK02NHc6N" role="2wV5jI">
      <node concept="3F1sOY" id="7WW5lvrkVtd" role="3EZMnx">
        <ref role="1NtTu8" to="417:7WW5lvrkVt9" resolve="type" />
      </node>
      <node concept="3F0A7n" id="4GqpnF4ZTmB" role="3EZMnx">
        <ref role="1NtTu8" to="tpck:h0TrG11" resolve="name" />
      </node>
      <node concept="3F0ifn" id="5_4HghpbPEn" role="3EZMnx">
        <property role="3F0ifm" value="(" />
      </node>
      <node concept="3F2HdR" id="5_4HghpbPEN" role="3EZMnx">
        <property role="2czwfO" value="," />
        <ref role="1NtTu8" to="417:3HUbvRI1ma2" resolve="param" />
        <node concept="2iRfu4" id="5_4HghpbPEQ" role="2czzBx" />
      </node>
      <node concept="3F0ifn" id="5klK02NHc6T" role="3EZMnx">
        <property role="3F0ifm" value=")" />
        <node concept="ljvvj" id="5klK02NHc6U" role="3F10Kt">
          <property role="VOm3f" value="true" />
        </node>
      </node>
      <node concept="l2Vlx" id="5klK02NHc6P" role="2iSdaV" />
      <node concept="3F1sOY" id="5klK02NHc9L" role="3EZMnx">
        <ref role="1NtTu8" to="417:3HUbvRI1ma7" resolve="block" />
      </node>
      <node concept="pkWqt" id="20l7azhgPHY" role="pqm2j">
        <node concept="3clFbS" id="20l7azhgPHZ" role="2VODD2">
          <node concept="3clFbF" id="20l7azhgPLV" role="3cqZAp">
            <node concept="3fqX7Q" id="20l7azhh0iK" role="3clFbG">
              <node concept="2OqwBi" id="20l7azhh0iM" role="3fr31v">
                <node concept="2OqwBi" id="20l7azhh0iN" role="2Oq$k0">
                  <node concept="pncrf" id="20l7azhh0iO" role="2Oq$k0" />
                  <node concept="3TrcHB" id="20l7azhh0iP" role="2OqNvi">
                    <ref role="3TsBF5" to="tpck:h0TrG11" resolve="name" />
                  </node>
                </node>
                <node concept="liA8E" id="20l7azhh0iQ" role="2OqNvi">
                  <ref role="37wK5l" to="wyt6:~String.equals(java.lang.Object)" resolve="equals" />
                  <node concept="Xl_RD" id="20l7azhh0iR" role="37wK5m">
                    <property role="Xl_RC" value="print" />
                  </node>
                </node>
              </node>
            </node>
          </node>
        </node>
      </node>
    </node>
  </node>
  <node concept="24kQdi" id="5klK02NHccw">
    <ref role="1XX52x" to="417:3HUbvRI1mab" resolve="Param" />
    <node concept="3F1sOY" id="4GqpnF51_hy" role="2wV5jI">
      <ref role="1NtTu8" to="417:4GqpnF51qrv" resolve="IdDeclaration" />
    </node>
  </node>
  <node concept="24kQdi" id="5klK02NHcd$">
    <ref role="1XX52x" to="417:3HUbvRI1mae" resolve="Block" />
    <node concept="3EZMnI" id="6DFGZWTyvC9" role="2wV5jI">
      <node concept="3F0ifn" id="6DFGZWTyzcm" role="3EZMnx">
        <property role="3F0ifm" value="{" />
        <node concept="3mYdg7" id="7WW5lvrjaB5" role="3F10Kt">
          <property role="1413C4" value="block" />
        </node>
      </node>
      <node concept="l2Vlx" id="6DFGZWTyvCa" role="2iSdaV" />
      <node concept="3F2HdR" id="6DFGZWTyvCo" role="3EZMnx">
        <ref role="1NtTu8" to="417:3HUbvRI1maf" resolve="statementList" />
        <node concept="l2Vlx" id="6DFGZWTyvCs" role="2czzBx" />
        <node concept="lj46D" id="6DFGZWTyvCv" role="3F10Kt">
          <property role="VOm3f" value="true" />
        </node>
        <node concept="pVoyu" id="6DFGZWTyvCx" role="3F10Kt">
          <property role="VOm3f" value="true" />
        </node>
        <node concept="pj6Ft" id="6DFGZWTyvC$" role="3F10Kt">
          <property role="VOm3f" value="true" />
        </node>
        <node concept="VPM3Z" id="7WW5lvriOcC" role="3F10Kt" />
        <node concept="4$FPG" id="7WW5lvriOcI" role="4_6I_">
          <node concept="3clFbS" id="7WW5lvriOcJ" role="2VODD2">
            <node concept="3clFbF" id="7WW5lvriOgd" role="3cqZAp">
              <node concept="2ShNRf" id="7WW5lvriOgb" role="3clFbG">
                <node concept="3zrR0B" id="7WW5lvriPuM" role="2ShVmc">
                  <node concept="3Tqbb2" id="7WW5lvriPuO" role="3zrR0E">
                    <ref role="ehGHo" to="417:5E$wc$r6rhe" resolve="EmptyStatement" />
                  </node>
                </node>
              </node>
            </node>
          </node>
        </node>
        <node concept="3F0ifn" id="7WW5lvrjcLV" role="2czzBI">
          <node concept="VPxyj" id="7WW5lvrjcLX" role="3F10Kt">
            <property role="VOm3f" value="true" />
          </node>
        </node>
      </node>
      <node concept="3F0ifn" id="6DFGZWTyzcQ" role="3EZMnx">
        <property role="3F0ifm" value="}" />
        <node concept="3mYdg7" id="7WW5lvrjaB8" role="3F10Kt">
          <property role="1413C4" value="block" />
        </node>
      </node>
    </node>
  </node>
  <node concept="24kQdi" id="5klK02NHcdG">
    <ref role="1XX52x" to="417:3HUbvRI1mah" resolve="IdDeclaration" />
    <node concept="3EZMnI" id="5klK02NHcmj" role="2wV5jI">
      <node concept="l2Vlx" id="5klK02NHcmk" role="2iSdaV" />
      <node concept="3F1sOY" id="7WW5lvrkSQj" role="3EZMnx">
        <ref role="1NtTu8" to="417:7WW5lvrkO92" resolve="type" />
      </node>
      <node concept="3F0A7n" id="5_4HghpbJCn" role="3EZMnx">
        <ref role="1NtTu8" to="tpck:h0TrG11" resolve="name" />
      </node>
      <node concept="3F0ifn" id="1RUPed91UXj" role="3EZMnx">
        <property role="3F0ifm" value=";" />
        <node concept="pkWqt" id="5KfCCErBneo" role="pqm2j">
          <node concept="3clFbS" id="5KfCCErBnep" role="2VODD2">
            <node concept="3clFbF" id="5KfCCErBpTN" role="3cqZAp">
              <node concept="1Wc70l" id="5KfCCErBMhn" role="3clFbG">
                <node concept="3fqX7Q" id="5KfCCErBpTL" role="3uHU7B">
                  <node concept="2OqwBi" id="5KfCCErBr1_" role="3fr31v">
                    <node concept="2OqwBi" id="5KfCCErBqcp" role="2Oq$k0">
                      <node concept="pncrf" id="5KfCCErBpY3" role="2Oq$k0" />
                      <node concept="1mfA1w" id="5KfCCErBqCW" role="2OqNvi" />
                    </node>
                    <node concept="1mIQ4w" id="5KfCCErBrkc" role="2OqNvi">
                      <node concept="chp4Y" id="5KfCCErBrtO" role="cj9EA">
                        <ref role="cht4Q" to="417:3HUbvRI1mab" resolve="Param" />
                      </node>
                    </node>
                  </node>
                </node>
                <node concept="3fqX7Q" id="5KfCCErB_aq" role="3uHU7w">
                  <node concept="2OqwBi" id="5KfCCErBKyV" role="3fr31v">
                    <node concept="2OqwBi" id="5KfCCErBJqD" role="2Oq$k0">
                      <node concept="pncrf" id="5KfCCErBJ9U" role="2Oq$k0" />
                      <node concept="1mfA1w" id="5KfCCErBJRL" role="2OqNvi" />
                    </node>
                    <node concept="1mIQ4w" id="5KfCCErBLSF" role="2OqNvi">
                      <node concept="chp4Y" id="5KfCCErBM8w" role="cj9EA">
                        <ref role="cht4Q" to="417:6DFGZWTxqrb" resolve="IdDeclarationAssignement" />
                      </node>
                    </node>
                  </node>
                </node>
              </node>
            </node>
          </node>
        </node>
      </node>
    </node>
  </node>
  <node concept="24kQdi" id="5klK02NHcky">
    <ref role="1XX52x" to="417:3HUbvRI1mar" resolve="Assignment" />
    <node concept="3EZMnI" id="5klK02NHclt" role="2wV5jI">
      <node concept="l2Vlx" id="5klK02NHclu" role="2iSdaV" />
      <node concept="3F1sOY" id="5klK02NHck$" role="3EZMnx">
        <ref role="1NtTu8" to="417:3HUbvRI1maR" resolve="IdUse" />
      </node>
      <node concept="3F0ifn" id="5klK02NHclA" role="3EZMnx">
        <property role="3F0ifm" value="=" />
      </node>
      <node concept="3F1sOY" id="5klK02NHcm3" role="3EZMnx">
        <ref role="1NtTu8" to="417:3HUbvRI1maT" resolve="Expression" />
      </node>
      <node concept="3F0ifn" id="5klK02NHcmd" role="3EZMnx">
        <property role="3F0ifm" value=";" />
      </node>
    </node>
  </node>
  <node concept="24kQdi" id="5klK02NHcny">
    <ref role="1XX52x" to="417:3HUbvRI1maW" resolve="IdUse" />
    <node concept="1iCGBv" id="5_4HghpbYa9" role="2wV5jI">
      <ref role="1NtTu8" to="417:5_4HghpbYa2" resolve="decl" />
      <node concept="1sVBvm" id="5_4HghpbYab" role="1sWHZn">
        <node concept="3F0A7n" id="5_4HghpbYal" role="2wV5jI">
          <property role="1Intyy" value="true" />
          <ref role="1NtTu8" to="tpck:h0TrG11" resolve="name" />
        </node>
      </node>
    </node>
  </node>
  <node concept="24kQdi" id="5klK02NHcnB">
    <ref role="1XX52x" to="417:3HUbvRI1mat" resolve="Numeral" />
    <node concept="3EZMnI" id="xWv2PNyp2I" role="2wV5jI">
      <node concept="l2Vlx" id="xWv2PNyp2J" role="2iSdaV" />
      <node concept="3F0A7n" id="4GqpnF51Di2" role="3EZMnx">
        <ref role="1NtTu8" to="417:3HUbvRI1maw" resolve="Numeral" />
      </node>
    </node>
  </node>
  <node concept="24kQdi" id="4GqpnF51HHJ">
    <ref role="1XX52x" to="417:5_4Hghpbtfi" resolve="Expression" />
    <node concept="3EZMnI" id="3MLGqyKpk1r" role="2wV5jI">
      <node concept="3F0ifn" id="3MLGqyKpk1x" role="3EZMnx">
        <node concept="VPxyj" id="xWv2PNy5do" role="3F10Kt">
          <property role="VOm3f" value="true" />
        </node>
        <node concept="OXEIz" id="xWv2PNyk5W" role="P5bDN">
          <node concept="UkePV" id="xWv2PNyk5Y" role="OY2wv">
            <ref role="Ul1FP" to="417:5_4Hghpbtfi" resolve="Expression" />
          </node>
        </node>
      </node>
      <node concept="l2Vlx" id="3MLGqyKpk1t" role="2iSdaV" />
    </node>
  </node>
  <node concept="24kQdi" id="6DFGZWTyrS2">
    <ref role="1XX52x" to="417:6DFGZWTxqrj" resolve="IfStatement" />
    <node concept="3EZMnI" id="6DFGZWTyrSi" role="2wV5jI">
      <node concept="l2Vlx" id="6DFGZWTyrSj" role="2iSdaV" />
      <node concept="3F0ifn" id="6DFGZWTyrSE" role="3EZMnx">
        <property role="3F0ifm" value="if(" />
      </node>
      <node concept="3F1sOY" id="6DFGZWTyrSy" role="3EZMnx">
        <ref role="1NtTu8" to="417:6DFGZWTxqrk" resolve="Condition" />
      </node>
      <node concept="3F0ifn" id="6DFGZWTyrT9" role="3EZMnx">
        <property role="3F0ifm" value=")" />
        <node concept="ljvvj" id="6DFGZWTyrTM" role="3F10Kt">
          <property role="VOm3f" value="true" />
        </node>
      </node>
      <node concept="3F1sOY" id="6DFGZWTyrTU" role="3EZMnx">
        <ref role="1NtTu8" to="417:6DFGZWTxqrm" resolve="Block" />
        <node concept="ljvvj" id="6DFGZWTyrWr" role="3F10Kt">
          <property role="VOm3f" value="true" />
        </node>
      </node>
      <node concept="3EZMnI" id="6DFGZWTyrWS" role="3EZMnx">
        <node concept="l2Vlx" id="6DFGZWTyrWT" role="2iSdaV" />
        <node concept="3F0ifn" id="6DFGZWTyrX8" role="3EZMnx">
          <property role="3F0ifm" value="else" />
          <node concept="ljvvj" id="6DFGZWTyrYZ" role="3F10Kt">
            <property role="VOm3f" value="true" />
          </node>
        </node>
        <node concept="3F1sOY" id="6DFGZWTyrXx" role="3EZMnx">
          <ref role="1NtTu8" to="417:6DFGZWTxqrp" resolve="ElseStatement" />
          <node concept="ljvvj" id="6DFGZWTyrYD" role="3F10Kt">
            <property role="VOm3f" value="true" />
          </node>
        </node>
        <node concept="pkWqt" id="xWv2PNxBLQ" role="pqm2j">
          <node concept="3clFbS" id="xWv2PNxBLR" role="2VODD2">
            <node concept="3clFbF" id="xWv2PNxBMg" role="3cqZAp">
              <node concept="3fqX7Q" id="20l7azhhs63" role="3clFbG">
                <node concept="2OqwBi" id="20l7azhhs65" role="3fr31v">
                  <node concept="2OqwBi" id="20l7azhhs66" role="2Oq$k0">
                    <node concept="pncrf" id="20l7azhhs67" role="2Oq$k0" />
                    <node concept="3TrEf2" id="20l7azhhs68" role="2OqNvi">
                      <ref role="3Tt5mk" to="417:6DFGZWTxqrp" resolve="ElseStatement" />
                    </node>
                  </node>
                  <node concept="2qgKlT" id="20l7azhhs69" role="2OqNvi">
                    <ref role="37wK5l" to="gxzi:20l7azhhhVV" resolve="isEmpty" />
                  </node>
                </node>
              </node>
            </node>
          </node>
        </node>
      </node>
    </node>
  </node>
  <node concept="24kQdi" id="6DFGZWTyEqh">
    <ref role="1XX52x" to="417:6DFGZWTxqrI" resolve="FunctionCallExpression" />
    <node concept="3EZMnI" id="6DFGZWTyEqj" role="2wV5jI">
      <node concept="l2Vlx" id="6DFGZWTyEqk" role="2iSdaV" />
      <node concept="1iCGBv" id="5IKEDF0iZog" role="3EZMnx">
        <ref role="1NtTu8" to="417:5E$wc$r7kID" resolve="FunctionDeclaration" />
        <node concept="1sVBvm" id="5IKEDF0iZoi" role="1sWHZn">
          <node concept="3F0A7n" id="5IKEDF0iZot" role="2wV5jI">
            <property role="1Intyy" value="true" />
            <property role="1$x2rV" value="&lt;name&gt;" />
            <ref role="1NtTu8" to="tpck:h0TrG11" resolve="name" />
          </node>
        </node>
      </node>
      <node concept="3F0ifn" id="6DFGZWTyEqv" role="3EZMnx">
        <property role="3F0ifm" value="(" />
      </node>
      <node concept="3F2HdR" id="6DFGZWTyEqB" role="3EZMnx">
        <property role="2czwfO" value="," />
        <ref role="1NtTu8" to="417:6DFGZWTxqrP" resolve="FunctionArgument" />
        <node concept="l2Vlx" id="6DFGZWTyEqD" role="2czzBx" />
      </node>
      <node concept="3F0ifn" id="6DFGZWTyEr4" role="3EZMnx">
        <property role="3F0ifm" value=")" />
      </node>
    </node>
  </node>
  <node concept="24kQdi" id="6DFGZWTyIff">
    <ref role="1XX52x" to="417:6DFGZWTxqr8" resolve="FunctionCallStatement" />
    <node concept="3EZMnI" id="5IKEDF0iKVF" role="2wV5jI">
      <node concept="l2Vlx" id="5IKEDF0iKVG" role="2iSdaV" />
      <node concept="3F1sOY" id="5IKEDF0iKVy" role="3EZMnx">
        <ref role="1NtTu8" to="417:6DFGZWTxqr9" resolve="FunctionCallExpression" />
      </node>
      <node concept="3F0ifn" id="5IKEDF0iKVO" role="3EZMnx">
        <property role="3F0ifm" value=";" />
      </node>
    </node>
  </node>
  <node concept="24kQdi" id="2fqow7wiMOs">
    <ref role="1XX52x" to="417:6DFGZWTxqrS" resolve="FunctionArgument" />
    <node concept="3F1sOY" id="1t_4tTxHhfp" role="2wV5jI">
      <ref role="1NtTu8" to="417:2fqow7wiScq" resolve="Expression" />
    </node>
  </node>
  <node concept="24kQdi" id="2fqow7wiSds">
    <ref role="1XX52x" to="417:6DFGZWTxqrC" resolve="ReturnStatement" />
    <node concept="3EZMnI" id="2fqow7wiSdu" role="2wV5jI">
      <node concept="l2Vlx" id="2fqow7wiSdv" role="2iSdaV" />
      <node concept="3F0ifn" id="2fqow7wiSdB" role="3EZMnx">
        <property role="3F0ifm" value="return" />
      </node>
      <node concept="3F1sOY" id="2fqow7wiSdJ" role="3EZMnx">
        <ref role="1NtTu8" to="417:6DFGZWTxqrD" resolve="Expression" />
      </node>
      <node concept="3F0ifn" id="1RUPed9200G" role="3EZMnx">
        <property role="3F0ifm" value=";" />
      </node>
    </node>
  </node>
  <node concept="24kQdi" id="2fqow7wiYZ7">
    <ref role="1XX52x" to="417:6DFGZWTxqry" resolve="WhileStatement" />
    <node concept="3EZMnI" id="2fqow7wiYZ9" role="2wV5jI">
      <node concept="l2Vlx" id="2fqow7wiYZa" role="2iSdaV" />
      <node concept="3F0ifn" id="2fqow7wiYZf" role="3EZMnx">
        <property role="3F0ifm" value="while(" />
      </node>
      <node concept="3F1sOY" id="2fqow7wiYZG" role="3EZMnx">
        <ref role="1NtTu8" to="417:6DFGZWTxqrz" resolve="Condition" />
      </node>
      <node concept="3F0ifn" id="2fqow7wiYZp" role="3EZMnx">
        <property role="3F0ifm" value=")" />
        <node concept="ljvvj" id="2fqow7wiYZz" role="3F10Kt">
          <property role="VOm3f" value="true" />
        </node>
      </node>
      <node concept="3F1sOY" id="2fqow7wiZ0j" role="3EZMnx">
        <ref role="1NtTu8" to="417:6DFGZWTxqr_" resolve="Block" />
        <node concept="ljvvj" id="2fqow7wiZ0D" role="3F10Kt">
          <property role="VOm3f" value="true" />
        </node>
      </node>
    </node>
  </node>
  <node concept="24kQdi" id="2fqow7wjo4z">
    <ref role="1XX52x" to="417:6DFGZWTxqs6" resolve="Addition" />
    <node concept="3EZMnI" id="xWv2PNyoXD" role="2wV5jI">
      <node concept="l2Vlx" id="xWv2PNyoXE" role="2iSdaV" />
      <node concept="3F1sOY" id="xWv2PNyoXF" role="3EZMnx">
        <ref role="1NtTu8" to="417:6DFGZWTxqrY" resolve="Left" />
      </node>
      <node concept="3F0ifn" id="xWv2PNyoXG" role="3EZMnx">
        <property role="3F0ifm" value="+" />
      </node>
      <node concept="3F1sOY" id="xWv2PNyoXH" role="3EZMnx">
        <ref role="1NtTu8" to="417:6DFGZWTxqs0" resolve="Right" />
      </node>
    </node>
  </node>
  <node concept="24kQdi" id="2fqow7wjo4H">
    <ref role="1XX52x" to="417:6DFGZWTxqrX" resolve="BinaryEpression" />
    <node concept="3EZMnI" id="2fqow7wjo4J" role="2wV5jI">
      <node concept="l2Vlx" id="2fqow7wjo4K" role="2iSdaV" />
      <node concept="3F1sOY" id="2fqow7wjo4P" role="3EZMnx">
        <ref role="1NtTu8" to="417:6DFGZWTxqrY" resolve="Left" />
      </node>
      <node concept="3F0ifn" id="2fqow7wjo4V" role="3EZMnx">
        <property role="3F0ifm" value="&lt;operator&gt;" />
      </node>
      <node concept="3F1sOY" id="2fqow7wjo53" role="3EZMnx">
        <ref role="1NtTu8" to="417:6DFGZWTxqs0" resolve="Right" />
      </node>
    </node>
  </node>
  <node concept="24kQdi" id="xWv2PNyoXV">
    <ref role="1XX52x" to="417:6DFGZWTxqs4" resolve="Division" />
    <node concept="3EZMnI" id="xWv2PNyoXX" role="2wV5jI">
      <node concept="l2Vlx" id="xWv2PNyoXY" role="2iSdaV" />
      <node concept="3F1sOY" id="xWv2PNyoXZ" role="3EZMnx">
        <ref role="1NtTu8" to="417:6DFGZWTxqrY" resolve="Left" />
      </node>
      <node concept="3F0ifn" id="xWv2PNyoY0" role="3EZMnx">
        <property role="3F0ifm" value="/" />
      </node>
      <node concept="3F1sOY" id="xWv2PNyoY1" role="3EZMnx">
        <ref role="1NtTu8" to="417:6DFGZWTxqs0" resolve="Right" />
      </node>
    </node>
  </node>
  <node concept="24kQdi" id="xWv2PNyoYf">
    <ref role="1XX52x" to="417:6DFGZWTxqs8" resolve="Equal" />
    <node concept="3EZMnI" id="xWv2PNyoYh" role="2wV5jI">
      <node concept="l2Vlx" id="xWv2PNyoYi" role="2iSdaV" />
      <node concept="3F1sOY" id="xWv2PNyoYj" role="3EZMnx">
        <ref role="1NtTu8" to="417:6DFGZWTxqrY" resolve="Left" />
      </node>
      <node concept="3F0ifn" id="xWv2PNyoYk" role="3EZMnx">
        <property role="3F0ifm" value="==" />
      </node>
      <node concept="3F1sOY" id="xWv2PNyoYl" role="3EZMnx">
        <ref role="1NtTu8" to="417:6DFGZWTxqs0" resolve="Right" />
      </node>
    </node>
  </node>
  <node concept="24kQdi" id="xWv2PNyoYz">
    <ref role="1XX52x" to="417:6DFGZWTxqsc" resolve="Greater" />
    <node concept="3EZMnI" id="xWv2PNyoY_" role="2wV5jI">
      <node concept="l2Vlx" id="xWv2PNyoYA" role="2iSdaV" />
      <node concept="3F1sOY" id="xWv2PNyoYB" role="3EZMnx">
        <ref role="1NtTu8" to="417:6DFGZWTxqrY" resolve="Left" />
      </node>
      <node concept="3F0ifn" id="xWv2PNyoYC" role="3EZMnx">
        <property role="3F0ifm" value="&gt;" />
      </node>
      <node concept="3F1sOY" id="xWv2PNyoYD" role="3EZMnx">
        <ref role="1NtTu8" to="417:6DFGZWTxqs0" resolve="Right" />
      </node>
    </node>
  </node>
  <node concept="24kQdi" id="xWv2PNyoZQ">
    <ref role="1XX52x" to="417:6DFGZWTxqsa" resolve="GreaterEqual" />
    <node concept="3EZMnI" id="xWv2PNyoZS" role="2wV5jI">
      <node concept="l2Vlx" id="xWv2PNyoZT" role="2iSdaV" />
      <node concept="3F1sOY" id="xWv2PNyoZU" role="3EZMnx">
        <ref role="1NtTu8" to="417:6DFGZWTxqrY" resolve="Left" />
      </node>
      <node concept="3F0ifn" id="xWv2PNyoZV" role="3EZMnx">
        <property role="3F0ifm" value="&gt;=" />
      </node>
      <node concept="3F1sOY" id="xWv2PNyoZW" role="3EZMnx">
        <ref role="1NtTu8" to="417:6DFGZWTxqs0" resolve="Right" />
      </node>
    </node>
  </node>
  <node concept="24kQdi" id="xWv2PNyp0d">
    <ref role="1XX52x" to="417:6DFGZWTxqsd" resolve="Less" />
    <node concept="3EZMnI" id="xWv2PNyp0f" role="2wV5jI">
      <node concept="l2Vlx" id="xWv2PNyp0g" role="2iSdaV" />
      <node concept="3F1sOY" id="xWv2PNyp0h" role="3EZMnx">
        <ref role="1NtTu8" to="417:6DFGZWTxqrY" resolve="Left" />
      </node>
      <node concept="3F0ifn" id="xWv2PNyp0i" role="3EZMnx">
        <property role="3F0ifm" value="&lt;" />
      </node>
      <node concept="3F1sOY" id="xWv2PNyp0j" role="3EZMnx">
        <ref role="1NtTu8" to="417:6DFGZWTxqs0" resolve="Right" />
      </node>
    </node>
  </node>
  <node concept="24kQdi" id="xWv2PNyp0x">
    <ref role="1XX52x" to="417:6DFGZWTxqsb" resolve="LessEqual" />
    <node concept="3EZMnI" id="xWv2PNyp0z" role="2wV5jI">
      <node concept="l2Vlx" id="xWv2PNyp0$" role="2iSdaV" />
      <node concept="3F1sOY" id="xWv2PNyp0_" role="3EZMnx">
        <ref role="1NtTu8" to="417:6DFGZWTxqrY" resolve="Left" />
      </node>
      <node concept="3F0ifn" id="xWv2PNyp0A" role="3EZMnx">
        <property role="3F0ifm" value="&lt;=" />
      </node>
      <node concept="3F1sOY" id="xWv2PNyp0B" role="3EZMnx">
        <ref role="1NtTu8" to="417:6DFGZWTxqs0" resolve="Right" />
      </node>
    </node>
  </node>
  <node concept="24kQdi" id="xWv2PNyp0P">
    <ref role="1XX52x" to="417:6DFGZWTxqs5" resolve="Modulo" />
    <node concept="3EZMnI" id="xWv2PNyp0R" role="2wV5jI">
      <node concept="l2Vlx" id="xWv2PNyp0S" role="2iSdaV" />
      <node concept="3F1sOY" id="xWv2PNyp0T" role="3EZMnx">
        <ref role="1NtTu8" to="417:6DFGZWTxqrY" resolve="Left" />
      </node>
      <node concept="3F0ifn" id="xWv2PNyp0U" role="3EZMnx">
        <property role="3F0ifm" value="%" />
      </node>
      <node concept="3F1sOY" id="xWv2PNyp0V" role="3EZMnx">
        <ref role="1NtTu8" to="417:6DFGZWTxqs0" resolve="Right" />
      </node>
    </node>
  </node>
  <node concept="24kQdi" id="xWv2PNyp19">
    <ref role="1XX52x" to="417:6DFGZWTxqs3" resolve="Multiplication" />
    <node concept="3EZMnI" id="xWv2PNyp1e" role="2wV5jI">
      <node concept="l2Vlx" id="xWv2PNyp1f" role="2iSdaV" />
      <node concept="3F1sOY" id="xWv2PNyp1g" role="3EZMnx">
        <ref role="1NtTu8" to="417:6DFGZWTxqrY" resolve="Left" />
      </node>
      <node concept="3F0ifn" id="xWv2PNyp1h" role="3EZMnx">
        <property role="3F0ifm" value="*" />
      </node>
      <node concept="3F1sOY" id="xWv2PNyp1i" role="3EZMnx">
        <ref role="1NtTu8" to="417:6DFGZWTxqs0" resolve="Right" />
      </node>
    </node>
  </node>
  <node concept="24kQdi" id="xWv2PNyp1o">
    <ref role="1XX52x" to="417:6DFGZWTxqrW" resolve="Negation" />
    <node concept="3EZMnI" id="xWv2PNyp1q" role="2wV5jI">
      <node concept="l2Vlx" id="xWv2PNyp1r" role="2iSdaV" />
      <node concept="3F0ifn" id="xWv2PNyp3x" role="3EZMnx">
        <property role="3F0ifm" value="!" />
      </node>
      <node concept="3F1sOY" id="xWv2PNyp1s" role="3EZMnx">
        <ref role="1NtTu8" to="417:6DFGZWTxqrU" resolve="Operand" />
      </node>
    </node>
  </node>
  <node concept="24kQdi" id="xWv2PNyp1G">
    <ref role="1XX52x" to="417:6DFGZWTxqs9" resolve="NotEqual" />
    <node concept="3EZMnI" id="xWv2PNyp1I" role="2wV5jI">
      <node concept="l2Vlx" id="xWv2PNyp1J" role="2iSdaV" />
      <node concept="3F1sOY" id="xWv2PNyp1K" role="3EZMnx">
        <ref role="1NtTu8" to="417:6DFGZWTxqrY" resolve="Left" />
      </node>
      <node concept="3F0ifn" id="xWv2PNyp1L" role="3EZMnx">
        <property role="3F0ifm" value="!=" />
      </node>
      <node concept="3F1sOY" id="xWv2PNyp1M" role="3EZMnx">
        <ref role="1NtTu8" to="417:6DFGZWTxqs0" resolve="Right" />
      </node>
    </node>
  </node>
  <node concept="24kQdi" id="xWv2PNyp2W">
    <ref role="1XX52x" to="417:6DFGZWTxqs7" resolve="Substraction" />
    <node concept="3EZMnI" id="xWv2PNyp2Y" role="2wV5jI">
      <node concept="l2Vlx" id="xWv2PNyp2Z" role="2iSdaV" />
      <node concept="3F1sOY" id="xWv2PNyp30" role="3EZMnx">
        <ref role="1NtTu8" to="417:6DFGZWTxqrY" resolve="Left" />
      </node>
      <node concept="3F0ifn" id="xWv2PNyp31" role="3EZMnx">
        <property role="3F0ifm" value="-" />
      </node>
      <node concept="3F1sOY" id="xWv2PNyp32" role="3EZMnx">
        <ref role="1NtTu8" to="417:6DFGZWTxqs0" resolve="Right" />
      </node>
    </node>
  </node>
  <node concept="24kQdi" id="xWv2PNyp3g">
    <ref role="1XX52x" to="417:6DFGZWTxqrT" resolve="UnaryExpression" />
    <node concept="3EZMnI" id="xWv2PNyp3l" role="2wV5jI">
      <node concept="l2Vlx" id="xWv2PNyp3m" role="2iSdaV" />
      <node concept="3F1sOY" id="xWv2PNyp3i" role="3EZMnx">
        <ref role="1NtTu8" to="417:6DFGZWTxqrU" resolve="Operand" />
      </node>
    </node>
  </node>
  <node concept="24kQdi" id="5E$wc$r6rhn">
    <ref role="1XX52x" to="417:5E$wc$r6rhe" resolve="EmptyStatement" />
    <node concept="3EZMnI" id="5E$wc$r6Udv" role="2wV5jI">
      <node concept="l2Vlx" id="5E$wc$r6Udw" role="2iSdaV" />
      <node concept="3F0ifn" id="5E$wc$r6UdM" role="3EZMnx">
        <node concept="VPxyj" id="5E$wc$r716U" role="3F10Kt">
          <property role="VOm3f" value="true" />
        </node>
      </node>
    </node>
  </node>
  <node concept="24kQdi" id="1RUPed91UX4">
    <ref role="1XX52x" to="417:6DFGZWTxqrt" resolve="ElseStatement" />
    <node concept="3EZMnI" id="1RUPed91UX6" role="2wV5jI">
      <node concept="3F0ifn" id="1RUPed91UXc" role="3EZMnx">
        <property role="3F0ifm" value="" />
      </node>
      <node concept="l2Vlx" id="1RUPed91UX8" role="2iSdaV" />
    </node>
  </node>
  <node concept="24kQdi" id="1RUPed91UXK">
    <ref role="1XX52x" to="417:6DFGZWTxqrb" resolve="IdDeclarationAssignement" />
    <node concept="3EZMnI" id="1RUPed91UXM" role="2wV5jI">
      <node concept="3F1sOY" id="1RUPed91UZd" role="3EZMnx">
        <ref role="1NtTu8" to="417:6DFGZWTxqrc" resolve="IdDeclaration" />
      </node>
      <node concept="3F0ifn" id="1RUPed91UZl" role="3EZMnx">
        <property role="3F0ifm" value="=" />
      </node>
      <node concept="3F1sOY" id="1RUPed91UYM" role="3EZMnx">
        <ref role="1NtTu8" to="417:6DFGZWTxqrg" resolve="Expression" />
      </node>
      <node concept="3F0ifn" id="1RUPed91UZv" role="3EZMnx">
        <property role="3F0ifm" value=";" />
      </node>
      <node concept="l2Vlx" id="1RUPed91UXO" role="2iSdaV" />
    </node>
  </node>
  <node concept="24kQdi" id="7WW5lvrjcKy">
    <ref role="1XX52x" to="417:7WW5lvrjcKp" resolve="EmptyExpression" />
    <node concept="3EZMnI" id="7WW5lvrjcK$" role="2wV5jI">
      <node concept="l2Vlx" id="7WW5lvrjcK_" role="2iSdaV" />
      <node concept="3F0ifn" id="7WW5lvrjcKA" role="3EZMnx">
        <node concept="VPxyj" id="7WW5lvrjcKB" role="3F10Kt">
          <property role="VOm3f" value="true" />
        </node>
      </node>
    </node>
  </node>
  <node concept="24kQdi" id="7WW5lvrjeWO">
    <ref role="1XX52x" to="417:7WW5lvrjeWF" resolve="CommentStatement" />
    <node concept="3EZMnI" id="7WW5lvrjRR$" role="2wV5jI">
      <node concept="2iRfu4" id="7WW5lvrjRR_" role="2iSdaV" />
      <node concept="PMmxH" id="7WW5lvrjRRY" role="3EZMnx">
        <ref role="PMmxG" to="tpco:2wZex4PafBj" resolve="alias" />
        <node concept="VPxyj" id="7WW5lvrkc$X" role="3F10Kt" />
        <node concept="Vb9p2" id="7WW5lvrkc_2" role="3F10Kt">
          <property role="Vbekb" value="g1_kEg4/ITALIC" />
        </node>
        <node concept="VPM3Z" id="7WW5lvrkc_a" role="3F10Kt" />
      </node>
      <node concept="3F0A7n" id="7WW5lvrjRS2" role="3EZMnx">
        <ref role="1NtTu8" to="417:7WW5lvrjzcn" resolve="text" />
        <node concept="Vb9p2" id="7WW5lvrkc_h" role="3F10Kt">
          <property role="Vbekb" value="g1_kEg4/ITALIC" />
        </node>
      </node>
    </node>
  </node>
  <node concept="24kQdi" id="7WW5lvrkVtn">
    <ref role="1XX52x" to="417:7WW5lvrkO5G" resolve="BoolType" />
    <node concept="3F0ifn" id="7WW5lvrkVtp" role="2wV5jI">
      <property role="3F0ifm" value="bool" />
    </node>
  </node>
  <node concept="24kQdi" id="7WW5lvrkVtr">
    <ref role="1XX52x" to="417:7WW5lvrkO5F" resolve="IntType" />
    <node concept="3F0ifn" id="7WW5lvrkVtt" role="2wV5jI">
      <property role="3F0ifm" value="int" />
    </node>
  </node>
  <node concept="24kQdi" id="7WW5lvrkVtw">
    <ref role="1XX52x" to="417:7WW5lvrkO5E" resolve="VoidType" />
    <node concept="3F0ifn" id="7WW5lvrkVty" role="2wV5jI">
      <property role="3F0ifm" value="void" />
    </node>
  </node>
</model>

