<?xml version="1.0" encoding="UTF-8"?>
<model ref="r:4e4f768e-0860-4d91-a2c4-f9c1b4dbdb0b(SimpliC.textGen)">
  <persistence version="9" />
  <languages>
    <use id="b83431fe-5c8f-40bc-8a36-65e25f4dd253" name="jetbrains.mps.lang.textGen" version="1" />
    <devkit ref="fa73d85a-ac7f-447b-846c-fcdc41caa600(jetbrains.mps.devkit.aspect.textgen)" />
  </languages>
  <imports>
    <import index="417" ref="r:c812ec5f-d6df-4351-b111-e327e3950242(SimpliC.structure)" implicit="true" />
    <import index="tpck" ref="r:00000000-0000-4000-0000-011c89590288(jetbrains.mps.lang.core.structure)" implicit="true" />
    <import index="33ny" ref="6354ebe7-c22a-4a0f-ac54-50b52ab9b065/java:java.util(JDK/)" implicit="true" />
    <import index="gxzi" ref="r:55f30ab6-1596-4f0d-bea8-ca434810daf6(SimpliC.behavior)" implicit="true" />
  </imports>
  <registry>
    <language id="f3061a53-9226-4cc5-a443-f952ceaf5816" name="jetbrains.mps.baseLanguage">
      <concept id="1082485599095" name="jetbrains.mps.baseLanguage.structure.BlockStatement" flags="nn" index="9aQIb">
        <child id="1082485599096" name="statements" index="9aQI4" />
      </concept>
      <concept id="1202948039474" name="jetbrains.mps.baseLanguage.structure.InstanceMethodCallOperation" flags="nn" index="liA8E" />
      <concept id="1197027756228" name="jetbrains.mps.baseLanguage.structure.DotExpression" flags="nn" index="2OqwBi">
        <child id="1197027771414" name="operand" index="2Oq$k0" />
        <child id="1197027833540" name="operation" index="2OqNvi" />
      </concept>
      <concept id="1137021947720" name="jetbrains.mps.baseLanguage.structure.ConceptFunction" flags="in" index="2VMwT0">
        <child id="1137022507850" name="body" index="2VODD2" />
      </concept>
      <concept id="1070475926800" name="jetbrains.mps.baseLanguage.structure.StringLiteral" flags="nn" index="Xl_RD">
        <property id="1070475926801" name="value" index="Xl_RC" />
      </concept>
      <concept id="1092119917967" name="jetbrains.mps.baseLanguage.structure.MulExpression" flags="nn" index="17qRlL" />
      <concept id="1068580123155" name="jetbrains.mps.baseLanguage.structure.ExpressionStatement" flags="nn" index="3clFbF">
        <child id="1068580123156" name="expression" index="3clFbG" />
      </concept>
      <concept id="1068580123157" name="jetbrains.mps.baseLanguage.structure.Statement" flags="nn" index="3clFbH" />
      <concept id="1068580123159" name="jetbrains.mps.baseLanguage.structure.IfStatement" flags="nn" index="3clFbJ">
        <child id="1082485599094" name="ifFalseStatement" index="9aQIa" />
        <child id="1068580123160" name="condition" index="3clFbw" />
        <child id="1068580123161" name="ifTrue" index="3clFbx" />
      </concept>
      <concept id="1068580123136" name="jetbrains.mps.baseLanguage.structure.StatementList" flags="sn" stub="5293379017992965193" index="3clFbS">
        <child id="1068581517665" name="statement" index="3cqZAp" />
      </concept>
      <concept id="1068580320020" name="jetbrains.mps.baseLanguage.structure.IntegerConstant" flags="nn" index="3cmrfG">
        <property id="1068580320021" name="value" index="3cmrfH" />
      </concept>
      <concept id="1068581242875" name="jetbrains.mps.baseLanguage.structure.PlusExpression" flags="nn" index="3cpWs3" />
      <concept id="1079359253375" name="jetbrains.mps.baseLanguage.structure.ParenthesizedExpression" flags="nn" index="1eOMI4">
        <child id="1079359253376" name="expression" index="1eOMHV" />
      </concept>
      <concept id="1081516740877" name="jetbrains.mps.baseLanguage.structure.NotExpression" flags="nn" index="3fqX7Q">
        <child id="1081516765348" name="expression" index="3fr31v" />
      </concept>
      <concept id="1204053956946" name="jetbrains.mps.baseLanguage.structure.IMethodCall" flags="ng" index="1ndlxa">
        <reference id="1068499141037" name="baseMethodDeclaration" index="37wK5l" />
      </concept>
      <concept id="1081773326031" name="jetbrains.mps.baseLanguage.structure.BinaryOperation" flags="nn" index="3uHJSO">
        <child id="1081773367579" name="rightExpression" index="3uHU7w" />
        <child id="1081773367580" name="leftExpression" index="3uHU7B" />
      </concept>
      <concept id="6329021646629104954" name="jetbrains.mps.baseLanguage.structure.SingleLineComment" flags="nn" index="3SKdUt">
        <child id="1350122676458893092" name="text" index="3ndbpf" />
      </concept>
    </language>
    <language id="b83431fe-5c8f-40bc-8a36-65e25f4dd253" name="jetbrains.mps.lang.textGen">
      <concept id="45307784116571022" name="jetbrains.mps.lang.textGen.structure.FilenameFunction" flags="ig" index="29tfMY" />
      <concept id="8931911391946696733" name="jetbrains.mps.lang.textGen.structure.ExtensionDeclaration" flags="in" index="9MYSb" />
      <concept id="1237305208784" name="jetbrains.mps.lang.textGen.structure.NewLineAppendPart" flags="ng" index="l8MVK" />
      <concept id="1237305334312" name="jetbrains.mps.lang.textGen.structure.NodeAppendPart" flags="ng" index="l9hG8">
        <child id="1237305790512" name="value" index="lb14g" />
      </concept>
      <concept id="1237305491868" name="jetbrains.mps.lang.textGen.structure.CollectionAppendPart" flags="ng" index="l9S2W">
        <property id="1237306003719" name="separator" index="lbP0B" />
        <property id="1237983969951" name="withSeparator" index="XA4eZ" />
        <child id="1237305945551" name="list" index="lbANJ" />
      </concept>
      <concept id="1237305557638" name="jetbrains.mps.lang.textGen.structure.ConstantStringAppendPart" flags="ng" index="la8eA">
        <property id="1237305576108" name="value" index="lacIc" />
      </concept>
      <concept id="1237306079178" name="jetbrains.mps.lang.textGen.structure.AppendOperation" flags="nn" index="lc7rE">
        <child id="1237306115446" name="part" index="lcghm" />
      </concept>
      <concept id="4357423944233036906" name="jetbrains.mps.lang.textGen.structure.IndentPart" flags="ng" index="2BGw6n" />
      <concept id="1233670071145" name="jetbrains.mps.lang.textGen.structure.ConceptTextGenDeclaration" flags="ig" index="WtQ9Q">
        <reference id="1233670257997" name="conceptDeclaration" index="WuzLi" />
        <child id="45307784116711884" name="filename" index="29tGrW" />
        <child id="1233749296504" name="textGenBlock" index="11c4hB" />
        <child id="7991274449437422201" name="extension" index="33IsuW" />
      </concept>
      <concept id="1233748055915" name="jetbrains.mps.lang.textGen.structure.NodeParameter" flags="nn" index="117lpO" />
      <concept id="1233749247888" name="jetbrains.mps.lang.textGen.structure.GenerateTextDeclaration" flags="in" index="11bSqf" />
      <concept id="1233752719417" name="jetbrains.mps.lang.textGen.structure.IncreaseDepthOperation" flags="nn" index="11p84A" />
      <concept id="1233752780875" name="jetbrains.mps.lang.textGen.structure.DecreaseDepthOperation" flags="nn" index="11pn5k" />
    </language>
    <language id="7866978e-a0f0-4cc7-81bc-4d213d9375e1" name="jetbrains.mps.lang.smodel">
      <concept id="1177026924588" name="jetbrains.mps.lang.smodel.structure.RefConcept_Reference" flags="nn" index="chp4Y">
        <reference id="1177026940964" name="conceptDeclaration" index="cht4Q" />
      </concept>
      <concept id="1138411891628" name="jetbrains.mps.lang.smodel.structure.SNodeOperation" flags="nn" index="eCIE_">
        <child id="1144104376918" name="parameter" index="1xVPHs" />
      </concept>
      <concept id="1179409122411" name="jetbrains.mps.lang.smodel.structure.Node_ConceptMethodCall" flags="nn" index="2qgKlT" />
      <concept id="1171407110247" name="jetbrains.mps.lang.smodel.structure.Node_GetAncestorOperation" flags="nn" index="2Xjw5R" />
      <concept id="1139621453865" name="jetbrains.mps.lang.smodel.structure.Node_IsInstanceOfOperation" flags="nn" index="1mIQ4w">
        <child id="1177027386292" name="conceptArgument" index="cj9EA" />
      </concept>
      <concept id="1172008320231" name="jetbrains.mps.lang.smodel.structure.Node_IsNotNullOperation" flags="nn" index="3x8VRR" />
      <concept id="1144101972840" name="jetbrains.mps.lang.smodel.structure.OperationParm_Concept" flags="ng" index="1xMEDy">
        <child id="1207343664468" name="conceptArgument" index="ri$Ld" />
      </concept>
      <concept id="1138056022639" name="jetbrains.mps.lang.smodel.structure.SPropertyAccess" flags="nn" index="3TrcHB">
        <reference id="1138056395725" name="property" index="3TsBF5" />
      </concept>
      <concept id="1138056143562" name="jetbrains.mps.lang.smodel.structure.SLinkAccess" flags="nn" index="3TrEf2">
        <reference id="1138056516764" name="link" index="3Tt5mk" />
      </concept>
      <concept id="1138056282393" name="jetbrains.mps.lang.smodel.structure.SLinkListAccess" flags="nn" index="3Tsc0h">
        <reference id="1138056546658" name="link" index="3TtcxE" />
      </concept>
    </language>
    <language id="c7fb639f-be78-4307-89b0-b5959c3fa8c8" name="jetbrains.mps.lang.text">
      <concept id="155656958578482948" name="jetbrains.mps.lang.text.structure.Word" flags="ng" index="3oM_SD">
        <property id="155656958578482949" name="value" index="3oM_SC" />
      </concept>
      <concept id="2535923850359271782" name="jetbrains.mps.lang.text.structure.Line" flags="ng" index="1PaTwC">
        <child id="2535923850359271783" name="elements" index="1PaTwD" />
      </concept>
    </language>
  </registry>
  <node concept="WtQ9Q" id="5KfCCErAZti">
    <ref role="WuzLi" to="417:3HUbvRI1m89" resolve="Program" />
    <node concept="29tfMY" id="5KfCCErAZtj" role="29tGrW">
      <node concept="3clFbS" id="5KfCCErAZtk" role="2VODD2">
        <node concept="3clFbF" id="5KfCCErAZxU" role="3cqZAp">
          <node concept="Xl_RD" id="5KfCCErAZxT" role="3clFbG">
            <property role="Xl_RC" value="program" />
          </node>
        </node>
      </node>
    </node>
    <node concept="9MYSb" id="5KfCCErB12z" role="33IsuW">
      <node concept="3clFbS" id="5KfCCErB12$" role="2VODD2">
        <node concept="3clFbF" id="5KfCCErB13v" role="3cqZAp">
          <node concept="Xl_RD" id="5KfCCErB13u" role="3clFbG">
            <property role="Xl_RC" value="s" />
          </node>
        </node>
      </node>
    </node>
    <node concept="11bSqf" id="5KfCCErB14$" role="11c4hB">
      <node concept="3clFbS" id="5KfCCErB14_" role="2VODD2">
        <node concept="3clFbH" id="5KfCCErBUar" role="3cqZAp" />
        <node concept="3SKdUt" id="5KfCCErBUc4" role="3cqZAp">
          <node concept="1PaTwC" id="5KfCCErBUc5" role="3ndbpf">
            <node concept="3oM_SD" id="5KfCCErBUd6" role="1PaTwD">
              <property role="3oM_SC" value="start" />
            </node>
            <node concept="3oM_SD" id="5KfCCErBUd$" role="1PaTwD">
              <property role="3oM_SC" value="program" />
            </node>
          </node>
        </node>
        <node concept="lc7rE" id="5KfCCErB15S" role="3cqZAp">
          <node concept="la8eA" id="5KfCCErB1kz" role="lcghm">
            <property role="lacIc" value=".global _start" />
          </node>
          <node concept="l8MVK" id="5KfCCErB1ls" role="lcghm" />
          <node concept="l8MVK" id="5KfCCErBTPV" role="lcghm" />
        </node>
        <node concept="3clFbH" id="5KfCCErBU9C" role="3cqZAp" />
        <node concept="3SKdUt" id="5KfCCErBUfv" role="3cqZAp">
          <node concept="1PaTwC" id="5KfCCErBUfw" role="3ndbpf">
            <node concept="3oM_SD" id="5KfCCErBUfy" role="1PaTwD">
              <property role="3oM_SC" value="add" />
            </node>
            <node concept="3oM_SD" id="5KfCCErBUgC" role="1PaTwD">
              <property role="3oM_SC" value="data" />
            </node>
          </node>
        </node>
        <node concept="lc7rE" id="5KfCCErBTNm" role="3cqZAp">
          <node concept="la8eA" id="5KfCCErBTO7" role="lcghm">
            <property role="lacIc" value=".data" />
          </node>
          <node concept="l8MVK" id="5KfCCErBTPf" role="lcghm" />
        </node>
        <node concept="lc7rE" id="20l7azhkYuP" role="3cqZAp">
          <node concept="2BGw6n" id="20l7azhkYyl" role="lcghm" />
          <node concept="la8eA" id="20l7azhkYyZ" role="lcghm">
            <property role="lacIc" value="buf: .skip 1024" />
          </node>
          <node concept="l8MVK" id="20l7azhkYzU" role="lcghm" />
        </node>
        <node concept="lc7rE" id="5KfCCErBUpe" role="3cqZAp">
          <node concept="l8MVK" id="5KfCCErBUr4" role="lcghm" />
        </node>
        <node concept="3clFbH" id="5KfCCErBU8Q" role="3cqZAp" />
        <node concept="3SKdUt" id="5KfCCErBUi9" role="3cqZAp">
          <node concept="1PaTwC" id="5KfCCErBUia" role="3ndbpf">
            <node concept="3oM_SD" id="5KfCCErBUic" role="1PaTwD">
              <property role="3oM_SC" value="add" />
            </node>
            <node concept="3oM_SD" id="5KfCCErBUjm" role="1PaTwD">
              <property role="3oM_SC" value="text" />
            </node>
          </node>
        </node>
        <node concept="lc7rE" id="5KfCCErB1eL" role="3cqZAp">
          <node concept="la8eA" id="5KfCCErB1lM" role="lcghm">
            <property role="lacIc" value=".text" />
          </node>
          <node concept="l8MVK" id="5KfCCErB1n9" role="lcghm" />
        </node>
        <node concept="lc7rE" id="5KfCCErB1oG" role="3cqZAp">
          <node concept="la8eA" id="5KfCCErB1pa" role="lcghm">
            <property role="lacIc" value="_start:" />
          </node>
          <node concept="l8MVK" id="5KfCCErB1q3" role="lcghm" />
        </node>
        <node concept="3clFbH" id="5KfCCErBUk4" role="3cqZAp" />
        <node concept="3SKdUt" id="5KfCCErBUm7" role="3cqZAp">
          <node concept="1PaTwC" id="5KfCCErBUm8" role="3ndbpf">
            <node concept="3oM_SD" id="5KfCCErBUma" role="1PaTwD">
              <property role="3oM_SC" value="call" />
            </node>
            <node concept="3oM_SD" id="5KfCCErBUns" role="1PaTwD">
              <property role="3oM_SC" value="main" />
            </node>
            <node concept="3oM_SD" id="5KfCCErBUnG" role="1PaTwD">
              <property role="3oM_SC" value="function" />
            </node>
          </node>
        </node>
        <node concept="11p84A" id="5KfCCErBXLX" role="3cqZAp" />
        <node concept="lc7rE" id="5KfCCErBUwd" role="3cqZAp">
          <node concept="2BGw6n" id="5KfCCErBUxy" role="lcghm" />
          <node concept="la8eA" id="5KfCCErBUyc" role="lcghm">
            <property role="lacIc" value="call main" />
          </node>
          <node concept="l8MVK" id="5KfCCErBUzm" role="lcghm" />
        </node>
        <node concept="lc7rE" id="5KfCCErB1re" role="3cqZAp">
          <node concept="2BGw6n" id="5KfCCErB1$o" role="lcghm" />
          <node concept="la8eA" id="5KfCCErB1rK" role="lcghm">
            <property role="lacIc" value="# exit main procedure" />
          </node>
          <node concept="l8MVK" id="5KfCCErB1tj" role="lcghm" />
        </node>
        <node concept="lc7rE" id="5KfCCErB1uI" role="3cqZAp">
          <node concept="2BGw6n" id="5KfCCErB1_L" role="lcghm" />
          <node concept="la8eA" id="5KfCCErB1vj" role="lcghm">
            <property role="lacIc" value="movq $0, %rdi       # exit code = 0" />
          </node>
          <node concept="l8MVK" id="5KfCCErB1w5" role="lcghm" />
        </node>
        <node concept="lc7rE" id="5KfCCErB1wW" role="3cqZAp">
          <node concept="2BGw6n" id="5KfCCErB1Au" role="lcghm" />
          <node concept="la8eA" id="5KfCCErB1wX" role="lcghm">
            <property role="lacIc" value="movq $60, %rax      # sys_exit" />
          </node>
          <node concept="l8MVK" id="5KfCCErB1wY" role="lcghm" />
        </node>
        <node concept="lc7rE" id="5KfCCErB1y1" role="3cqZAp">
          <node concept="2BGw6n" id="5KfCCErB1Bb" role="lcghm" />
          <node concept="la8eA" id="5KfCCErB1y2" role="lcghm">
            <property role="lacIc" value="syscall" />
          </node>
          <node concept="l8MVK" id="5KfCCErB1y3" role="lcghm" />
          <node concept="l8MVK" id="5KfCCErBUDA" role="lcghm" />
        </node>
        <node concept="11pn5k" id="5KfCCErBXPu" role="3cqZAp" />
        <node concept="3clFbH" id="5KfCCErBUFf" role="3cqZAp" />
        <node concept="3SKdUt" id="5KfCCErBUHF" role="3cqZAp">
          <node concept="1PaTwC" id="5KfCCErBUJ8" role="3ndbpf">
            <node concept="3oM_SD" id="5KfCCErBUHI" role="1PaTwD">
              <property role="3oM_SC" value="insert" />
            </node>
            <node concept="3oM_SD" id="5KfCCErBULe" role="1PaTwD">
              <property role="3oM_SC" value="functions" />
            </node>
          </node>
        </node>
        <node concept="lc7rE" id="5KfCCErC0l5" role="3cqZAp">
          <node concept="l9S2W" id="5KfCCErC0mW" role="lcghm">
            <property role="XA4eZ" value="true" />
            <property role="lbP0B" value="\n" />
            <node concept="2OqwBi" id="5KfCCErC0tc" role="lbANJ">
              <node concept="117lpO" id="5KfCCErC0nk" role="2Oq$k0" />
              <node concept="3Tsc0h" id="5KfCCErC0$0" role="2OqNvi">
                <ref role="3TtcxE" to="417:3HUbvRI1m8e" resolve="functionDecl" />
              </node>
            </node>
          </node>
        </node>
      </node>
    </node>
  </node>
  <node concept="WtQ9Q" id="5KfCCErC4ib">
    <ref role="WuzLi" to="417:3HUbvRI1m8i" resolve="FunctionDeclaration" />
    <node concept="11bSqf" id="5KfCCErC4ic" role="11c4hB">
      <node concept="3clFbS" id="5KfCCErC4id" role="2VODD2">
        <node concept="lc7rE" id="5KfCCErC7uD" role="3cqZAp">
          <node concept="l9hG8" id="20l7azhjBtt" role="lcghm">
            <node concept="2OqwBi" id="20l7azhjB_M" role="lb14g">
              <node concept="117lpO" id="20l7azhjBun" role="2Oq$k0" />
              <node concept="3TrcHB" id="20l7azhjBKS" role="2OqNvi">
                <ref role="3TsBF5" to="tpck:h0TrG11" resolve="name" />
              </node>
            </node>
          </node>
          <node concept="la8eA" id="20l7azhk3Gl" role="lcghm">
            <property role="lacIc" value=":" />
          </node>
          <node concept="l8MVK" id="5KfCCErC7yx" role="lcghm" />
        </node>
        <node concept="11p84A" id="5KfCCErC4z7" role="3cqZAp" />
        <node concept="lc7rE" id="5KfCCErC4xS" role="3cqZAp">
          <node concept="2BGw6n" id="5KfCCErC4zK" role="lcghm" />
          <node concept="la8eA" id="5KfCCErC4$q" role="lcghm">
            <property role="lacIc" value="pushq %rbp" />
          </node>
          <node concept="l8MVK" id="5KfCCErC4AS" role="lcghm" />
        </node>
        <node concept="lc7rE" id="5KfCCErC4BS" role="3cqZAp">
          <node concept="2BGw6n" id="5KfCCErC4CC" role="lcghm" />
          <node concept="la8eA" id="5KfCCErC4DT" role="lcghm">
            <property role="lacIc" value="movq %rsp, %rbp" />
          </node>
          <node concept="l8MVK" id="5KfCCErC4Ge" role="lcghm" />
        </node>
        <node concept="3clFbH" id="5KfCCErC4G_" role="3cqZAp" />
        <node concept="3SKdUt" id="5KfCCErC4HO" role="3cqZAp">
          <node concept="1PaTwC" id="5KfCCErC4Jt" role="3ndbpf">
            <node concept="3oM_SD" id="5KfCCErC4HR" role="1PaTwD">
              <property role="3oM_SC" value="" />
            </node>
            <node concept="3oM_SD" id="5KfCCErC4It" role="1PaTwD">
              <property role="3oM_SC" value="add" />
            </node>
            <node concept="3oM_SD" id="5KfCCErC4IJ" role="1PaTwD">
              <property role="3oM_SC" value="block" />
            </node>
            <node concept="3oM_SD" id="5KfCCErC4JO" role="1PaTwD">
              <property role="3oM_SC" value="code" />
            </node>
          </node>
        </node>
        <node concept="lc7rE" id="5KfCCErC4T7" role="3cqZAp">
          <node concept="l9hG8" id="5KfCCErC4U1" role="lcghm">
            <node concept="2OqwBi" id="5KfCCErC51E" role="lb14g">
              <node concept="117lpO" id="5KfCCErC4UT" role="2Oq$k0" />
              <node concept="3TrEf2" id="5KfCCErC5ao" role="2OqNvi">
                <ref role="3Tt5mk" to="417:3HUbvRI1ma7" resolve="block" />
              </node>
            </node>
          </node>
        </node>
        <node concept="3clFbH" id="5KfCCErC4sy" role="3cqZAp" />
        <node concept="3SKdUt" id="5KfCCErC5eX" role="3cqZAp">
          <node concept="1PaTwC" id="5KfCCErC5eY" role="3ndbpf">
            <node concept="3oM_SD" id="5KfCCErC5f0" role="1PaTwD">
              <property role="3oM_SC" value="return" />
            </node>
            <node concept="3oM_SD" id="5KfCCErC5ha" role="1PaTwD">
              <property role="3oM_SC" value="to" />
            </node>
            <node concept="3oM_SD" id="5KfCCErC5h$" role="1PaTwD">
              <property role="3oM_SC" value="caller" />
            </node>
            <node concept="3oM_SD" id="5KfCCErC5hZ" role="1PaTwD">
              <property role="3oM_SC" value="function" />
            </node>
          </node>
        </node>
        <node concept="lc7rE" id="20l7azhjBS0" role="3cqZAp">
          <node concept="la8eA" id="20l7azhjBS1" role="lcghm">
            <property role="lacIc" value="exit_" />
          </node>
          <node concept="l9hG8" id="20l7azhjBS2" role="lcghm">
            <node concept="2OqwBi" id="20l7azhjBS3" role="lb14g">
              <node concept="117lpO" id="20l7azhjBS4" role="2Oq$k0" />
              <node concept="3TrcHB" id="20l7azhjBS5" role="2OqNvi">
                <ref role="3TsBF5" to="tpck:h0TrG11" resolve="name" />
              </node>
            </node>
          </node>
          <node concept="la8eA" id="20l7azhk3Zb" role="lcghm">
            <property role="lacIc" value=":" />
          </node>
          <node concept="l8MVK" id="20l7azhjBS6" role="lcghm" />
        </node>
        <node concept="lc7rE" id="5KfCCErC5oq" role="3cqZAp">
          <node concept="2BGw6n" id="5KfCCErC5yc" role="lcghm" />
          <node concept="la8eA" id="5KfCCErC5yQ" role="lcghm">
            <property role="lacIc" value="movq %rbp, %rsp" />
          </node>
          <node concept="l8MVK" id="5KfCCErC5FN" role="lcghm" />
        </node>
        <node concept="lc7rE" id="5KfCCErC5Am" role="3cqZAp">
          <node concept="2BGw6n" id="5KfCCErC5BY" role="lcghm" />
          <node concept="la8eA" id="5KfCCErC5CC" role="lcghm">
            <property role="lacIc" value="popq %rbp" />
          </node>
          <node concept="l8MVK" id="5KfCCErC5F6" role="lcghm" />
        </node>
        <node concept="lc7rE" id="5KfCCErC5LD" role="3cqZAp">
          <node concept="2BGw6n" id="5KfCCErC5Nm" role="lcghm" />
          <node concept="la8eA" id="5KfCCErC5O0" role="lcghm">
            <property role="lacIc" value="ret" />
          </node>
          <node concept="l8MVK" id="5KfCCErC5OV" role="lcghm" />
          <node concept="l8MVK" id="5KfCCErC5QS" role="lcghm" />
        </node>
      </node>
    </node>
  </node>
  <node concept="WtQ9Q" id="5KfCCErC8QJ">
    <ref role="WuzLi" to="417:3HUbvRI1mae" resolve="Block" />
    <node concept="11bSqf" id="5KfCCErC8QK" role="11c4hB">
      <node concept="3clFbS" id="5KfCCErC8QL" role="2VODD2">
        <node concept="lc7rE" id="5KfCCErCa0Y" role="3cqZAp">
          <node concept="l9S2W" id="5KfCCErCa1m" role="lcghm">
            <property role="lbP0B" value="\n" />
            <property role="XA4eZ" value="true" />
            <node concept="2OqwBi" id="5KfCCErCa7A" role="lbANJ">
              <node concept="117lpO" id="5KfCCErCa1I" role="2Oq$k0" />
              <node concept="3Tsc0h" id="5KfCCErCaeq" role="2OqNvi">
                <ref role="3TtcxE" to="417:3HUbvRI1maf" resolve="statementList" />
              </node>
            </node>
          </node>
        </node>
      </node>
    </node>
  </node>
  <node concept="WtQ9Q" id="5KfCCErCcyy">
    <ref role="WuzLi" to="417:5_4Hghpbtfh" resolve="Statement" />
    <node concept="11bSqf" id="5KfCCErCcyz" role="11c4hB">
      <node concept="3clFbS" id="5KfCCErCcy$" role="2VODD2" />
    </node>
  </node>
  <node concept="WtQ9Q" id="5KfCCErCdOu">
    <ref role="WuzLi" to="417:3HUbvRI1mar" resolve="Assignment" />
    <node concept="11bSqf" id="5KfCCErCdOv" role="11c4hB">
      <node concept="3clFbS" id="5KfCCErCdOw" role="2VODD2">
        <node concept="lc7rE" id="5KfCCErCfL4" role="3cqZAp">
          <node concept="2BGw6n" id="5KfCCErCsr8" role="lcghm" />
          <node concept="l9hG8" id="5KfCCErCfLq" role="lcghm">
            <node concept="2OqwBi" id="5KfCCErCfSW" role="lb14g">
              <node concept="117lpO" id="5KfCCErCfMi" role="2Oq$k0" />
              <node concept="3TrEf2" id="5KfCCErCga2" role="2OqNvi">
                <ref role="3Tt5mk" to="417:3HUbvRI1maT" resolve="Expression" />
              </node>
            </node>
          </node>
        </node>
        <node concept="3SKdUt" id="5KfCCErCglO" role="3cqZAp">
          <node concept="1PaTwC" id="5KfCCErCglP" role="3ndbpf">
            <node concept="3oM_SD" id="5KfCCErCglQ" role="1PaTwD">
              <property role="3oM_SC" value="TODO" />
            </node>
            <node concept="3oM_SD" id="5KfCCErCglR" role="1PaTwD">
              <property role="3oM_SC" value=":" />
            </node>
            <node concept="3oM_SD" id="5KfCCErCglS" role="1PaTwD">
              <property role="3oM_SC" value="add" />
            </node>
            <node concept="3oM_SD" id="5KfCCErCglT" role="1PaTwD">
              <property role="3oM_SC" value="IdDeclaration" />
            </node>
            <node concept="3oM_SD" id="5KfCCErCglU" role="1PaTwD">
              <property role="3oM_SC" value="address" />
            </node>
          </node>
        </node>
        <node concept="lc7rE" id="5KfCCErCggK" role="3cqZAp">
          <node concept="2BGw6n" id="5KfCCErCssf" role="lcghm" />
          <node concept="la8eA" id="5KfCCErCgh_" role="lcghm">
            <property role="lacIc" value="movq %rax, ###label for" />
          </node>
          <node concept="l9hG8" id="20l7azhjCr6" role="lcghm">
            <node concept="2OqwBi" id="20l7azhjDQm" role="lb14g">
              <node concept="2OqwBi" id="20l7azhjD6U" role="2Oq$k0">
                <node concept="2OqwBi" id="20l7azhjC$q" role="2Oq$k0">
                  <node concept="117lpO" id="20l7azhjCs1" role="2Oq$k0" />
                  <node concept="3TrEf2" id="20l7azhjCPw" role="2OqNvi">
                    <ref role="3Tt5mk" to="417:3HUbvRI1maR" resolve="IdUse" />
                  </node>
                </node>
                <node concept="3TrEf2" id="20l7azhjDum" role="2OqNvi">
                  <ref role="3Tt5mk" to="417:5_4HghpbYa2" resolve="decl" />
                </node>
              </node>
              <node concept="3TrcHB" id="20l7azhjE7S" role="2OqNvi">
                <ref role="3TsBF5" to="tpck:h0TrG11" resolve="name" />
              </node>
            </node>
          </node>
        </node>
      </node>
    </node>
  </node>
  <node concept="WtQ9Q" id="5KfCCErCdON">
    <ref role="WuzLi" to="417:3HUbvRI1mah" resolve="IdDeclaration" />
    <node concept="11bSqf" id="5KfCCErCdOO" role="11c4hB">
      <node concept="3clFbS" id="5KfCCErCdOP" role="2VODD2">
        <node concept="lc7rE" id="5KfCCErCdP8" role="3cqZAp">
          <node concept="2BGw6n" id="5KfCCErCslY" role="lcghm" />
          <node concept="la8eA" id="5KfCCErCdPu" role="lcghm">
            <property role="lacIc" value="addq $-8, %rsp" />
          </node>
          <node concept="l8MVK" id="5KfCCErCdS0" role="lcghm" />
        </node>
      </node>
    </node>
  </node>
  <node concept="WtQ9Q" id="5KfCCErCdSm">
    <ref role="WuzLi" to="417:6DFGZWTxqrb" resolve="IdDeclarationAssignement" />
    <node concept="11bSqf" id="5KfCCErCdSn" role="11c4hB">
      <node concept="3clFbS" id="5KfCCErCdSo" role="2VODD2">
        <node concept="lc7rE" id="5KfCCErCdSF" role="3cqZAp">
          <node concept="l9hG8" id="5KfCCErCdTg" role="lcghm">
            <node concept="2OqwBi" id="5KfCCErCe0K" role="lb14g">
              <node concept="117lpO" id="5KfCCErCdU6" role="2Oq$k0" />
              <node concept="3TrEf2" id="5KfCCErCehQ" role="2OqNvi">
                <ref role="3Tt5mk" to="417:6DFGZWTxqrc" resolve="IdDeclaration" />
              </node>
            </node>
          </node>
        </node>
        <node concept="lc7rE" id="5KfCCErCent" role="3cqZAp">
          <node concept="l9hG8" id="5KfCCErCesv" role="lcghm">
            <node concept="2OqwBi" id="5KfCCErCe$1" role="lb14g">
              <node concept="117lpO" id="5KfCCErCetn" role="2Oq$k0" />
              <node concept="3TrEf2" id="5KfCCErCeP7" role="2OqNvi">
                <ref role="3Tt5mk" to="417:6DFGZWTxqrg" resolve="Expression" />
              </node>
            </node>
          </node>
        </node>
        <node concept="3SKdUt" id="20l7azhjF32" role="3cqZAp">
          <node concept="1PaTwC" id="20l7azhjF33" role="3ndbpf">
            <node concept="3oM_SD" id="20l7azhjF34" role="1PaTwD">
              <property role="3oM_SC" value="TODO" />
            </node>
            <node concept="3oM_SD" id="20l7azhjF35" role="1PaTwD">
              <property role="3oM_SC" value=":" />
            </node>
            <node concept="3oM_SD" id="20l7azhjF36" role="1PaTwD">
              <property role="3oM_SC" value="add" />
            </node>
            <node concept="3oM_SD" id="20l7azhjF37" role="1PaTwD">
              <property role="3oM_SC" value="IdDeclaration" />
            </node>
            <node concept="3oM_SD" id="20l7azhjF38" role="1PaTwD">
              <property role="3oM_SC" value="address" />
            </node>
          </node>
        </node>
        <node concept="lc7rE" id="20l7azhjF39" role="3cqZAp">
          <node concept="2BGw6n" id="20l7azhjF3a" role="lcghm" />
          <node concept="la8eA" id="20l7azhjF3b" role="lcghm">
            <property role="lacIc" value="movq %rax, ###label for" />
          </node>
          <node concept="l9hG8" id="20l7azhjF3c" role="lcghm">
            <node concept="2OqwBi" id="20l7azhjF3d" role="lb14g">
              <node concept="2OqwBi" id="20l7azhjF3f" role="2Oq$k0">
                <node concept="117lpO" id="20l7azhjF3g" role="2Oq$k0" />
                <node concept="3TrEf2" id="20l7azhjFnI" role="2OqNvi">
                  <ref role="3Tt5mk" to="417:6DFGZWTxqrc" resolve="IdDeclaration" />
                </node>
              </node>
              <node concept="3TrcHB" id="20l7azhjF3j" role="2OqNvi">
                <ref role="3TsBF5" to="tpck:h0TrG11" resolve="name" />
              </node>
            </node>
          </node>
          <node concept="l8MVK" id="20l7azhjF3k" role="lcghm" />
        </node>
      </node>
    </node>
  </node>
  <node concept="WtQ9Q" id="5KfCCErCfnJ">
    <ref role="WuzLi" to="417:6DFGZWTxqr8" resolve="FunctionCallStatement" />
    <node concept="11bSqf" id="5KfCCErCfnK" role="11c4hB">
      <node concept="3clFbS" id="5KfCCErCfnL" role="2VODD2">
        <node concept="lc7rE" id="5KfCCErCfo4" role="3cqZAp">
          <node concept="l9hG8" id="5KfCCErCfoq" role="lcghm">
            <node concept="2OqwBi" id="5KfCCErCfxV" role="lb14g">
              <node concept="117lpO" id="5KfCCErCfpi" role="2Oq$k0" />
              <node concept="3TrEf2" id="5KfCCErCfED" role="2OqNvi">
                <ref role="3Tt5mk" to="417:6DFGZWTxqr9" resolve="FunctionCallExpression" />
              </node>
            </node>
          </node>
        </node>
      </node>
    </node>
  </node>
  <node concept="WtQ9Q" id="5KfCCErCgnC">
    <ref role="WuzLi" to="417:6DFGZWTxqrC" resolve="ReturnStatement" />
    <node concept="11bSqf" id="5KfCCErCgnD" role="11c4hB">
      <node concept="3clFbS" id="5KfCCErCgnE" role="2VODD2">
        <node concept="3clFbJ" id="5KfCCErCgnX" role="3cqZAp">
          <node concept="2OqwBi" id="5KfCCErCgUG" role="3clFbw">
            <node concept="2OqwBi" id="5KfCCErCgw$" role="2Oq$k0">
              <node concept="117lpO" id="5KfCCErCgoo" role="2Oq$k0" />
              <node concept="3TrEf2" id="5KfCCErCgCJ" role="2OqNvi">
                <ref role="3Tt5mk" to="417:6DFGZWTxqrD" resolve="Expression" />
              </node>
            </node>
            <node concept="3x8VRR" id="5KfCCErCh3g" role="2OqNvi" />
          </node>
          <node concept="3clFbS" id="5KfCCErCgnZ" role="3clFbx">
            <node concept="lc7rE" id="5KfCCErCh9d" role="3cqZAp">
              <node concept="l9hG8" id="5KfCCErCh9z" role="lcghm">
                <node concept="2OqwBi" id="5KfCCErChh5" role="lb14g">
                  <node concept="117lpO" id="5KfCCErChar" role="2Oq$k0" />
                  <node concept="3TrEf2" id="5KfCCErChyb" role="2OqNvi">
                    <ref role="3Tt5mk" to="417:6DFGZWTxqrD" resolve="Expression" />
                  </node>
                </node>
              </node>
            </node>
          </node>
        </node>
        <node concept="lc7rE" id="5KfCCErChCA" role="3cqZAp">
          <node concept="2BGw6n" id="6CWswPBI$bW" role="lcghm" />
          <node concept="la8eA" id="5KfCCErChEm" role="lcghm">
            <property role="lacIc" value="jmp exit_" />
          </node>
          <node concept="l9hG8" id="20l7azhjGgi" role="lcghm">
            <node concept="2OqwBi" id="20l7azhjIh5" role="lb14g">
              <node concept="2OqwBi" id="20l7azhjHQJ" role="2Oq$k0">
                <node concept="117lpO" id="20l7azhjGhc" role="2Oq$k0" />
                <node concept="2Xjw5R" id="20l7azhjI2Y" role="2OqNvi">
                  <node concept="1xMEDy" id="20l7azhjI30" role="1xVPHs">
                    <node concept="chp4Y" id="20l7azhjI5z" role="ri$Ld">
                      <ref role="cht4Q" to="417:3HUbvRI1m8i" resolve="FunctionDeclaration" />
                    </node>
                  </node>
                </node>
              </node>
              <node concept="3TrcHB" id="20l7azhjI$P" role="2OqNvi">
                <ref role="3TsBF5" to="tpck:h0TrG11" resolve="name" />
              </node>
            </node>
          </node>
          <node concept="l8MVK" id="5KfCCErChFu" role="lcghm" />
        </node>
      </node>
    </node>
  </node>
  <node concept="WtQ9Q" id="5KfCCErCjSW">
    <ref role="WuzLi" to="417:5_4Hghpbtfi" resolve="Expression" />
    <node concept="11bSqf" id="5KfCCErCjSX" role="11c4hB">
      <node concept="3clFbS" id="5KfCCErCjSY" role="2VODD2">
        <node concept="lc7rE" id="6CWswPBI8Rc" role="3cqZAp">
          <node concept="l8MVK" id="6CWswPBI8Ry" role="lcghm" />
          <node concept="la8eA" id="6CWswPBI8Sc" role="lcghm">
            <property role="lacIc" value="debug" />
          </node>
          <node concept="l8MVK" id="6CWswPBI8T7" role="lcghm" />
        </node>
      </node>
    </node>
  </node>
  <node concept="WtQ9Q" id="5KfCCErCl33">
    <ref role="WuzLi" to="417:3HUbvRI1maW" resolve="IdUse" />
    <node concept="11bSqf" id="5KfCCErCl34" role="11c4hB">
      <node concept="3clFbS" id="5KfCCErCl35" role="2VODD2">
        <node concept="3SKdUt" id="5KfCCErCl3p" role="3cqZAp">
          <node concept="1PaTwC" id="5KfCCErCl3q" role="3ndbpf">
            <node concept="3oM_SD" id="5KfCCErCl3s" role="1PaTwD">
              <property role="3oM_SC" value="TODO:" />
            </node>
            <node concept="3oM_SD" id="5KfCCErCl3Z" role="1PaTwD">
              <property role="3oM_SC" value="use" />
            </node>
            <node concept="3oM_SD" id="5KfCCErCl4f" role="1PaTwD">
              <property role="3oM_SC" value="declared" />
            </node>
            <node concept="3oM_SD" id="5KfCCErCl4O" role="1PaTwD">
              <property role="3oM_SC" value="function" />
            </node>
            <node concept="3oM_SD" id="5KfCCErCl56" role="1PaTwD">
              <property role="3oM_SC" value="or" />
            </node>
            <node concept="3oM_SD" id="5KfCCErCl62" role="1PaTwD">
              <property role="3oM_SC" value="param" />
            </node>
          </node>
        </node>
      </node>
    </node>
  </node>
  <node concept="WtQ9Q" id="5KfCCErCl6m">
    <ref role="WuzLi" to="417:3HUbvRI1mat" resolve="Numeral" />
    <node concept="11bSqf" id="5KfCCErCl6n" role="11c4hB">
      <node concept="3clFbS" id="5KfCCErCl6o" role="2VODD2">
        <node concept="lc7rE" id="5KfCCErCl6F" role="3cqZAp">
          <node concept="2BGw6n" id="20l7azhmhbT" role="lcghm" />
          <node concept="la8eA" id="5KfCCErCl71" role="lcghm">
            <property role="lacIc" value="movq $" />
          </node>
          <node concept="l9hG8" id="5KfCCErCl8B" role="lcghm">
            <node concept="3cpWs3" id="5KfCCErCoER" role="lb14g">
              <node concept="2OqwBi" id="5KfCCErCoQN" role="3uHU7w">
                <node concept="117lpO" id="5KfCCErCoFP" role="2Oq$k0" />
                <node concept="3TrcHB" id="5KfCCErCp8b" role="2OqNvi">
                  <ref role="3TsBF5" to="417:3HUbvRI1maw" resolve="Numeral" />
                </node>
              </node>
              <node concept="Xl_RD" id="5KfCCErCosl" role="3uHU7B" />
            </node>
          </node>
          <node concept="la8eA" id="5KfCCErCpkM" role="lcghm">
            <property role="lacIc" value=", %rax" />
          </node>
          <node concept="l8MVK" id="5KfCCErCpnp" role="lcghm" />
        </node>
      </node>
    </node>
  </node>
  <node concept="WtQ9Q" id="5KfCCErCpqT">
    <ref role="WuzLi" to="417:6DFGZWTxqrW" resolve="Negation" />
    <node concept="11bSqf" id="5KfCCErCpqU" role="11c4hB">
      <node concept="3clFbS" id="5KfCCErCpqV" role="2VODD2">
        <node concept="lc7rE" id="5KfCCErCpvU" role="3cqZAp">
          <node concept="l9hG8" id="5KfCCErCpwl" role="lcghm">
            <node concept="2OqwBi" id="5KfCCErCpCp" role="lb14g">
              <node concept="117lpO" id="5KfCCErCpxd" role="2Oq$k0" />
              <node concept="3TrEf2" id="5KfCCErCpMt" role="2OqNvi">
                <ref role="3Tt5mk" to="417:6DFGZWTxqrU" resolve="Operand" />
              </node>
            </node>
          </node>
          <node concept="l8MVK" id="5KfCCErCpRP" role="lcghm" />
        </node>
        <node concept="lc7rE" id="5KfCCErCpre" role="3cqZAp">
          <node concept="la8eA" id="5KfCCErCpr$" role="lcghm">
            <property role="lacIc" value="neg %rag" />
          </node>
          <node concept="l8MVK" id="5KfCCErCpvg" role="lcghm" />
        </node>
      </node>
    </node>
  </node>
  <node concept="WtQ9Q" id="1i0oMMbAfzY">
    <ref role="WuzLi" to="417:6DFGZWTxqs3" resolve="Multiplication" />
    <node concept="11bSqf" id="1i0oMMbAfzZ" role="11c4hB">
      <node concept="3clFbS" id="1i0oMMbAf$0" role="2VODD2">
        <node concept="lc7rE" id="1i0oMMbAf$j" role="3cqZAp">
          <node concept="l9hG8" id="1i0oMMbAf$D" role="lcghm">
            <node concept="2OqwBi" id="1i0oMMbAfGO" role="lb14g">
              <node concept="117lpO" id="1i0oMMbAf_x" role="2Oq$k0" />
              <node concept="3TrEf2" id="1i0oMMbAg0P" role="2OqNvi">
                <ref role="3Tt5mk" to="417:6DFGZWTxqrY" resolve="Left" />
              </node>
            </node>
          </node>
        </node>
        <node concept="lc7rE" id="1i0oMMbAg6f" role="3cqZAp">
          <node concept="2BGw6n" id="1i0oMMbAg73" role="lcghm" />
          <node concept="la8eA" id="1i0oMMbAg7H" role="lcghm">
            <property role="lacIc" value="pushq %rax" />
          </node>
          <node concept="l8MVK" id="1i0oMMbAg9l" role="lcghm" />
        </node>
        <node concept="lc7rE" id="1i0oMMbAgf7" role="3cqZAp">
          <node concept="l9hG8" id="1i0oMMbAgfZ" role="lcghm">
            <node concept="2OqwBi" id="1i0oMMbAgoa" role="lb14g">
              <node concept="117lpO" id="1i0oMMbAggR" role="2Oq$k0" />
              <node concept="3TrEf2" id="1i0oMMbAgGb" role="2OqNvi">
                <ref role="3Tt5mk" to="417:6DFGZWTxqs0" resolve="Right" />
              </node>
            </node>
          </node>
        </node>
        <node concept="lc7rE" id="1i0oMMbAgL4" role="3cqZAp">
          <node concept="2BGw6n" id="1i0oMMbAgN4" role="lcghm" />
          <node concept="la8eA" id="1i0oMMbAgMq" role="lcghm">
            <property role="lacIc" value="movq %rax, %rbx" />
          </node>
          <node concept="l8MVK" id="1i0oMMbAgPp" role="lcghm" />
        </node>
        <node concept="lc7rE" id="1i0oMMbAgV4" role="3cqZAp">
          <node concept="2BGw6n" id="1i0oMMbAgWu" role="lcghm" />
          <node concept="la8eA" id="1i0oMMbAgX8" role="lcghm">
            <property role="lacIc" value="popq %rax" />
          </node>
          <node concept="l8MVK" id="1i0oMMbAgZe" role="lcghm" />
        </node>
        <node concept="lc7rE" id="1i0oMMbAh0W" role="3cqZAp">
          <node concept="2BGw6n" id="1i0oMMbAh2q" role="lcghm" />
          <node concept="la8eA" id="1i0oMMbAh34" role="lcghm">
            <property role="lacIc" value="imulq %rbx, %rax" />
          </node>
          <node concept="l8MVK" id="1i0oMMbAh4G" role="lcghm" />
        </node>
      </node>
    </node>
  </node>
  <node concept="WtQ9Q" id="1i0oMMbAheb">
    <ref role="WuzLi" to="417:6DFGZWTxqs4" resolve="Division" />
    <node concept="11bSqf" id="1i0oMMbAhec" role="11c4hB">
      <node concept="3clFbS" id="1i0oMMbAhed" role="2VODD2">
        <node concept="lc7rE" id="1i0oMMbAhew" role="3cqZAp">
          <node concept="l9hG8" id="1i0oMMbAhex" role="lcghm">
            <node concept="2OqwBi" id="1i0oMMbAhey" role="lb14g">
              <node concept="117lpO" id="1i0oMMbAhez" role="2Oq$k0" />
              <node concept="3TrEf2" id="1i0oMMbAhe$" role="2OqNvi">
                <ref role="3Tt5mk" to="417:6DFGZWTxqrY" resolve="Left" />
              </node>
            </node>
          </node>
        </node>
        <node concept="lc7rE" id="1i0oMMbAhe_" role="3cqZAp">
          <node concept="2BGw6n" id="1i0oMMbAheA" role="lcghm" />
          <node concept="la8eA" id="1i0oMMbAheB" role="lcghm">
            <property role="lacIc" value="pushq %rax" />
          </node>
          <node concept="l8MVK" id="1i0oMMbAheC" role="lcghm" />
        </node>
        <node concept="lc7rE" id="1i0oMMbAheD" role="3cqZAp">
          <node concept="l9hG8" id="1i0oMMbAheE" role="lcghm">
            <node concept="2OqwBi" id="1i0oMMbAheF" role="lb14g">
              <node concept="117lpO" id="1i0oMMbAheG" role="2Oq$k0" />
              <node concept="3TrEf2" id="1i0oMMbAheH" role="2OqNvi">
                <ref role="3Tt5mk" to="417:6DFGZWTxqs0" resolve="Right" />
              </node>
            </node>
          </node>
        </node>
        <node concept="lc7rE" id="1i0oMMbAheI" role="3cqZAp">
          <node concept="2BGw6n" id="1i0oMMbAheJ" role="lcghm" />
          <node concept="la8eA" id="1i0oMMbAheK" role="lcghm">
            <property role="lacIc" value="movq %rax, %rbx" />
          </node>
          <node concept="l8MVK" id="1i0oMMbAheL" role="lcghm" />
        </node>
        <node concept="lc7rE" id="1i0oMMbAheM" role="3cqZAp">
          <node concept="2BGw6n" id="1i0oMMbAheN" role="lcghm" />
          <node concept="la8eA" id="1i0oMMbAheO" role="lcghm">
            <property role="lacIc" value="popq %rax" />
          </node>
          <node concept="l8MVK" id="1i0oMMbAheP" role="lcghm" />
        </node>
        <node concept="lc7rE" id="1i0oMMbAheQ" role="3cqZAp">
          <node concept="2BGw6n" id="1i0oMMbAheR" role="lcghm" />
          <node concept="la8eA" id="1i0oMMbAheS" role="lcghm">
            <property role="lacIc" value="movq $0, %rdx" />
          </node>
          <node concept="l8MVK" id="1i0oMMbAheT" role="lcghm" />
        </node>
        <node concept="lc7rE" id="1i0oMMbAhqB" role="3cqZAp">
          <node concept="2BGw6n" id="1i0oMMbAhs7" role="lcghm" />
          <node concept="la8eA" id="1i0oMMbAhsL" role="lcghm">
            <property role="lacIc" value="div %rbx" />
          </node>
          <node concept="l8MVK" id="1i0oMMbAhup" role="lcghm" />
        </node>
      </node>
    </node>
  </node>
  <node concept="WtQ9Q" id="1i0oMMbAhuK">
    <ref role="WuzLi" to="417:6DFGZWTxqs5" resolve="Modulo" />
    <node concept="11bSqf" id="1i0oMMbAhuL" role="11c4hB">
      <node concept="3clFbS" id="1i0oMMbAhuM" role="2VODD2">
        <node concept="lc7rE" id="1i0oMMbAhv5" role="3cqZAp">
          <node concept="l9hG8" id="1i0oMMbAhv6" role="lcghm">
            <node concept="2OqwBi" id="1i0oMMbAhv7" role="lb14g">
              <node concept="117lpO" id="1i0oMMbAhv8" role="2Oq$k0" />
              <node concept="3TrEf2" id="1i0oMMbAhv9" role="2OqNvi">
                <ref role="3Tt5mk" to="417:6DFGZWTxqrY" resolve="Left" />
              </node>
            </node>
          </node>
        </node>
        <node concept="lc7rE" id="1i0oMMbAhva" role="3cqZAp">
          <node concept="2BGw6n" id="1i0oMMbAhvb" role="lcghm" />
          <node concept="la8eA" id="1i0oMMbAhvc" role="lcghm">
            <property role="lacIc" value="pushq %rax" />
          </node>
          <node concept="l8MVK" id="1i0oMMbAhvd" role="lcghm" />
        </node>
        <node concept="lc7rE" id="1i0oMMbAhve" role="3cqZAp">
          <node concept="l9hG8" id="1i0oMMbAhvf" role="lcghm">
            <node concept="2OqwBi" id="1i0oMMbAhvg" role="lb14g">
              <node concept="117lpO" id="1i0oMMbAhvh" role="2Oq$k0" />
              <node concept="3TrEf2" id="1i0oMMbAhvi" role="2OqNvi">
                <ref role="3Tt5mk" to="417:6DFGZWTxqs0" resolve="Right" />
              </node>
            </node>
          </node>
        </node>
        <node concept="lc7rE" id="1i0oMMbAhvj" role="3cqZAp">
          <node concept="2BGw6n" id="1i0oMMbAhvk" role="lcghm" />
          <node concept="la8eA" id="1i0oMMbAhvl" role="lcghm">
            <property role="lacIc" value="movq %rax, %rbx" />
          </node>
          <node concept="l8MVK" id="1i0oMMbAhvm" role="lcghm" />
        </node>
        <node concept="lc7rE" id="1i0oMMbAhvn" role="3cqZAp">
          <node concept="2BGw6n" id="1i0oMMbAhvo" role="lcghm" />
          <node concept="la8eA" id="1i0oMMbAhvp" role="lcghm">
            <property role="lacIc" value="popq %rax" />
          </node>
          <node concept="l8MVK" id="1i0oMMbAhvq" role="lcghm" />
        </node>
        <node concept="lc7rE" id="1i0oMMbAhGz" role="3cqZAp">
          <node concept="2BGw6n" id="1i0oMMbAhI3" role="lcghm" />
          <node concept="la8eA" id="1i0oMMbAhIH" role="lcghm">
            <property role="lacIc" value="movq $0, %rdx" />
          </node>
          <node concept="l8MVK" id="1i0oMMbAhL2" role="lcghm" />
        </node>
        <node concept="lc7rE" id="1i0oMMbAhvr" role="3cqZAp">
          <node concept="2BGw6n" id="1i0oMMbAhvs" role="lcghm" />
          <node concept="la8eA" id="1i0oMMbAhvt" role="lcghm">
            <property role="lacIc" value="div %rbx" />
          </node>
          <node concept="l8MVK" id="1i0oMMbAhvu" role="lcghm" />
        </node>
        <node concept="lc7rE" id="1i0oMMbAhRN" role="3cqZAp">
          <node concept="2BGw6n" id="1i0oMMbAhTn" role="lcghm" />
          <node concept="la8eA" id="1i0oMMbAhU1" role="lcghm">
            <property role="lacIc" value="movq %rdx, %rax" />
          </node>
          <node concept="l8MVK" id="1i0oMMbAhWp" role="lcghm" />
        </node>
      </node>
    </node>
  </node>
  <node concept="WtQ9Q" id="1i0oMMbAhWK">
    <ref role="WuzLi" to="417:6DFGZWTxqs6" resolve="Addition" />
    <node concept="11bSqf" id="1i0oMMbAhWL" role="11c4hB">
      <node concept="3clFbS" id="1i0oMMbAhWM" role="2VODD2">
        <node concept="lc7rE" id="1i0oMMbAhX5" role="3cqZAp">
          <node concept="l9hG8" id="1i0oMMbAhX6" role="lcghm">
            <node concept="2OqwBi" id="1i0oMMbAhX7" role="lb14g">
              <node concept="117lpO" id="1i0oMMbAhX8" role="2Oq$k0" />
              <node concept="3TrEf2" id="1i0oMMbAhX9" role="2OqNvi">
                <ref role="3Tt5mk" to="417:6DFGZWTxqrY" resolve="Left" />
              </node>
            </node>
          </node>
        </node>
        <node concept="lc7rE" id="1i0oMMbAhXa" role="3cqZAp">
          <node concept="2BGw6n" id="1i0oMMbAhXb" role="lcghm" />
          <node concept="la8eA" id="1i0oMMbAhXc" role="lcghm">
            <property role="lacIc" value="pushq %rax" />
          </node>
          <node concept="l8MVK" id="1i0oMMbAhXd" role="lcghm" />
        </node>
        <node concept="lc7rE" id="1i0oMMbAhXe" role="3cqZAp">
          <node concept="l9hG8" id="1i0oMMbAhXf" role="lcghm">
            <node concept="2OqwBi" id="1i0oMMbAhXg" role="lb14g">
              <node concept="117lpO" id="1i0oMMbAhXh" role="2Oq$k0" />
              <node concept="3TrEf2" id="1i0oMMbAhXi" role="2OqNvi">
                <ref role="3Tt5mk" to="417:6DFGZWTxqs0" resolve="Right" />
              </node>
            </node>
          </node>
        </node>
        <node concept="lc7rE" id="1i0oMMbAhXj" role="3cqZAp">
          <node concept="2BGw6n" id="1i0oMMbAhXk" role="lcghm" />
          <node concept="la8eA" id="1i0oMMbAhXl" role="lcghm">
            <property role="lacIc" value="movq %rax, %rbx" />
          </node>
          <node concept="l8MVK" id="1i0oMMbAhXm" role="lcghm" />
        </node>
        <node concept="lc7rE" id="1i0oMMbAhXn" role="3cqZAp">
          <node concept="2BGw6n" id="1i0oMMbAhXo" role="lcghm" />
          <node concept="la8eA" id="1i0oMMbAhXp" role="lcghm">
            <property role="lacIc" value="popq %rax" />
          </node>
          <node concept="l8MVK" id="1i0oMMbAhXq" role="lcghm" />
        </node>
        <node concept="lc7rE" id="1i0oMMbAhXr" role="3cqZAp">
          <node concept="2BGw6n" id="1i0oMMbAhXs" role="lcghm" />
          <node concept="la8eA" id="1i0oMMbAhXt" role="lcghm">
            <property role="lacIc" value="add %rbx, %rax" />
          </node>
          <node concept="l8MVK" id="1i0oMMbAhXu" role="lcghm" />
        </node>
      </node>
    </node>
  </node>
  <node concept="WtQ9Q" id="1i0oMMbAi6p">
    <ref role="WuzLi" to="417:6DFGZWTxqs7" resolve="Substraction" />
    <node concept="11bSqf" id="1i0oMMbAi6q" role="11c4hB">
      <node concept="3clFbS" id="1i0oMMbAi6r" role="2VODD2">
        <node concept="lc7rE" id="1i0oMMbAi6I" role="3cqZAp">
          <node concept="l9hG8" id="1i0oMMbAi6J" role="lcghm">
            <node concept="2OqwBi" id="1i0oMMbAi6K" role="lb14g">
              <node concept="117lpO" id="1i0oMMbAi6L" role="2Oq$k0" />
              <node concept="3TrEf2" id="1i0oMMbAi6M" role="2OqNvi">
                <ref role="3Tt5mk" to="417:6DFGZWTxqrY" resolve="Left" />
              </node>
            </node>
          </node>
        </node>
        <node concept="lc7rE" id="1i0oMMbAi6N" role="3cqZAp">
          <node concept="2BGw6n" id="1i0oMMbAi6O" role="lcghm" />
          <node concept="la8eA" id="1i0oMMbAi6P" role="lcghm">
            <property role="lacIc" value="pushq %rax" />
          </node>
          <node concept="l8MVK" id="1i0oMMbAi6Q" role="lcghm" />
        </node>
        <node concept="lc7rE" id="1i0oMMbAi6R" role="3cqZAp">
          <node concept="l9hG8" id="1i0oMMbAi6S" role="lcghm">
            <node concept="2OqwBi" id="1i0oMMbAi6T" role="lb14g">
              <node concept="117lpO" id="1i0oMMbAi6U" role="2Oq$k0" />
              <node concept="3TrEf2" id="1i0oMMbAi6V" role="2OqNvi">
                <ref role="3Tt5mk" to="417:6DFGZWTxqs0" resolve="Right" />
              </node>
            </node>
          </node>
        </node>
        <node concept="lc7rE" id="1i0oMMbAi6W" role="3cqZAp">
          <node concept="2BGw6n" id="1i0oMMbAi6X" role="lcghm" />
          <node concept="la8eA" id="1i0oMMbAi6Y" role="lcghm">
            <property role="lacIc" value="movq %rax, %rbx" />
          </node>
          <node concept="l8MVK" id="1i0oMMbAi6Z" role="lcghm" />
        </node>
        <node concept="lc7rE" id="1i0oMMbAi70" role="3cqZAp">
          <node concept="2BGw6n" id="1i0oMMbAi71" role="lcghm" />
          <node concept="la8eA" id="1i0oMMbAi72" role="lcghm">
            <property role="lacIc" value="popq %rax" />
          </node>
          <node concept="l8MVK" id="1i0oMMbAi73" role="lcghm" />
        </node>
        <node concept="lc7rE" id="1i0oMMbAi74" role="3cqZAp">
          <node concept="2BGw6n" id="1i0oMMbAi75" role="lcghm" />
          <node concept="la8eA" id="1i0oMMbAi76" role="lcghm">
            <property role="lacIc" value="sub %rbx, %rax" />
          </node>
          <node concept="l8MVK" id="1i0oMMbAi77" role="lcghm" />
        </node>
      </node>
    </node>
  </node>
  <node concept="WtQ9Q" id="1i0oMMbAicg">
    <ref role="WuzLi" to="417:6DFGZWTxqs8" resolve="Equal" />
    <node concept="11bSqf" id="1i0oMMbAich" role="11c4hB">
      <node concept="3clFbS" id="1i0oMMbAici" role="2VODD2">
        <node concept="lc7rE" id="1i0oMMbAic_" role="3cqZAp">
          <node concept="l9hG8" id="1i0oMMbAicA" role="lcghm">
            <node concept="2OqwBi" id="1i0oMMbAicB" role="lb14g">
              <node concept="117lpO" id="1i0oMMbAicC" role="2Oq$k0" />
              <node concept="3TrEf2" id="1i0oMMbAicD" role="2OqNvi">
                <ref role="3Tt5mk" to="417:6DFGZWTxqrY" resolve="Left" />
              </node>
            </node>
          </node>
        </node>
        <node concept="lc7rE" id="1i0oMMbAicE" role="3cqZAp">
          <node concept="2BGw6n" id="1i0oMMbAicF" role="lcghm" />
          <node concept="la8eA" id="1i0oMMbAicG" role="lcghm">
            <property role="lacIc" value="pushq %rax" />
          </node>
          <node concept="l8MVK" id="1i0oMMbAicH" role="lcghm" />
        </node>
        <node concept="lc7rE" id="1i0oMMbAicI" role="3cqZAp">
          <node concept="l9hG8" id="1i0oMMbAicJ" role="lcghm">
            <node concept="2OqwBi" id="1i0oMMbAicK" role="lb14g">
              <node concept="117lpO" id="1i0oMMbAicL" role="2Oq$k0" />
              <node concept="3TrEf2" id="1i0oMMbAicM" role="2OqNvi">
                <ref role="3Tt5mk" to="417:6DFGZWTxqs0" resolve="Right" />
              </node>
            </node>
          </node>
        </node>
        <node concept="lc7rE" id="1i0oMMbAicN" role="3cqZAp">
          <node concept="2BGw6n" id="1i0oMMbAicO" role="lcghm" />
          <node concept="la8eA" id="1i0oMMbAicP" role="lcghm">
            <property role="lacIc" value="movq %rax, %rbx" />
          </node>
          <node concept="l8MVK" id="1i0oMMbAicQ" role="lcghm" />
        </node>
        <node concept="lc7rE" id="1i0oMMbAicR" role="3cqZAp">
          <node concept="2BGw6n" id="1i0oMMbAicS" role="lcghm" />
          <node concept="la8eA" id="1i0oMMbAicT" role="lcghm">
            <property role="lacIc" value="popq %rax" />
          </node>
          <node concept="l8MVK" id="1i0oMMbAicU" role="lcghm" />
        </node>
        <node concept="lc7rE" id="1i0oMMbAicV" role="3cqZAp">
          <node concept="2BGw6n" id="1i0oMMbAicW" role="lcghm" />
          <node concept="la8eA" id="1i0oMMbAicX" role="lcghm">
            <property role="lacIc" value="cmpq %rbx, %rax" />
          </node>
          <node concept="l8MVK" id="1i0oMMbAicY" role="lcghm" />
        </node>
        <node concept="3SKdUt" id="1i0oMMbAinj" role="3cqZAp">
          <node concept="1PaTwC" id="1i0oMMbAiqb" role="3ndbpf">
            <node concept="3oM_SD" id="1i0oMMbAinm" role="1PaTwD">
              <property role="3oM_SC" value="TODO:" />
            </node>
            <node concept="3oM_SD" id="1i0oMMbAip3" role="1PaTwD">
              <property role="3oM_SC" value="handle" />
            </node>
            <node concept="3oM_SD" id="1i0oMMbAipt" role="1PaTwD">
              <property role="3oM_SC" value="jump" />
            </node>
            <node concept="3oM_SD" id="1i0oMMbAiqy" role="1PaTwD">
              <property role="3oM_SC" value="label" />
            </node>
          </node>
        </node>
        <node concept="3SKdUt" id="1i0oMMbAixV" role="3cqZAp">
          <node concept="1PaTwC" id="1i0oMMbAiyD" role="3ndbpf">
            <node concept="3oM_SD" id="1i0oMMbAizF" role="1PaTwD">
              <property role="3oM_SC" value="# if rax != rbx, jump to label" />
            </node>
          </node>
        </node>
        <node concept="3SKdUt" id="1i0oMMbAi$2" role="3cqZAp">
          <node concept="1PaTwC" id="1i0oMMbAi$3" role="3ndbpf">
            <node concept="3oM_SD" id="1i0oMMbAi$5" role="1PaTwD">
              <property role="3oM_SC" value="jne" />
            </node>
          </node>
        </node>
      </node>
    </node>
  </node>
  <node concept="WtQ9Q" id="1i0oMMbAiGt">
    <ref role="WuzLi" to="417:6DFGZWTxqs9" resolve="NotEqual" />
    <node concept="11bSqf" id="1i0oMMbAiGu" role="11c4hB">
      <node concept="3clFbS" id="1i0oMMbAiGv" role="2VODD2">
        <node concept="lc7rE" id="1i0oMMbAiGM" role="3cqZAp">
          <node concept="l9hG8" id="1i0oMMbAiGN" role="lcghm">
            <node concept="2OqwBi" id="1i0oMMbAiGO" role="lb14g">
              <node concept="117lpO" id="1i0oMMbAiGP" role="2Oq$k0" />
              <node concept="3TrEf2" id="1i0oMMbAiGQ" role="2OqNvi">
                <ref role="3Tt5mk" to="417:6DFGZWTxqrY" resolve="Left" />
              </node>
            </node>
          </node>
        </node>
        <node concept="lc7rE" id="1i0oMMbAiGR" role="3cqZAp">
          <node concept="2BGw6n" id="1i0oMMbAiGS" role="lcghm" />
          <node concept="la8eA" id="1i0oMMbAiGT" role="lcghm">
            <property role="lacIc" value="pushq %rax" />
          </node>
          <node concept="l8MVK" id="1i0oMMbAiGU" role="lcghm" />
        </node>
        <node concept="lc7rE" id="1i0oMMbAiGV" role="3cqZAp">
          <node concept="l9hG8" id="1i0oMMbAiGW" role="lcghm">
            <node concept="2OqwBi" id="1i0oMMbAiGX" role="lb14g">
              <node concept="117lpO" id="1i0oMMbAiGY" role="2Oq$k0" />
              <node concept="3TrEf2" id="1i0oMMbAiGZ" role="2OqNvi">
                <ref role="3Tt5mk" to="417:6DFGZWTxqs0" resolve="Right" />
              </node>
            </node>
          </node>
        </node>
        <node concept="lc7rE" id="1i0oMMbAiH0" role="3cqZAp">
          <node concept="2BGw6n" id="1i0oMMbAiH1" role="lcghm" />
          <node concept="la8eA" id="1i0oMMbAiH2" role="lcghm">
            <property role="lacIc" value="movq %rax, %rbx" />
          </node>
          <node concept="l8MVK" id="1i0oMMbAiH3" role="lcghm" />
        </node>
        <node concept="lc7rE" id="1i0oMMbAiH4" role="3cqZAp">
          <node concept="2BGw6n" id="1i0oMMbAiH5" role="lcghm" />
          <node concept="la8eA" id="1i0oMMbAiH6" role="lcghm">
            <property role="lacIc" value="popq %rax" />
          </node>
          <node concept="l8MVK" id="1i0oMMbAiH7" role="lcghm" />
        </node>
        <node concept="lc7rE" id="1i0oMMbAiH8" role="3cqZAp">
          <node concept="2BGw6n" id="1i0oMMbAiH9" role="lcghm" />
          <node concept="la8eA" id="1i0oMMbAiHa" role="lcghm">
            <property role="lacIc" value="cmpq %rbx, %rax" />
          </node>
          <node concept="l8MVK" id="1i0oMMbAiHb" role="lcghm" />
        </node>
        <node concept="3SKdUt" id="1i0oMMbAiHc" role="3cqZAp">
          <node concept="1PaTwC" id="1i0oMMbAiHd" role="3ndbpf">
            <node concept="3oM_SD" id="1i0oMMbAiHe" role="1PaTwD">
              <property role="3oM_SC" value="TODO:" />
            </node>
            <node concept="3oM_SD" id="1i0oMMbAiHf" role="1PaTwD">
              <property role="3oM_SC" value="handle" />
            </node>
            <node concept="3oM_SD" id="1i0oMMbAiHg" role="1PaTwD">
              <property role="3oM_SC" value="jump" />
            </node>
            <node concept="3oM_SD" id="1i0oMMbAiHh" role="1PaTwD">
              <property role="3oM_SC" value="label" />
            </node>
          </node>
        </node>
        <node concept="3SKdUt" id="1i0oMMbAiHi" role="3cqZAp">
          <node concept="1PaTwC" id="1i0oMMbAiHj" role="3ndbpf">
            <node concept="3oM_SD" id="1i0oMMbAiHk" role="1PaTwD">
              <property role="3oM_SC" value="# if rax == rbx, jump to label" />
            </node>
          </node>
        </node>
        <node concept="3SKdUt" id="1i0oMMbAiHl" role="3cqZAp">
          <node concept="1PaTwC" id="1i0oMMbAiHm" role="3ndbpf">
            <node concept="3oM_SD" id="1i0oMMbAiHn" role="1PaTwD">
              <property role="3oM_SC" value="je" />
            </node>
          </node>
        </node>
      </node>
    </node>
  </node>
  <node concept="WtQ9Q" id="1i0oMMbAiOv">
    <ref role="WuzLi" to="417:6DFGZWTxqsa" resolve="GreaterEqual" />
    <node concept="11bSqf" id="1i0oMMbAiOw" role="11c4hB">
      <node concept="3clFbS" id="1i0oMMbAiOx" role="2VODD2">
        <node concept="lc7rE" id="1i0oMMbAiOO" role="3cqZAp">
          <node concept="l9hG8" id="1i0oMMbAiOP" role="lcghm">
            <node concept="2OqwBi" id="1i0oMMbAiOQ" role="lb14g">
              <node concept="117lpO" id="1i0oMMbAiOR" role="2Oq$k0" />
              <node concept="3TrEf2" id="1i0oMMbAiOS" role="2OqNvi">
                <ref role="3Tt5mk" to="417:6DFGZWTxqrY" resolve="Left" />
              </node>
            </node>
          </node>
        </node>
        <node concept="lc7rE" id="1i0oMMbAiOT" role="3cqZAp">
          <node concept="2BGw6n" id="1i0oMMbAiOU" role="lcghm" />
          <node concept="la8eA" id="1i0oMMbAiOV" role="lcghm">
            <property role="lacIc" value="pushq %rax" />
          </node>
          <node concept="l8MVK" id="1i0oMMbAiOW" role="lcghm" />
        </node>
        <node concept="lc7rE" id="1i0oMMbAiOX" role="3cqZAp">
          <node concept="l9hG8" id="1i0oMMbAiOY" role="lcghm">
            <node concept="2OqwBi" id="1i0oMMbAiOZ" role="lb14g">
              <node concept="117lpO" id="1i0oMMbAiP0" role="2Oq$k0" />
              <node concept="3TrEf2" id="1i0oMMbAiP1" role="2OqNvi">
                <ref role="3Tt5mk" to="417:6DFGZWTxqs0" resolve="Right" />
              </node>
            </node>
          </node>
        </node>
        <node concept="lc7rE" id="1i0oMMbAiP2" role="3cqZAp">
          <node concept="2BGw6n" id="1i0oMMbAiP3" role="lcghm" />
          <node concept="la8eA" id="1i0oMMbAiP4" role="lcghm">
            <property role="lacIc" value="movq %rax, %rbx" />
          </node>
          <node concept="l8MVK" id="1i0oMMbAiP5" role="lcghm" />
        </node>
        <node concept="lc7rE" id="1i0oMMbAiP6" role="3cqZAp">
          <node concept="2BGw6n" id="1i0oMMbAiP7" role="lcghm" />
          <node concept="la8eA" id="1i0oMMbAiP8" role="lcghm">
            <property role="lacIc" value="popq %rax" />
          </node>
          <node concept="l8MVK" id="1i0oMMbAiP9" role="lcghm" />
        </node>
        <node concept="lc7rE" id="1i0oMMbAiPa" role="3cqZAp">
          <node concept="2BGw6n" id="1i0oMMbAiPb" role="lcghm" />
          <node concept="la8eA" id="1i0oMMbAiPc" role="lcghm">
            <property role="lacIc" value="cmpq %rbx, %rax" />
          </node>
          <node concept="l8MVK" id="1i0oMMbAiPd" role="lcghm" />
        </node>
        <node concept="3SKdUt" id="1i0oMMbAiPe" role="3cqZAp">
          <node concept="1PaTwC" id="1i0oMMbAiPf" role="3ndbpf">
            <node concept="3oM_SD" id="1i0oMMbAiPg" role="1PaTwD">
              <property role="3oM_SC" value="TODO:" />
            </node>
            <node concept="3oM_SD" id="1i0oMMbAiPh" role="1PaTwD">
              <property role="3oM_SC" value="handle" />
            </node>
            <node concept="3oM_SD" id="1i0oMMbAiPi" role="1PaTwD">
              <property role="3oM_SC" value="jump" />
            </node>
            <node concept="3oM_SD" id="1i0oMMbAiPj" role="1PaTwD">
              <property role="3oM_SC" value="label" />
            </node>
          </node>
        </node>
        <node concept="3SKdUt" id="1i0oMMbAiPk" role="3cqZAp">
          <node concept="1PaTwC" id="1i0oMMbAiPl" role="3ndbpf">
            <node concept="3oM_SD" id="1i0oMMbAiPm" role="1PaTwD">
              <property role="3oM_SC" value="# if rax &lt; rbx, jump to label" />
            </node>
          </node>
        </node>
        <node concept="3SKdUt" id="1i0oMMbAiPn" role="3cqZAp">
          <node concept="1PaTwC" id="1i0oMMbAiPo" role="3ndbpf">
            <node concept="3oM_SD" id="1i0oMMbAiPp" role="1PaTwD">
              <property role="3oM_SC" value="jl" />
            </node>
          </node>
        </node>
      </node>
    </node>
  </node>
  <node concept="WtQ9Q" id="1i0oMMbAiYt">
    <ref role="WuzLi" to="417:6DFGZWTxqsb" resolve="LessEqual" />
    <node concept="11bSqf" id="1i0oMMbAiYu" role="11c4hB">
      <node concept="3clFbS" id="1i0oMMbAiYv" role="2VODD2">
        <node concept="lc7rE" id="1i0oMMbAiYM" role="3cqZAp">
          <node concept="l9hG8" id="1i0oMMbAiYN" role="lcghm">
            <node concept="2OqwBi" id="1i0oMMbAiYO" role="lb14g">
              <node concept="117lpO" id="1i0oMMbAiYP" role="2Oq$k0" />
              <node concept="3TrEf2" id="1i0oMMbAiYQ" role="2OqNvi">
                <ref role="3Tt5mk" to="417:6DFGZWTxqrY" resolve="Left" />
              </node>
            </node>
          </node>
        </node>
        <node concept="lc7rE" id="1i0oMMbAiYR" role="3cqZAp">
          <node concept="2BGw6n" id="1i0oMMbAiYS" role="lcghm" />
          <node concept="la8eA" id="1i0oMMbAiYT" role="lcghm">
            <property role="lacIc" value="pushq %rax" />
          </node>
          <node concept="l8MVK" id="1i0oMMbAiYU" role="lcghm" />
        </node>
        <node concept="lc7rE" id="1i0oMMbAiYV" role="3cqZAp">
          <node concept="l9hG8" id="1i0oMMbAiYW" role="lcghm">
            <node concept="2OqwBi" id="1i0oMMbAiYX" role="lb14g">
              <node concept="117lpO" id="1i0oMMbAiYY" role="2Oq$k0" />
              <node concept="3TrEf2" id="1i0oMMbAiYZ" role="2OqNvi">
                <ref role="3Tt5mk" to="417:6DFGZWTxqs0" resolve="Right" />
              </node>
            </node>
          </node>
        </node>
        <node concept="lc7rE" id="1i0oMMbAiZ0" role="3cqZAp">
          <node concept="2BGw6n" id="1i0oMMbAiZ1" role="lcghm" />
          <node concept="la8eA" id="1i0oMMbAiZ2" role="lcghm">
            <property role="lacIc" value="movq %rax, %rbx" />
          </node>
          <node concept="l8MVK" id="1i0oMMbAiZ3" role="lcghm" />
        </node>
        <node concept="lc7rE" id="1i0oMMbAiZ4" role="3cqZAp">
          <node concept="2BGw6n" id="1i0oMMbAiZ5" role="lcghm" />
          <node concept="la8eA" id="1i0oMMbAiZ6" role="lcghm">
            <property role="lacIc" value="popq %rax" />
          </node>
          <node concept="l8MVK" id="1i0oMMbAiZ7" role="lcghm" />
        </node>
        <node concept="lc7rE" id="1i0oMMbAiZ8" role="3cqZAp">
          <node concept="2BGw6n" id="1i0oMMbAiZ9" role="lcghm" />
          <node concept="la8eA" id="1i0oMMbAiZa" role="lcghm">
            <property role="lacIc" value="cmpq %rbx, %rax" />
          </node>
          <node concept="l8MVK" id="1i0oMMbAiZb" role="lcghm" />
        </node>
        <node concept="3SKdUt" id="1i0oMMbAiZc" role="3cqZAp">
          <node concept="1PaTwC" id="1i0oMMbAiZd" role="3ndbpf">
            <node concept="3oM_SD" id="1i0oMMbAiZe" role="1PaTwD">
              <property role="3oM_SC" value="TODO:" />
            </node>
            <node concept="3oM_SD" id="1i0oMMbAiZf" role="1PaTwD">
              <property role="3oM_SC" value="handle" />
            </node>
            <node concept="3oM_SD" id="1i0oMMbAiZg" role="1PaTwD">
              <property role="3oM_SC" value="jump" />
            </node>
            <node concept="3oM_SD" id="1i0oMMbAiZh" role="1PaTwD">
              <property role="3oM_SC" value="label" />
            </node>
          </node>
        </node>
        <node concept="3SKdUt" id="1i0oMMbAiZi" role="3cqZAp">
          <node concept="1PaTwC" id="1i0oMMbAiZj" role="3ndbpf">
            <node concept="3oM_SD" id="1i0oMMbAiZk" role="1PaTwD">
              <property role="3oM_SC" value="# if rax &gt; rbx, jump to label" />
            </node>
          </node>
        </node>
        <node concept="3SKdUt" id="1i0oMMbAiZl" role="3cqZAp">
          <node concept="1PaTwC" id="1i0oMMbAiZm" role="3ndbpf">
            <node concept="3oM_SD" id="1i0oMMbAiZn" role="1PaTwD">
              <property role="3oM_SC" value="jg" />
            </node>
          </node>
        </node>
      </node>
    </node>
  </node>
  <node concept="WtQ9Q" id="1i0oMMbAj6y">
    <ref role="WuzLi" to="417:6DFGZWTxqsc" resolve="Greater" />
    <node concept="11bSqf" id="1i0oMMbAj6z" role="11c4hB">
      <node concept="3clFbS" id="1i0oMMbAj6$" role="2VODD2">
        <node concept="lc7rE" id="1i0oMMbAj6R" role="3cqZAp">
          <node concept="l9hG8" id="1i0oMMbAj6S" role="lcghm">
            <node concept="2OqwBi" id="1i0oMMbAj6T" role="lb14g">
              <node concept="117lpO" id="1i0oMMbAj6U" role="2Oq$k0" />
              <node concept="3TrEf2" id="1i0oMMbAj6V" role="2OqNvi">
                <ref role="3Tt5mk" to="417:6DFGZWTxqrY" resolve="Left" />
              </node>
            </node>
          </node>
        </node>
        <node concept="lc7rE" id="1i0oMMbAj6W" role="3cqZAp">
          <node concept="2BGw6n" id="1i0oMMbAj6X" role="lcghm" />
          <node concept="la8eA" id="1i0oMMbAj6Y" role="lcghm">
            <property role="lacIc" value="pushq %rax" />
          </node>
          <node concept="l8MVK" id="1i0oMMbAj6Z" role="lcghm" />
        </node>
        <node concept="lc7rE" id="1i0oMMbAj70" role="3cqZAp">
          <node concept="l9hG8" id="1i0oMMbAj71" role="lcghm">
            <node concept="2OqwBi" id="1i0oMMbAj72" role="lb14g">
              <node concept="117lpO" id="1i0oMMbAj73" role="2Oq$k0" />
              <node concept="3TrEf2" id="1i0oMMbAj74" role="2OqNvi">
                <ref role="3Tt5mk" to="417:6DFGZWTxqs0" resolve="Right" />
              </node>
            </node>
          </node>
        </node>
        <node concept="lc7rE" id="1i0oMMbAj75" role="3cqZAp">
          <node concept="2BGw6n" id="1i0oMMbAj76" role="lcghm" />
          <node concept="la8eA" id="1i0oMMbAj77" role="lcghm">
            <property role="lacIc" value="movq %rax, %rbx" />
          </node>
          <node concept="l8MVK" id="1i0oMMbAj78" role="lcghm" />
        </node>
        <node concept="lc7rE" id="1i0oMMbAj79" role="3cqZAp">
          <node concept="2BGw6n" id="1i0oMMbAj7a" role="lcghm" />
          <node concept="la8eA" id="1i0oMMbAj7b" role="lcghm">
            <property role="lacIc" value="popq %rax" />
          </node>
          <node concept="l8MVK" id="1i0oMMbAj7c" role="lcghm" />
        </node>
        <node concept="lc7rE" id="1i0oMMbAj7d" role="3cqZAp">
          <node concept="2BGw6n" id="1i0oMMbAj7e" role="lcghm" />
          <node concept="la8eA" id="1i0oMMbAj7f" role="lcghm">
            <property role="lacIc" value="cmpq %rbx, %rax" />
          </node>
          <node concept="l8MVK" id="1i0oMMbAj7g" role="lcghm" />
        </node>
        <node concept="3SKdUt" id="1i0oMMbAj7h" role="3cqZAp">
          <node concept="1PaTwC" id="1i0oMMbAj7i" role="3ndbpf">
            <node concept="3oM_SD" id="1i0oMMbAj7j" role="1PaTwD">
              <property role="3oM_SC" value="TODO:" />
            </node>
            <node concept="3oM_SD" id="1i0oMMbAj7k" role="1PaTwD">
              <property role="3oM_SC" value="handle" />
            </node>
            <node concept="3oM_SD" id="1i0oMMbAj7l" role="1PaTwD">
              <property role="3oM_SC" value="jump" />
            </node>
            <node concept="3oM_SD" id="1i0oMMbAj7m" role="1PaTwD">
              <property role="3oM_SC" value="label" />
            </node>
          </node>
        </node>
        <node concept="3SKdUt" id="1i0oMMbAj7n" role="3cqZAp">
          <node concept="1PaTwC" id="1i0oMMbAj7o" role="3ndbpf">
            <node concept="3oM_SD" id="1i0oMMbAj7p" role="1PaTwD">
              <property role="3oM_SC" value="# if rax &lt;= rbx, jump to label" />
            </node>
          </node>
        </node>
        <node concept="3SKdUt" id="1i0oMMbAj7q" role="3cqZAp">
          <node concept="1PaTwC" id="1i0oMMbAj7r" role="3ndbpf">
            <node concept="3oM_SD" id="1i0oMMbAj7s" role="1PaTwD">
              <property role="3oM_SC" value="jle" />
            </node>
          </node>
        </node>
      </node>
    </node>
  </node>
  <node concept="WtQ9Q" id="1i0oMMbAjeB">
    <ref role="WuzLi" to="417:6DFGZWTxqsd" resolve="Less" />
    <node concept="11bSqf" id="1i0oMMbAjeC" role="11c4hB">
      <node concept="3clFbS" id="1i0oMMbAjeD" role="2VODD2">
        <node concept="lc7rE" id="1i0oMMbAjeW" role="3cqZAp">
          <node concept="l9hG8" id="1i0oMMbAjeX" role="lcghm">
            <node concept="2OqwBi" id="1i0oMMbAjeY" role="lb14g">
              <node concept="117lpO" id="1i0oMMbAjeZ" role="2Oq$k0" />
              <node concept="3TrEf2" id="1i0oMMbAjf0" role="2OqNvi">
                <ref role="3Tt5mk" to="417:6DFGZWTxqrY" resolve="Left" />
              </node>
            </node>
          </node>
        </node>
        <node concept="lc7rE" id="1i0oMMbAjf1" role="3cqZAp">
          <node concept="2BGw6n" id="1i0oMMbAjf2" role="lcghm" />
          <node concept="la8eA" id="1i0oMMbAjf3" role="lcghm">
            <property role="lacIc" value="pushq %rax" />
          </node>
          <node concept="l8MVK" id="1i0oMMbAjf4" role="lcghm" />
        </node>
        <node concept="lc7rE" id="1i0oMMbAjf5" role="3cqZAp">
          <node concept="l9hG8" id="1i0oMMbAjf6" role="lcghm">
            <node concept="2OqwBi" id="1i0oMMbAjf7" role="lb14g">
              <node concept="117lpO" id="1i0oMMbAjf8" role="2Oq$k0" />
              <node concept="3TrEf2" id="1i0oMMbAjf9" role="2OqNvi">
                <ref role="3Tt5mk" to="417:6DFGZWTxqs0" resolve="Right" />
              </node>
            </node>
          </node>
        </node>
        <node concept="lc7rE" id="1i0oMMbAjfa" role="3cqZAp">
          <node concept="2BGw6n" id="1i0oMMbAjfb" role="lcghm" />
          <node concept="la8eA" id="1i0oMMbAjfc" role="lcghm">
            <property role="lacIc" value="movq %rax, %rbx" />
          </node>
          <node concept="l8MVK" id="1i0oMMbAjfd" role="lcghm" />
        </node>
        <node concept="lc7rE" id="1i0oMMbAjfe" role="3cqZAp">
          <node concept="2BGw6n" id="1i0oMMbAjff" role="lcghm" />
          <node concept="la8eA" id="1i0oMMbAjfg" role="lcghm">
            <property role="lacIc" value="popq %rax" />
          </node>
          <node concept="l8MVK" id="1i0oMMbAjfh" role="lcghm" />
        </node>
        <node concept="lc7rE" id="1i0oMMbAjfi" role="3cqZAp">
          <node concept="2BGw6n" id="1i0oMMbAjfj" role="lcghm" />
          <node concept="la8eA" id="1i0oMMbAjfk" role="lcghm">
            <property role="lacIc" value="cmpq %rbx, %rax" />
          </node>
          <node concept="l8MVK" id="1i0oMMbAjfl" role="lcghm" />
        </node>
        <node concept="3SKdUt" id="1i0oMMbAjfm" role="3cqZAp">
          <node concept="1PaTwC" id="1i0oMMbAjfn" role="3ndbpf">
            <node concept="3oM_SD" id="1i0oMMbAjfo" role="1PaTwD">
              <property role="3oM_SC" value="TODO:" />
            </node>
            <node concept="3oM_SD" id="1i0oMMbAjfp" role="1PaTwD">
              <property role="3oM_SC" value="handle" />
            </node>
            <node concept="3oM_SD" id="1i0oMMbAjfq" role="1PaTwD">
              <property role="3oM_SC" value="jump" />
            </node>
            <node concept="3oM_SD" id="1i0oMMbAjfr" role="1PaTwD">
              <property role="3oM_SC" value="label" />
            </node>
          </node>
        </node>
        <node concept="3SKdUt" id="1i0oMMbAjfs" role="3cqZAp">
          <node concept="1PaTwC" id="1i0oMMbAjft" role="3ndbpf">
            <node concept="3oM_SD" id="1i0oMMbAjfu" role="1PaTwD">
              <property role="3oM_SC" value="# if rax &gt;= rbx, jump to label" />
            </node>
          </node>
        </node>
        <node concept="3SKdUt" id="1i0oMMbAjfv" role="3cqZAp">
          <node concept="1PaTwC" id="1i0oMMbAjfw" role="3ndbpf">
            <node concept="3oM_SD" id="1i0oMMbAjfx" role="1PaTwD">
              <property role="3oM_SC" value="jge" />
            </node>
          </node>
        </node>
      </node>
    </node>
  </node>
  <node concept="WtQ9Q" id="1i0oMMbAwBT">
    <ref role="WuzLi" to="417:6DFGZWTxqrt" resolve="ElseStatement" />
    <node concept="11bSqf" id="1i0oMMbAwBU" role="11c4hB">
      <node concept="3clFbS" id="1i0oMMbAwBV" role="2VODD2" />
    </node>
  </node>
  <node concept="WtQ9Q" id="5IKEDF0n9iB">
    <ref role="WuzLi" to="417:5IKEDF0igbB" resolve="BuiltInPrint" />
    <node concept="11bSqf" id="5IKEDF0n9iC" role="11c4hB">
      <node concept="3clFbS" id="5IKEDF0n9iD" role="2VODD2">
        <node concept="lc7rE" id="20l7azhk3Om" role="3cqZAp">
          <node concept="la8eA" id="20l7azhk3OT" role="lcghm">
            <property role="lacIc" value="print:" />
          </node>
          <node concept="l8MVK" id="20l7azhk3RI" role="lcghm" />
        </node>
        <node concept="lc7rE" id="20l7azhjBka" role="3cqZAp">
          <node concept="2BGw6n" id="20l7azhk3R2" role="lcghm" />
          <node concept="la8eA" id="20l7azhjBkE" role="lcghm">
            <property role="lacIc" value="### HERE should be the print procedure instructions ###" />
          </node>
          <node concept="l8MVK" id="20l7azhk3No" role="lcghm" />
        </node>
        <node concept="3SKdUt" id="20l7azhk3SP" role="3cqZAp">
          <node concept="1PaTwC" id="20l7azhk3SQ" role="3ndbpf">
            <node concept="3oM_SD" id="20l7azhk3SS" role="1PaTwD">
              <property role="3oM_SC" value="TODO" />
            </node>
            <node concept="3oM_SD" id="20l7azhk3Ty" role="1PaTwD">
              <property role="3oM_SC" value=":" />
            </node>
            <node concept="3oM_SD" id="20l7azhk3TM" role="1PaTwD">
              <property role="3oM_SC" value="add" />
            </node>
            <node concept="3oM_SD" id="20l7azhk3U3" role="1PaTwD">
              <property role="3oM_SC" value="print" />
            </node>
            <node concept="3oM_SD" id="20l7azhk3Uv" role="1PaTwD">
              <property role="3oM_SC" value="procedure" />
            </node>
            <node concept="3oM_SD" id="20l7azhk3UM" role="1PaTwD">
              <property role="3oM_SC" value="instructions" />
            </node>
          </node>
        </node>
      </node>
    </node>
  </node>
  <node concept="WtQ9Q" id="20l7azhk4cW">
    <ref role="WuzLi" to="417:6DFGZWTxqrI" resolve="FunctionCallExpression" />
    <node concept="11bSqf" id="20l7azhk4cX" role="11c4hB">
      <node concept="3clFbS" id="20l7azhk4cY" role="2VODD2">
        <node concept="3clFbJ" id="20l7azhkpwF" role="3cqZAp">
          <node concept="3clFbS" id="20l7azhkpwH" role="3clFbx">
            <node concept="lc7rE" id="20l7azhm9bS" role="3cqZAp">
              <node concept="2BGw6n" id="20l7azhm9cC" role="lcghm" />
              <node concept="la8eA" id="20l7azhm9di" role="lcghm">
                <property role="lacIc" value="# Call print with arguments" />
              </node>
              <node concept="l8MVK" id="20l7azhmaRP" role="lcghm" />
            </node>
            <node concept="lc7rE" id="20l7azhkr7F" role="3cqZAp">
              <node concept="l9S2W" id="20l7azhkxjn" role="lcghm">
                <node concept="2OqwBi" id="20l7azhkxr6" role="lbANJ">
                  <node concept="117lpO" id="20l7azhkxkn" role="2Oq$k0" />
                  <node concept="3Tsc0h" id="20l7azhkxIz" role="2OqNvi">
                    <ref role="3TtcxE" to="417:6DFGZWTxqrP" resolve="FunctionArgument" />
                  </node>
                </node>
              </node>
            </node>
            <node concept="lc7rE" id="20l7azhkzsQ" role="3cqZAp">
              <node concept="2BGw6n" id="20l7azhkzvI" role="lcghm" />
              <node concept="la8eA" id="20l7azhkzwn" role="lcghm">
                <property role="lacIc" value="pushq %rax" />
              </node>
              <node concept="l8MVK" id="20l7azhkzxK" role="lcghm" />
            </node>
            <node concept="lc7rE" id="20l7azhkzzh" role="3cqZAp">
              <node concept="2BGw6n" id="20l7azhkz_Y" role="lcghm" />
              <node concept="la8eA" id="20l7azhkzAC" role="lcghm">
                <property role="lacIc" value="call print" />
              </node>
              <node concept="l8MVK" id="20l7azhkzBz" role="lcghm" />
            </node>
            <node concept="lc7rE" id="20l7azhkzCv" role="3cqZAp">
              <node concept="2BGw6n" id="20l7azhkzDb" role="lcghm" />
              <node concept="la8eA" id="20l7azhkzDP" role="lcghm">
                <property role="lacIc" value="addq $8, %rsp" />
              </node>
              <node concept="l8MVK" id="20l7azhkzFV" role="lcghm" />
            </node>
          </node>
          <node concept="2OqwBi" id="20l7azhkqCZ" role="3clFbw">
            <node concept="2OqwBi" id="20l7azhkpID" role="2Oq$k0">
              <node concept="117lpO" id="20l7azhkpA0" role="2Oq$k0" />
              <node concept="3TrEf2" id="20l7azhkqm4" role="2OqNvi">
                <ref role="3Tt5mk" to="417:5E$wc$r7kID" resolve="FunctionDeclaration" />
              </node>
            </node>
            <node concept="1mIQ4w" id="20l7azhkr1X" role="2OqNvi">
              <node concept="chp4Y" id="20l7azhkr4P" role="cj9EA">
                <ref role="cht4Q" to="417:5IKEDF0igbB" resolve="BuiltInPrint" />
              </node>
            </node>
          </node>
          <node concept="9aQIb" id="20l7azhkzR6" role="9aQIa">
            <node concept="3clFbS" id="20l7azhkzR7" role="9aQI4">
              <node concept="lc7rE" id="20l7azhm9vU" role="3cqZAp">
                <node concept="2BGw6n" id="20l7azhm9$k" role="lcghm" />
                <node concept="la8eA" id="20l7azhm9$Y" role="lcghm">
                  <property role="lacIc" value="# Call " />
                </node>
                <node concept="l9hG8" id="20l7azhm9B4" role="lcghm">
                  <node concept="2OqwBi" id="20l7azhmam_" role="lb14g">
                    <node concept="2OqwBi" id="20l7azhm9OW" role="2Oq$k0">
                      <node concept="117lpO" id="20l7azhm9BY" role="2Oq$k0" />
                      <node concept="3TrEf2" id="20l7azhm9Z0" role="2OqNvi">
                        <ref role="3Tt5mk" to="417:5E$wc$r7kID" resolve="FunctionDeclaration" />
                      </node>
                    </node>
                    <node concept="3TrcHB" id="20l7azhmaK6" role="2OqNvi">
                      <ref role="3TsBF5" to="tpck:h0TrG11" resolve="name" />
                    </node>
                  </node>
                </node>
                <node concept="la8eA" id="20l7azhmaNU" role="lcghm">
                  <property role="lacIc" value=" with arguments" />
                </node>
                <node concept="l8MVK" id="20l7azhmaQA" role="lcghm" />
              </node>
              <node concept="lc7rE" id="20l7azhk$1O" role="3cqZAp">
                <node concept="l9S2W" id="20l7azhk$1P" role="lcghm">
                  <node concept="2OqwBi" id="20l7azhk$1Q" role="lbANJ">
                    <node concept="117lpO" id="20l7azhk$1R" role="2Oq$k0" />
                    <node concept="3Tsc0h" id="20l7azhk$1S" role="2OqNvi">
                      <ref role="3TtcxE" to="417:6DFGZWTxqrP" resolve="FunctionArgument" />
                    </node>
                  </node>
                </node>
              </node>
              <node concept="lc7rE" id="20l7azhk4dh" role="3cqZAp">
                <node concept="2BGw6n" id="20l7azhkjZh" role="lcghm" />
                <node concept="la8eA" id="20l7azhk4dB" role="lcghm">
                  <property role="lacIc" value="call " />
                </node>
                <node concept="l9hG8" id="20l7azhk4eJ" role="lcghm">
                  <node concept="2OqwBi" id="20l7azhk50x" role="lb14g">
                    <node concept="2OqwBi" id="20l7azhk4mP" role="2Oq$k0">
                      <node concept="117lpO" id="20l7azhk4fC" role="2Oq$k0" />
                      <node concept="3TrEf2" id="20l7azhk4EQ" role="2OqNvi">
                        <ref role="3Tt5mk" to="417:5E$wc$r7kID" resolve="FunctionDeclaration" />
                      </node>
                    </node>
                    <node concept="3TrcHB" id="20l7azhk5fx" role="2OqNvi">
                      <ref role="3TsBF5" to="tpck:h0TrG11" resolve="name" />
                    </node>
                  </node>
                </node>
                <node concept="l8MVK" id="20l7azhk5jk" role="lcghm" />
              </node>
              <node concept="lc7rE" id="20l7azhk$5a" role="3cqZAp">
                <node concept="2BGw6n" id="20l7azhk$6j" role="lcghm" />
                <node concept="la8eA" id="20l7azhk$6X" role="lcghm">
                  <property role="lacIc" value="addq $" />
                </node>
                <node concept="l9hG8" id="20l7azhk$8_" role="lcghm">
                  <node concept="3cpWs3" id="20l7azhkNwM" role="lb14g">
                    <node concept="Xl_RD" id="20l7azhkNdI" role="3uHU7B" />
                    <node concept="1eOMI4" id="20l7azhkKl1" role="3uHU7w">
                      <node concept="17qRlL" id="20l7azhk_7Y" role="1eOMHV">
                        <node concept="2OqwBi" id="20l7azhkB_o" role="3uHU7w">
                          <node concept="2OqwBi" id="20l7azhk_rL" role="2Oq$k0">
                            <node concept="117lpO" id="20l7azhk_8W" role="2Oq$k0" />
                            <node concept="3Tsc0h" id="20l7azhk__O" role="2OqNvi">
                              <ref role="3TtcxE" to="417:6DFGZWTxqrP" resolve="FunctionArgument" />
                            </node>
                          </node>
                          <node concept="liA8E" id="20l7azhkJc7" role="2OqNvi">
                            <ref role="37wK5l" to="33ny:~List.size()" resolve="size" />
                          </node>
                        </node>
                        <node concept="3cmrfG" id="20l7azhkKeG" role="3uHU7B">
                          <property role="3cmrfH" value="8" />
                        </node>
                      </node>
                    </node>
                  </node>
                </node>
                <node concept="la8eA" id="20l7azhkOKq" role="lcghm">
                  <property role="lacIc" value=", %rsp" />
                </node>
                <node concept="l8MVK" id="20l7azhkP6Q" role="lcghm" />
              </node>
            </node>
          </node>
        </node>
      </node>
    </node>
  </node>
  <node concept="WtQ9Q" id="20l7azhk5CQ">
    <ref role="WuzLi" to="417:6DFGZWTxqrj" resolve="IfStatement" />
    <node concept="11bSqf" id="20l7azhk5CR" role="11c4hB">
      <node concept="3clFbS" id="20l7azhk5CS" role="2VODD2">
        <node concept="lc7rE" id="20l7azhk5Ds" role="3cqZAp">
          <node concept="2BGw6n" id="6CWswPBIzGu" role="lcghm" />
          <node concept="la8eA" id="20l7azhk5DO" role="lcghm">
            <property role="lacIc" value="#if statement" />
          </node>
          <node concept="l8MVK" id="20l7azhkb4$" role="lcghm" />
        </node>
        <node concept="lc7rE" id="20l7azhkb6s" role="3cqZAp">
          <node concept="l9hG8" id="20l7azhkba9" role="lcghm">
            <node concept="2OqwBi" id="20l7azhkbhG" role="lb14g">
              <node concept="117lpO" id="20l7azhkbb2" role="2Oq$k0" />
              <node concept="3TrEf2" id="20l7azhkbqq" role="2OqNvi">
                <ref role="3Tt5mk" to="417:6DFGZWTxqrk" resolve="Condition" />
              </node>
            </node>
          </node>
        </node>
        <node concept="lc7rE" id="20l7azhmhte" role="3cqZAp">
          <node concept="2BGw6n" id="20l7azhmiJj" role="lcghm" />
          <node concept="la8eA" id="20l7azhmhvC" role="lcghm">
            <property role="lacIc" value="jmp end_if" />
          </node>
          <node concept="l8MVK" id="20l7azhmpjl" role="lcghm" />
        </node>
        <node concept="lc7rE" id="20l7azhkbFz" role="3cqZAp">
          <node concept="l9hG8" id="20l7azhkbKy" role="lcghm">
            <node concept="2OqwBi" id="20l7azhkbS4" role="lb14g">
              <node concept="117lpO" id="20l7azhkbLq" role="2Oq$k0" />
              <node concept="3TrEf2" id="20l7azhkc9a" role="2OqNvi">
                <ref role="3Tt5mk" to="417:6DFGZWTxqrm" resolve="Block" />
              </node>
            </node>
          </node>
        </node>
        <node concept="3clFbJ" id="20l7azhkcZf" role="3cqZAp">
          <node concept="3clFbS" id="20l7azhkcZh" role="3clFbx">
            <node concept="lc7rE" id="20l7azhkccY" role="3cqZAp">
              <node concept="la8eA" id="20l7azhkceT" role="lcghm">
                <property role="lacIc" value="### HERE should be the else block if exists" />
              </node>
              <node concept="l8MVK" id="20l7azhkciA" role="lcghm" />
            </node>
            <node concept="lc7rE" id="20l7azhkcqN" role="3cqZAp">
              <node concept="l9hG8" id="20l7azhkcsc" role="lcghm">
                <node concept="2OqwBi" id="20l7azhkczI" role="lb14g">
                  <node concept="117lpO" id="20l7azhkct4" role="2Oq$k0" />
                  <node concept="3TrEf2" id="20l7azhkcOO" role="2OqNvi">
                    <ref role="3Tt5mk" to="417:6DFGZWTxqrp" resolve="ElseStatement" />
                  </node>
                </node>
              </node>
            </node>
          </node>
          <node concept="3fqX7Q" id="20l7azhkdUM" role="3clFbw">
            <node concept="2OqwBi" id="20l7azhkdUO" role="3fr31v">
              <node concept="2OqwBi" id="20l7azhkdUP" role="2Oq$k0">
                <node concept="117lpO" id="20l7azhkdUQ" role="2Oq$k0" />
                <node concept="3TrEf2" id="20l7azhkdUR" role="2OqNvi">
                  <ref role="3Tt5mk" to="417:6DFGZWTxqrp" resolve="ElseStatement" />
                </node>
              </node>
              <node concept="2qgKlT" id="20l7azhkdUS" role="2OqNvi">
                <ref role="37wK5l" to="gxzi:20l7azhhhVV" resolve="isEmpty" />
              </node>
            </node>
          </node>
        </node>
        <node concept="lc7rE" id="20l7azhmiXR" role="3cqZAp">
          <node concept="la8eA" id="20l7azhmj1M" role="lcghm">
            <property role="lacIc" value="end_if:" />
          </node>
        </node>
      </node>
    </node>
  </node>
  <node concept="WtQ9Q" id="20l7azhlcyF">
    <ref role="WuzLi" to="417:6DFGZWTxqrS" resolve="FunctionArgument" />
    <node concept="11bSqf" id="20l7azhlcyG" role="11c4hB">
      <node concept="3clFbS" id="20l7azhlcyH" role="2VODD2">
        <node concept="lc7rE" id="20l7azhlcz0" role="3cqZAp">
          <node concept="l9hG8" id="6CWswPBIf0W" role="lcghm">
            <node concept="2OqwBi" id="6CWswPBIf8Q" role="lb14g">
              <node concept="117lpO" id="6CWswPBIf1M" role="2Oq$k0" />
              <node concept="3TrEf2" id="6CWswPBIfiU" role="2OqNvi">
                <ref role="3Tt5mk" to="417:2fqow7wiScq" resolve="Expression" />
              </node>
            </node>
          </node>
        </node>
      </node>
    </node>
  </node>
  <node concept="WtQ9Q" id="6CWswPBIm8t">
    <ref role="WuzLi" to="417:7WW5lvrjeWF" resolve="CommentStatement" />
    <node concept="11bSqf" id="6CWswPBIm8u" role="11c4hB">
      <node concept="3clFbS" id="6CWswPBIm8v" role="2VODD2">
        <node concept="lc7rE" id="6CWswPBIsg0" role="3cqZAp">
          <node concept="la8eA" id="6CWswPBIsgm" role="lcghm">
            <property role="lacIc" value="### Source code comment //" />
          </node>
          <node concept="l9hG8" id="6CWswPBIsj$" role="lcghm">
            <node concept="2OqwBi" id="6CWswPBIsr0" role="lb14g">
              <node concept="117lpO" id="6CWswPBIsku" role="2Oq$k0" />
              <node concept="3TrcHB" id="6CWswPBIszI" role="2OqNvi">
                <ref role="3TsBF5" to="417:7WW5lvrjzcn" resolve="text" />
              </node>
            </node>
          </node>
          <node concept="la8eA" id="6CWswPBIsiD" role="lcghm">
            <property role="lacIc" value="//" />
          </node>
        </node>
      </node>
    </node>
  </node>
</model>

