<?xml version="1.0" encoding="UTF-8"?>
<model ref="r:55f30ab6-1596-4f0d-bea8-ca434810daf6(SimpliC.behavior)">
  <persistence version="9" />
  <languages>
    <use id="7866978e-a0f0-4cc7-81bc-4d213d9375e1" name="jetbrains.mps.lang.smodel" version="17" />
    <use id="af65afd8-f0dd-4942-87d9-63a55f2a9db1" name="jetbrains.mps.lang.behavior" version="2" />
    <devkit ref="fbc25dd2-5da4-483a-8b19-70928e1b62d7(jetbrains.mps.devkit.general-purpose)" />
  </languages>
  <imports>
    <import index="417" ref="r:c812ec5f-d6df-4351-b111-e327e3950242(SimpliC.structure)" implicit="true" />
    <import index="tpck" ref="r:00000000-0000-4000-0000-011c89590288(jetbrains.mps.lang.core.structure)" implicit="true" />
    <import index="33ny" ref="6354ebe7-c22a-4a0f-ac54-50b52ab9b065/java:java.util(JDK/)" implicit="true" />
  </imports>
  <registry>
    <language id="af65afd8-f0dd-4942-87d9-63a55f2a9db1" name="jetbrains.mps.lang.behavior">
      <concept id="1225194240794" name="jetbrains.mps.lang.behavior.structure.ConceptBehavior" flags="ng" index="13h7C7">
        <reference id="1225194240799" name="concept" index="13h7C2" />
        <child id="1225194240805" name="method" index="13h7CS" />
        <child id="1225194240801" name="constructor" index="13h7CW" />
      </concept>
      <concept id="1225194413805" name="jetbrains.mps.lang.behavior.structure.ConceptConstructorDeclaration" flags="in" index="13hLZK" />
      <concept id="1225194472830" name="jetbrains.mps.lang.behavior.structure.ConceptMethodDeclaration" flags="ng" index="13i0hz" />
      <concept id="1225194691553" name="jetbrains.mps.lang.behavior.structure.ThisNodeExpression" flags="nn" index="13iPFW" />
    </language>
    <language id="f3061a53-9226-4cc5-a443-f952ceaf5816" name="jetbrains.mps.baseLanguage">
      <concept id="1215693861676" name="jetbrains.mps.baseLanguage.structure.BaseAssignmentExpression" flags="nn" index="d038R">
        <child id="1068498886297" name="rValue" index="37vLTx" />
        <child id="1068498886295" name="lValue" index="37vLTJ" />
      </concept>
      <concept id="1202948039474" name="jetbrains.mps.baseLanguage.structure.InstanceMethodCallOperation" flags="nn" index="liA8E" />
      <concept id="1197027756228" name="jetbrains.mps.baseLanguage.structure.DotExpression" flags="nn" index="2OqwBi">
        <child id="1197027771414" name="operand" index="2Oq$k0" />
        <child id="1197027833540" name="operation" index="2OqNvi" />
      </concept>
      <concept id="1145552977093" name="jetbrains.mps.baseLanguage.structure.GenericNewExpression" flags="nn" index="2ShNRf">
        <child id="1145553007750" name="creator" index="2ShVmc" />
      </concept>
      <concept id="1137021947720" name="jetbrains.mps.baseLanguage.structure.ConceptFunction" flags="in" index="2VMwT0">
        <child id="1137022507850" name="body" index="2VODD2" />
      </concept>
      <concept id="1070475926800" name="jetbrains.mps.baseLanguage.structure.StringLiteral" flags="nn" index="Xl_RD">
        <property id="1070475926801" name="value" index="Xl_RC" />
      </concept>
      <concept id="1070534644030" name="jetbrains.mps.baseLanguage.structure.BooleanType" flags="in" index="10P_77" />
      <concept id="1068431474542" name="jetbrains.mps.baseLanguage.structure.VariableDeclaration" flags="ng" index="33uBYm">
        <child id="1068431790190" name="initializer" index="33vP2m" />
      </concept>
      <concept id="1068498886296" name="jetbrains.mps.baseLanguage.structure.VariableReference" flags="nn" index="37vLTw">
        <reference id="1068581517664" name="variableDeclaration" index="3cqZAo" />
      </concept>
      <concept id="1068498886294" name="jetbrains.mps.baseLanguage.structure.AssignmentExpression" flags="nn" index="37vLTI" />
      <concept id="4972933694980447171" name="jetbrains.mps.baseLanguage.structure.BaseVariableDeclaration" flags="ng" index="19Szcq">
        <child id="5680397130376446158" name="type" index="1tU5fm" />
      </concept>
      <concept id="1068580123132" name="jetbrains.mps.baseLanguage.structure.BaseMethodDeclaration" flags="ng" index="3clF44">
        <child id="1068580123133" name="returnType" index="3clF45" />
        <child id="1068580123135" name="body" index="3clF47" />
      </concept>
      <concept id="1068580123155" name="jetbrains.mps.baseLanguage.structure.ExpressionStatement" flags="nn" index="3clFbF">
        <child id="1068580123156" name="expression" index="3clFbG" />
      </concept>
      <concept id="1068580123157" name="jetbrains.mps.baseLanguage.structure.Statement" flags="nn" index="3clFbH" />
      <concept id="1068580123136" name="jetbrains.mps.baseLanguage.structure.StatementList" flags="sn" stub="5293379017992965193" index="3clFbS">
        <child id="1068581517665" name="statement" index="3cqZAp" />
      </concept>
      <concept id="1068581242864" name="jetbrains.mps.baseLanguage.structure.LocalVariableDeclarationStatement" flags="nn" index="3cpWs8">
        <child id="1068581242865" name="localVariableDeclaration" index="3cpWs9" />
      </concept>
      <concept id="1068581242863" name="jetbrains.mps.baseLanguage.structure.LocalVariableDeclaration" flags="nr" index="3cpWsn" />
      <concept id="1204053956946" name="jetbrains.mps.baseLanguage.structure.IMethodCall" flags="ng" index="1ndlxa">
        <reference id="1068499141037" name="baseMethodDeclaration" index="37wK5l" />
      </concept>
      <concept id="1178549954367" name="jetbrains.mps.baseLanguage.structure.IVisible" flags="ng" index="1B3ioH">
        <child id="1178549979242" name="visibility" index="1B3o_S" />
      </concept>
      <concept id="6329021646629104954" name="jetbrains.mps.baseLanguage.structure.SingleLineComment" flags="nn" index="3SKdUt">
        <child id="1350122676458893092" name="text" index="3ndbpf" />
      </concept>
      <concept id="1146644602865" name="jetbrains.mps.baseLanguage.structure.PublicVisibility" flags="nn" index="3Tm1VV" />
    </language>
    <language id="7866978e-a0f0-4cc7-81bc-4d213d9375e1" name="jetbrains.mps.lang.smodel">
      <concept id="1179409122411" name="jetbrains.mps.lang.smodel.structure.Node_ConceptMethodCall" flags="nn" index="2qgKlT" />
      <concept id="1180636770613" name="jetbrains.mps.lang.smodel.structure.SNodeCreator" flags="nn" index="3zrR0B">
        <child id="1180636770616" name="createdType" index="3zrR0E" />
      </concept>
      <concept id="1138055754698" name="jetbrains.mps.lang.smodel.structure.SNodeType" flags="in" index="3Tqbb2">
        <reference id="1138405853777" name="concept" index="ehGHo" />
      </concept>
      <concept id="1138056022639" name="jetbrains.mps.lang.smodel.structure.SPropertyAccess" flags="nn" index="3TrcHB">
        <reference id="1138056395725" name="property" index="3TsBF5" />
      </concept>
      <concept id="1138056143562" name="jetbrains.mps.lang.smodel.structure.SLinkAccess" flags="nn" index="3TrEf2">
        <reference id="1138056516764" name="link" index="3Tt5mk" />
      </concept>
      <concept id="1138056282393" name="jetbrains.mps.lang.smodel.structure.SLinkListAccess" flags="nn" index="3Tsc0h">
        <reference id="1138056546658" name="link" index="3TtcxE" />
      </concept>
    </language>
    <language id="ceab5195-25ea-4f22-9b92-103b95ca8c0c" name="jetbrains.mps.lang.core">
      <concept id="1169194658468" name="jetbrains.mps.lang.core.structure.INamedConcept" flags="ng" index="TrEIO">
        <property id="1169194664001" name="name" index="TrG5h" />
      </concept>
    </language>
    <language id="c7fb639f-be78-4307-89b0-b5959c3fa8c8" name="jetbrains.mps.lang.text">
      <concept id="155656958578482948" name="jetbrains.mps.lang.text.structure.Word" flags="ng" index="3oM_SD">
        <property id="155656958578482949" name="value" index="3oM_SC" />
      </concept>
      <concept id="2535923850359271782" name="jetbrains.mps.lang.text.structure.Line" flags="ng" index="1PaTwC">
        <child id="2535923850359271783" name="elements" index="1PaTwD" />
      </concept>
    </language>
    <language id="83888646-71ce-4f1c-9c53-c54016f6ad4f" name="jetbrains.mps.baseLanguage.collections">
      <concept id="540871147943773365" name="jetbrains.mps.baseLanguage.collections.structure.SingleArgumentSequenceOperation" flags="nn" index="25WWJ4">
        <child id="540871147943773366" name="argument" index="25WWJ7" />
      </concept>
      <concept id="1227022159410" name="jetbrains.mps.baseLanguage.collections.structure.AddFirstElementOperation" flags="nn" index="2Ke4WJ" />
      <concept id="1160612413312" name="jetbrains.mps.baseLanguage.collections.structure.AddElementOperation" flags="nn" index="TSZUe" />
    </language>
  </registry>
  <node concept="13h7C7" id="5IKEDF0jHXA">
    <ref role="13h7C2" to="417:5IKEDF0igbB" resolve="BuiltInPrint" />
    <node concept="13hLZK" id="5IKEDF0jHXB" role="13h7CW">
      <node concept="3clFbS" id="5IKEDF0jHXC" role="2VODD2">
        <node concept="3clFbF" id="5IKEDF0jIe4" role="3cqZAp">
          <node concept="37vLTI" id="5IKEDF0jJAO" role="3clFbG">
            <node concept="Xl_RD" id="5IKEDF0jJH4" role="37vLTx">
              <property role="Xl_RC" value="print" />
            </node>
            <node concept="2OqwBi" id="5IKEDF0jIng" role="37vLTJ">
              <node concept="13iPFW" id="5IKEDF0jIe3" role="2Oq$k0" />
              <node concept="3TrcHB" id="5IKEDF0jIzE" role="2OqNvi">
                <ref role="3TsBF5" to="tpck:h0TrG11" resolve="name" />
              </node>
            </node>
          </node>
        </node>
        <node concept="3clFbF" id="5IKEDF0omfo" role="3cqZAp">
          <node concept="37vLTI" id="5IKEDF0onEF" role="3clFbG">
            <node concept="2ShNRf" id="5IKEDF0onJf" role="37vLTx">
              <node concept="3zrR0B" id="5IKEDF0onS7" role="2ShVmc">
                <node concept="3Tqbb2" id="5IKEDF0onS9" role="3zrR0E">
                  <ref role="ehGHo" to="417:7WW5lvrkO5E" resolve="VoidType" />
                </node>
              </node>
            </node>
            <node concept="2OqwBi" id="5IKEDF0omq4" role="37vLTJ">
              <node concept="13iPFW" id="5IKEDF0omfm" role="2Oq$k0" />
              <node concept="3TrEf2" id="5IKEDF0omKq" role="2OqNvi">
                <ref role="3Tt5mk" to="417:7WW5lvrkVt9" resolve="type" />
              </node>
            </node>
          </node>
        </node>
        <node concept="3clFbF" id="5IKEDF0onUi" role="3cqZAp">
          <node concept="37vLTI" id="5IKEDF0ooQd" role="3clFbG">
            <node concept="2ShNRf" id="5IKEDF0ooSy" role="37vLTx">
              <node concept="3zrR0B" id="5IKEDF0ooSw" role="2ShVmc">
                <node concept="3Tqbb2" id="5IKEDF0ooSx" role="3zrR0E">
                  <ref role="ehGHo" to="417:3HUbvRI1mae" resolve="Block" />
                </node>
              </node>
            </node>
            <node concept="2OqwBi" id="5IKEDF0oo3l" role="37vLTJ">
              <node concept="13iPFW" id="5IKEDF0onUg" role="2Oq$k0" />
              <node concept="3TrEf2" id="5IKEDF0oorQ" role="2OqNvi">
                <ref role="3Tt5mk" to="417:3HUbvRI1ma7" resolve="block" />
              </node>
            </node>
          </node>
        </node>
      </node>
    </node>
  </node>
  <node concept="13h7C7" id="5IKEDF0lAnT">
    <ref role="13h7C2" to="417:3HUbvRI1m89" resolve="Program" />
    <node concept="13hLZK" id="5IKEDF0lAnU" role="13h7CW">
      <node concept="3clFbS" id="5IKEDF0lAnV" role="2VODD2">
        <node concept="3SKdUt" id="20l7azhiH3h" role="3cqZAp">
          <node concept="1PaTwC" id="20l7azhiIIH" role="3ndbpf">
            <node concept="3oM_SD" id="20l7azhiII0" role="1PaTwD">
              <property role="3oM_SC" value="Add" />
            </node>
            <node concept="3oM_SD" id="20l7azhiIIV" role="1PaTwD">
              <property role="3oM_SC" value="print" />
            </node>
            <node concept="3oM_SD" id="20l7azhiIJh" role="1PaTwD">
              <property role="3oM_SC" value="function" />
            </node>
          </node>
        </node>
        <node concept="3clFbF" id="5IKEDF0lPi7" role="3cqZAp">
          <node concept="2OqwBi" id="5IKEDF0lRtB" role="3clFbG">
            <node concept="2OqwBi" id="5IKEDF0lPr9" role="2Oq$k0">
              <node concept="13iPFW" id="5IKEDF0lPi6" role="2Oq$k0" />
              <node concept="3Tsc0h" id="5IKEDF0lPy1" role="2OqNvi">
                <ref role="3TtcxE" to="417:3HUbvRI1m8e" resolve="functionDecl" />
              </node>
            </node>
            <node concept="TSZUe" id="5IKEDF0nbDN" role="2OqNvi">
              <node concept="2ShNRf" id="5IKEDF0nbT7" role="25WWJ7">
                <node concept="3zrR0B" id="5IKEDF0nc9M" role="2ShVmc">
                  <node concept="3Tqbb2" id="5IKEDF0nc9O" role="3zrR0E">
                    <ref role="ehGHo" to="417:5IKEDF0igbB" resolve="BuiltInPrint" />
                  </node>
                </node>
              </node>
            </node>
          </node>
        </node>
        <node concept="3clFbH" id="20l7azhiIJH" role="3cqZAp" />
        <node concept="3SKdUt" id="20l7azhiDNM" role="3cqZAp">
          <node concept="1PaTwC" id="20l7azhiDNN" role="3ndbpf">
            <node concept="3oM_SD" id="20l7azhiDNP" role="1PaTwD">
              <property role="3oM_SC" value="Add" />
            </node>
            <node concept="3oM_SD" id="20l7azhiFsc" role="1PaTwD">
              <property role="3oM_SC" value="main" />
            </node>
            <node concept="3oM_SD" id="20l7azhiFsn" role="1PaTwD">
              <property role="3oM_SC" value="function" />
            </node>
          </node>
        </node>
        <node concept="3cpWs8" id="20l7azhirZG" role="3cqZAp">
          <node concept="3cpWsn" id="20l7azhirZJ" role="3cpWs9">
            <property role="TrG5h" value="main" />
            <node concept="3Tqbb2" id="20l7azhirZE" role="1tU5fm">
              <ref role="ehGHo" to="417:3HUbvRI1m8i" resolve="FunctionDeclaration" />
            </node>
            <node concept="2ShNRf" id="20l7azhitGE" role="33vP2m">
              <node concept="3zrR0B" id="20l7azhitNy" role="2ShVmc">
                <node concept="3Tqbb2" id="20l7azhitN$" role="3zrR0E">
                  <ref role="ehGHo" to="417:3HUbvRI1m8i" resolve="FunctionDeclaration" />
                </node>
              </node>
            </node>
          </node>
        </node>
        <node concept="3clFbF" id="20l7azhiv$X" role="3cqZAp">
          <node concept="37vLTI" id="20l7azhiy8F" role="3clFbG">
            <node concept="Xl_RD" id="20l7azhiyeU" role="37vLTx">
              <property role="Xl_RC" value="main" />
            </node>
            <node concept="2OqwBi" id="20l7azhixgv" role="37vLTJ">
              <node concept="37vLTw" id="20l7azhiv$V" role="2Oq$k0">
                <ref role="3cqZAo" node="20l7azhirZJ" resolve="main" />
              </node>
              <node concept="3TrcHB" id="20l7azhixrc" role="2OqNvi">
                <ref role="3TsBF5" to="tpck:h0TrG11" resolve="name" />
              </node>
            </node>
          </node>
        </node>
        <node concept="3clFbF" id="20l7azhiYdS" role="3cqZAp">
          <node concept="37vLTI" id="20l7azhj0si" role="3clFbG">
            <node concept="2ShNRf" id="20l7azhj0BV" role="37vLTx">
              <node concept="3zrR0B" id="20l7azhj0MX" role="2ShVmc">
                <node concept="3Tqbb2" id="20l7azhj0MZ" role="3zrR0E">
                  <ref role="ehGHo" to="417:7WW5lvrkO5E" resolve="VoidType" />
                </node>
              </node>
            </node>
            <node concept="2OqwBi" id="20l7azhiZR_" role="37vLTJ">
              <node concept="37vLTw" id="20l7azhiYdQ" role="2Oq$k0">
                <ref role="3cqZAo" node="20l7azhirZJ" resolve="main" />
              </node>
              <node concept="3TrEf2" id="20l7azhj02k" role="2OqNvi">
                <ref role="3Tt5mk" to="417:7WW5lvrkVt9" resolve="type" />
              </node>
            </node>
          </node>
        </node>
        <node concept="3clFbF" id="20l7azhj45s" role="3cqZAp">
          <node concept="37vLTI" id="20l7azhj6xm" role="3clFbG">
            <node concept="2ShNRf" id="20l7azhj6zE" role="37vLTx">
              <node concept="3zrR0B" id="20l7azhj6zC" role="2ShVmc">
                <node concept="3Tqbb2" id="20l7azhj6zD" role="3zrR0E">
                  <ref role="ehGHo" to="417:3HUbvRI1mae" resolve="Block" />
                </node>
              </node>
            </node>
            <node concept="2OqwBi" id="20l7azhj5IN" role="37vLTJ">
              <node concept="37vLTw" id="20l7azhj45q" role="2Oq$k0">
                <ref role="3cqZAo" node="20l7azhirZJ" resolve="main" />
              </node>
              <node concept="3TrEf2" id="20l7azhj64N" role="2OqNvi">
                <ref role="3Tt5mk" to="417:3HUbvRI1ma7" resolve="block" />
              </node>
            </node>
          </node>
        </node>
        <node concept="3clFbF" id="20l7azhi0yl" role="3cqZAp">
          <node concept="2OqwBi" id="20l7azhi2WT" role="3clFbG">
            <node concept="2OqwBi" id="20l7azhi0Pb" role="2Oq$k0">
              <node concept="13iPFW" id="20l7azhi0yj" role="2Oq$k0" />
              <node concept="3Tsc0h" id="20l7azhi132" role="2OqNvi">
                <ref role="3TtcxE" to="417:3HUbvRI1m8e" resolve="functionDecl" />
              </node>
            </node>
            <node concept="2Ke4WJ" id="20l7azhi8WJ" role="2OqNvi">
              <node concept="37vLTw" id="20l7azhiAJo" role="25WWJ7">
                <ref role="3cqZAo" node="20l7azhirZJ" resolve="main" />
              </node>
            </node>
          </node>
        </node>
      </node>
    </node>
  </node>
  <node concept="13h7C7" id="20l7azhhhVK">
    <ref role="13h7C2" to="417:6DFGZWTxqrt" resolve="ElseStatement" />
    <node concept="13i0hz" id="20l7azhhhVV" role="13h7CS">
      <property role="TrG5h" value="isEmpty" />
      <node concept="3Tm1VV" id="20l7azhhhVW" role="1B3o_S" />
      <node concept="10P_77" id="20l7azhhhWb" role="3clF45" />
      <node concept="3clFbS" id="20l7azhhhVY" role="3clF47">
        <node concept="3clFbF" id="20l7azhhhX7" role="3cqZAp">
          <node concept="2OqwBi" id="20l7azhhiyV" role="3clFbG">
            <node concept="2OqwBi" id="20l7azhhi6V" role="2Oq$k0">
              <node concept="13iPFW" id="20l7azhhhX6" role="2Oq$k0" />
              <node concept="3TrEf2" id="20l7azhhife" role="2OqNvi">
                <ref role="3Tt5mk" to="417:6DFGZWTxqrw" resolve="Block" />
              </node>
            </node>
            <node concept="2qgKlT" id="20l7azhhomf" role="2OqNvi">
              <ref role="37wK5l" node="20l7azhhiTe" resolve="isEmpty" />
            </node>
          </node>
        </node>
      </node>
    </node>
    <node concept="13hLZK" id="20l7azhhhVL" role="13h7CW">
      <node concept="3clFbS" id="20l7azhhhVM" role="2VODD2" />
    </node>
  </node>
  <node concept="13h7C7" id="20l7azhhiT3">
    <ref role="13h7C2" to="417:3HUbvRI1mae" resolve="Block" />
    <node concept="13i0hz" id="20l7azhhiTe" role="13h7CS">
      <property role="TrG5h" value="isEmpty" />
      <node concept="3Tm1VV" id="20l7azhhiTf" role="1B3o_S" />
      <node concept="10P_77" id="20l7azhhiTu" role="3clF45" />
      <node concept="3clFbS" id="20l7azhhiTh" role="3clF47">
        <node concept="3clFbF" id="20l7azhhiU2" role="3cqZAp">
          <node concept="2OqwBi" id="20l7azhhl6P" role="3clFbG">
            <node concept="2OqwBi" id="20l7azhhj34" role="2Oq$k0">
              <node concept="13iPFW" id="20l7azhhiU1" role="2Oq$k0" />
              <node concept="3Tsc0h" id="20l7azhhjgV" role="2OqNvi">
                <ref role="3TtcxE" to="417:3HUbvRI1maf" resolve="statementList" />
              </node>
            </node>
            <node concept="liA8E" id="20l7azhhnMP" role="2OqNvi">
              <ref role="37wK5l" to="33ny:~List.isEmpty()" resolve="isEmpty" />
            </node>
          </node>
        </node>
      </node>
    </node>
    <node concept="13hLZK" id="20l7azhhiT4" role="13h7CW">
      <node concept="3clFbS" id="20l7azhhiT5" role="2VODD2" />
    </node>
  </node>
  <node concept="13h7C7" id="20l7azhhoon">
    <ref role="13h7C2" to="417:6DFGZWTxqrj" resolve="IfStatement" />
    <node concept="13hLZK" id="20l7azhhooo" role="13h7CW">
      <node concept="3clFbS" id="20l7azhhoop" role="2VODD2" />
    </node>
  </node>
  <node concept="13h7C7" id="20l7azhjq7w">
    <ref role="13h7C2" to="417:3HUbvRI1m8i" resolve="FunctionDeclaration" />
    <node concept="13hLZK" id="20l7azhjq7x" role="13h7CW">
      <node concept="3clFbS" id="20l7azhjq7y" role="2VODD2">
        <node concept="3clFbF" id="20l7azhjq7G" role="3cqZAp">
          <node concept="37vLTI" id="20l7azhjrew" role="3clFbG">
            <node concept="2OqwBi" id="20l7azhjqgm" role="37vLTJ">
              <node concept="13iPFW" id="20l7azhjq7F" role="2Oq$k0" />
              <node concept="3TrcHB" id="20l7azhjq$n" role="2OqNvi">
                <ref role="3TsBF5" to="tpck:h0TrG11" resolve="name" />
              </node>
            </node>
            <node concept="Xl_RD" id="20l7azhjrPw" role="37vLTx" />
          </node>
        </node>
      </node>
    </node>
  </node>
</model>

